[
  {
    "link_thumb": "https://live.staticflickr.com/65535/50039872418_0d8ba9acfc_n.jpg",
    "id_album": "779690680",
    "description": "Robot_928646",
    "title": "Robot_928646",
    "link_img": "https://live.staticflickr.com/65535/50039872418_9ce78ff09e_o.jpg",
    "id_image": "Robot_928646",
    "count_view": 0
  },
  {
    "link_thumb": "https://live.staticflickr.com/65535/50039879283_fa3ebb8bb9_n.jpg",
    "id_album": "779690680",
    "description": "Robot_937810",
    "title": "Robot_937810",
    "link_img": "https://live.staticflickr.com/65535/50039879283_7ecfd142d9_o.jpg",
    "id_image": "Robot_937810",
    "count_view": 0
  },
  {
    "link_thumb": "https://live.staticflickr.com/65535/50040119336_4dfb371931_n.jpg",
    "id_album": "-1102314093",
    "description": "Planets_502963",
    "title": "Planets_502963",
    "link_img": "https://live.staticflickr.com/65535/50040119336_806373b1ea_o.jpg",
    "id_image": "Planets_502963",
    "count_view": 0
  },
  {
    "link_thumb": "https://live.staticflickr.com/65535/50041592861_41046debf3_n.jpg",
    "id_album": "-1675918237",
    "description": "WomenWarrior_981207",
    "title": "WomenWarrior_981207",
    "link_img": "https://live.staticflickr.com/65535/50041592861_d8449773b1_o.jpg",
    "id_image": "WomenWarrior_981207",
    "count_view": 0
  },
  {
    "link_thumb": "https://live.staticflickr.com/65535/50038931293_2874897db5_n.jpg",
    "id_album": "-1964113117",
    "description": "City_576566",
    "title": "City_576566",
    "link_img": "https://live.staticflickr.com/65535/50038931293_135ec1cd00_o.jpg",
    "id_image": "City_576566",
    "count_view": 0
  },
  {
    "link_thumb": "https://live.staticflickr.com/65535/50040526978_624843fd30_n.jpg",
    "id_album": "-1863373220",
    "description": "StarWars_107423",
    "title": "StarWars_107423",
    "link_img": "https://live.staticflickr.com/65535/50040526978_6786180b30_o.jpg",
    "id_image": "StarWars_107423",
    "count_view": 0
  },
  {
    "link_thumb": "https://live.staticflickr.com/65535/50040033287_6d460f75b3_n.jpg",
    "id_album": "-1610342324",
    "description": "Nebula_207909",
    "title": "Nebula_207909",
    "link_img": "https://live.staticflickr.com/65535/50040033287_946599128f_o.jpg",
    "id_image": "Nebula_207909",
    "count_view": 0
  },
  {
    "link_thumb": "https://live.staticflickr.com/65535/50039641791_d9e9820471_n.jpg",
    "id_album": "1204249541",
    "description": "Galaxy_549909",
    "title": "Galaxy_549909",
    "link_img": "https://live.staticflickr.com/65535/50039641791_75d20a4246_o.jpg",
    "id_image": "Galaxy_549909",
    "count_view": 0
  },
  {
    "link_thumb": "https://live.staticflickr.com/65535/50040650897_f8473343d1_n.jpg",
    "id_album": "779690680",
    "description": "Robot_875302",
    "title": "Robot_875302",
    "link_img": "https://live.staticflickr.com/65535/50040650897_4418f00c2c_o.jpg",
    "id_image": "Robot_875302",
    "count_view": 0
  },
  {
    "link_thumb": "https://live.staticflickr.com/65535/50039078458_f1508e0074_n.jpg",
    "id_album": "1204249541",
    "description": "Galaxy_240106",
    "title": "Galaxy_240106",
    "link_img": "https://live.staticflickr.com/65535/50039078458_122fd01f7f_o.jpg",
    "id_image": "Galaxy_240106",
    "count_view": 0
  },
  {
    "link_thumb": "https://live.staticflickr.com/65535/50039183803_4b66855098_n.jpg",
    "id_album": "-1388385651",
    "description": "MilkyWay_555449",
    "title": "MilkyWay_555449",
    "link_img": "https://live.staticflickr.com/65535/50039183803_26df7aec03_o.jpg",
    "id_image": "MilkyWay_555449",
    "count_view": 0
  },
  {
    "link_thumb": "https://live.staticflickr.com/65535/50039447748_b43a90227a_n.jpg",
    "id_album": "1443611160",
    "description": "PlanetRise_211944",
    "title": "PlanetRise_211944",
    "link_img": "https://live.staticflickr.com/65535/50039447748_b4a16ed442_o.jpg",
    "id_image": "PlanetRise_211944",
    "count_view": 0
  },
  {
    "link_thumb": "https://live.staticflickr.com/65535/50040900618_24505daa7f_n.jpg",
    "id_album": "-1261420436",
    "description": "Warrior_384693",
    "title": "Warrior_384693",
    "link_img": "https://live.staticflickr.com/65535/50040900618_f24486b9e7_o.jpg",
    "id_image": "Warrior_384693",
    "count_view": 0
  },
  {
    "link_thumb": "https://live.staticflickr.com/65535/50040864628_84d8ec7429_n.jpg",
    "id_album": "2020068132",
    "description": "Vehicle_896230",
    "title": "Vehicle_896230",
    "link_img": "https://live.staticflickr.com/65535/50040864628_c39788b060_o.jpg",
    "id_image": "Vehicle_896230",
    "count_view": 0
  },
  {
    "link_thumb": "https://live.staticflickr.com/65535/50041415572_6b11c3120d_n.jpg",
    "id_album": "-1863373220",
    "description": "StarWars_241448",
    "title": "StarWars_241448",
    "link_img": "https://live.staticflickr.com/65535/50041415572_37e2132737_o.jpg",
    "id_image": "StarWars_241448",
    "count_view": 0
  },
  {
    "link_thumb": "https://live.staticflickr.com/65535/50040803258_dc4de72c7d_n.jpg",
    "id_album": "-1177476763",
    "description": "Sunrise_209952",
    "title": "Sunrise_209952",
    "link_img": "https://live.staticflickr.com/65535/50040803258_032742de87_o.jpg",
    "id_image": "Sunrise_209952",
    "count_view": 0
  },
  {
    "link_thumb": "https://live.staticflickr.com/65535/50039413876_1cfa99f95c_n.jpg",
    "id_album": "-1780971522",
    "description": "Biohazard_371301",
    "title": "Biohazard_371301",
    "link_img": "https://live.staticflickr.com/65535/50039413876_976b6d1b34_o.jpg",
    "id_image": "Biohazard_371301",
    "count_view": 0
  },
  {
    "link_thumb": "https://live.staticflickr.com/65535/50040304771_13ce5a9e28_n.jpg",
    "id_album": "779690680",
    "description": "Robot_410859",
    "title": "Robot_410859",
    "link_img": "https://live.staticflickr.com/65535/50040304771_1ec80173cb_o.jpg",
    "id_image": "Robot_410859",
    "count_view": 0
  },
  {
    "link_thumb": "https://live.staticflickr.com/65535/50039683917_bd3a02ee5d_n.jpg",
    "id_album": "406431601",
    "description": "Building_344266",
    "title": "Building_344266",
    "link_img": "https://live.staticflickr.com/65535/50039683917_9bb148289b_o.jpg",
    "id_image": "Building_344266",
    "count_view": 0
  },
  {
    "link_thumb": "https://live.staticflickr.com/65535/50039888917_1b0a114d62_n.jpg",
    "id_album": "1204249541",
    "description": "Galaxy_201447",
    "title": "Galaxy_201447",
    "link_img": "https://live.staticflickr.com/65535/50039888917_3bf899e786_o.jpg",
    "id_image": "Galaxy_201447",
    "count_view": 0
  },
  {
    "link_thumb": "https://live.staticflickr.com/65535/50039952832_d7701cf05b_n.jpg",
    "id_album": "1402713104",
    "description": "Landscape_446153",
    "title": "Landscape_446153",
    "link_img": "https://live.staticflickr.com/65535/50039952832_131d6cf9ce_o.jpg",
    "id_image": "Landscape_446153",
    "count_view": 0
  },
  {
    "link_thumb": "https://live.staticflickr.com/65535/50039904501_8a802b8335_n.jpg",
    "id_album": "395161030",
    "description": "Planet_115813",
    "title": "Planet_115813",
    "link_img": "https://live.staticflickr.com/65535/50039904501_f96579ec80_o.jpg",
    "id_image": "Planet_115813",
    "count_view": 0
  },
  {
    "link_thumb": "https://live.staticflickr.com/65535/50040495867_9cd82f3cc1_n.jpg",
    "id_album": "-482547208",
    "description": "PostApocalyptic_922151",
    "title": "PostApocalyptic_922151",
    "link_img": "https://live.staticflickr.com/65535/50040495867_84a5845ab7_o.jpg",
    "id_image": "PostApocalyptic_922151",
    "count_view": 0
  },
  {
    "link_thumb": "https://live.staticflickr.com/65535/50038745453_26c37e10f6_n.jpg",
    "id_album": "523598895",
    "description": "Artistic_112397",
    "title": "Artistic_112397",
    "link_img": "https://live.staticflickr.com/65535/50038745453_ccf7d1e445_o.jpg",
    "id_image": "Artistic_112397",
    "count_view": 0
  },
  {
    "link_thumb": "https://live.staticflickr.com/65535/50039600197_3070e28358_n.jpg",
    "id_album": "523598895",
    "description": "Artistic_533762",
    "title": "Artistic_533762",
    "link_img": "https://live.staticflickr.com/65535/50039600197_8855847598_o.jpg",
    "id_image": "Artistic_533762",
    "count_view": 0
  },
  {
    "link_thumb": "https://live.staticflickr.com/65535/50039240283_02f50ff7f2_n.jpg",
    "id_album": "-1610342324",
    "description": "Nebula_383694",
    "title": "Nebula_383694",
    "link_img": "https://live.staticflickr.com/65535/50039240283_374d3b14b1_o.jpg",
    "id_image": "Nebula_383694",
    "count_view": 0
  },
  {
    "link_thumb": "https://live.staticflickr.com/65535/50039501902_a9f33f29ef_n.jpg",
    "id_album": "-406145265",
    "description": "Aircraft_399888",
    "title": "Aircraft_399888",
    "link_img": "https://live.staticflickr.com/65535/50039501902_a59e50c0ff_o.jpg",
    "id_image": "Aircraft_399888",
    "count_view": 0
  },
  {
    "link_thumb": "https://live.staticflickr.com/65535/50039486741_f74b53b616_n.jpg",
    "id_album": "-1964113117",
    "description": "City_677173",
    "title": "City_677173",
    "link_img": "https://live.staticflickr.com/65535/50039486741_afd3a73d3e_o.jpg",
    "id_image": "City_677173",
    "count_view": 0
  },
  {
    "link_thumb": "https://live.staticflickr.com/65535/50038897918_f2263d569c_n.jpg",
    "id_album": "-1964113117",
    "description": "City_213574",
    "title": "City_213574",
    "link_img": "https://live.staticflickr.com/65535/50038897918_8aa4aa1f2e_o.jpg",
    "id_image": "City_213574",
    "count_view": 0
  },
  {
    "link_thumb": "https://live.staticflickr.com/65535/50040083572_5bb28b9efb_n.jpg",
    "id_album": "-1610342324",
    "description": "Nebula_676673",
    "title": "Nebula_676673",
    "link_img": "https://live.staticflickr.com/65535/50040083572_0690b19d5e_o.jpg",
    "id_image": "Nebula_676673",
    "count_view": 0
  },
  {
    "link_thumb": "https://live.staticflickr.com/65535/50039941632_663b69667f_n.jpg",
    "id_album": "1402713104",
    "description": "Landscape_330883",
    "title": "Landscape_330883",
    "link_img": "https://live.staticflickr.com/65535/50039941632_74a0df42ca_o.jpg",
    "id_image": "Landscape_330883",
    "count_view": 0
  },
  {
    "link_thumb": "https://live.staticflickr.com/65535/50039787696_29a7f0bc15_n.jpg",
    "id_album": "-1610342324",
    "description": "Nebula_363730",
    "title": "Nebula_363730",
    "link_img": "https://live.staticflickr.com/65535/50039787696_46fc81412d_o.jpg",
    "id_image": "Nebula_363730",
    "count_view": 0
  },
  {
    "link_thumb": "https://live.staticflickr.com/65535/50041589121_82a8b8178b_n.jpg",
    "id_album": "-1675918237",
    "description": "WomenWarrior_870420",
    "title": "WomenWarrior_870420",
    "link_img": "https://live.staticflickr.com/65535/50041589121_cb9dc558ae_o.jpg",
    "id_image": "WomenWarrior_870420",
    "count_view": 0
  },
  {
    "link_thumb": "https://live.staticflickr.com/65535/50041750302_8f0485a27d_n.jpg",
    "id_album": "-1261420436",
    "description": "Warrior_787254",
    "title": "Warrior_787254",
    "link_img": "https://live.staticflickr.com/65535/50041750302_f845bcde86_o.jpg",
    "id_image": "Warrior_787254",
    "count_view": 0
  },
  {
    "link_thumb": "https://live.staticflickr.com/65535/50040906633_665cb7d8f8_n.jpg",
    "id_album": "-1261420436",
    "description": "Warrior_426470",
    "title": "Warrior_426470",
    "link_img": "https://live.staticflickr.com/65535/50040906633_6c024b8064_o.jpg",
    "id_image": "Warrior_426470",
    "count_view": 0
  },
  {
    "link_thumb": "https://live.staticflickr.com/65535/50039789722_7cce967f17_n.jpg",
    "id_album": "-1964113117",
    "description": "City_958305",
    "title": "City_958305",
    "link_img": "https://live.staticflickr.com/65535/50039789722_6a3592cc65_o.jpg",
    "id_image": "City_958305",
    "count_view": 0
  },
  {
    "link_thumb": "https://live.staticflickr.com/65535/50040435881_fdb3d551a6_n.jpg",
    "id_album": "779690680",
    "description": "Robot_940959",
    "title": "Robot_940959",
    "link_img": "https://live.staticflickr.com/65535/50040435881_74be7aa04c_o.jpg",
    "id_image": "Robot_940959",
    "count_view": 0
  },
  {
    "link_thumb": "https://live.staticflickr.com/65535/50038745113_1e5e1d9863_n.jpg",
    "id_album": "523598895",
    "description": "Artistic_109105",
    "title": "Artistic_109105",
    "link_img": "https://live.staticflickr.com/65535/50038745113_c7b2f95a2e_o.jpg",
    "id_image": "Artistic_109105",
    "count_view": 0
  },
  {
    "link_thumb": "https://live.staticflickr.com/65535/50038879218_6473c0ab85_n.jpg",
    "id_album": "406431601",
    "description": "Building_949774",
    "title": "Building_949774",
    "link_img": "https://live.staticflickr.com/65535/50038879218_72f108f799_o.jpg",
    "id_image": "Building_949774",
    "count_view": 0
  },
  {
    "link_thumb": "https://live.staticflickr.com/65535/50039383321_925f5ec24a_n.jpg",
    "id_album": "869545341",
    "description": "Astronaut_950863",
    "title": "Astronaut_950863",
    "link_img": "https://live.staticflickr.com/65535/50039383321_d03b4ed0cd_o.jpg",
    "id_image": "Astronaut_950863",
    "count_view": 0
  },
  {
    "link_thumb": "https://live.staticflickr.com/65535/50039162528_07975bb1fc_n.jpg",
    "id_album": "1402713104",
    "description": "Landscape_857204",
    "title": "Landscape_857204",
    "link_img": "https://live.staticflickr.com/65535/50039162528_1cf687b87b_o.jpg",
    "id_image": "Landscape_857204",
    "count_view": 0
  },
  {
    "link_thumb": "https://live.staticflickr.com/65535/50039915807_3440870b0f_n.jpg",
    "id_album": "1204249541",
    "description": "Galaxy_746412",
    "title": "Galaxy_746412",
    "link_img": "https://live.staticflickr.com/65535/50039915807_055d3eec38_o.jpg",
    "id_image": "Galaxy_746412",
    "count_view": 0
  },
  {
    "link_thumb": "https://live.staticflickr.com/65535/50038981758_b18a591750_n.jpg",
    "id_album": "-1964113117",
    "description": "City_974784",
    "title": "City_974784",
    "link_img": "https://live.staticflickr.com/65535/50038981758_650637f195_o.jpg",
    "id_image": "City_974784",
    "count_view": 0
  },
  {
    "link_thumb": "https://live.staticflickr.com/65535/50039400751_839b79e7b1_n.jpg",
    "id_album": "1187037014",
    "description": "Battle_312152",
    "title": "Battle_312152",
    "link_img": "https://live.staticflickr.com/65535/50039400751_a65957653c_o.jpg",
    "id_image": "Battle_312152",
    "count_view": 0
  },
  {
    "link_thumb": "https://live.staticflickr.com/65535/50039838873_d36fd853fc_n.jpg",
    "id_album": "779690680",
    "description": "Robot_883164",
    "title": "Robot_883164",
    "link_img": "https://live.staticflickr.com/65535/50039838873_b498581d33_o.jpg",
    "id_image": "Robot_883164",
    "count_view": 0
  },
  {
    "link_thumb": "https://live.staticflickr.com/65535/50039850001_9fdd134494_n.jpg",
    "id_album": "-1610342324",
    "description": "Nebula_886578",
    "title": "Nebula_886578",
    "link_img": "https://live.staticflickr.com/65535/50039850001_6955943dec_o.jpg",
    "id_image": "Nebula_886578",
    "count_view": 0
  },
  {
    "link_thumb": "https://live.staticflickr.com/65535/50039962217_14d889ae0d_n.jpg",
    "id_album": "1402713104",
    "description": "Landscape_675208",
    "title": "Landscape_675208",
    "link_img": "https://live.staticflickr.com/65535/50039962217_91f56a1c05_o.jpg",
    "id_image": "Landscape_675208",
    "count_view": 0
  },
  {
    "link_thumb": "https://live.staticflickr.com/65535/50040170956_feb4bea691_n.jpg",
    "id_album": "376235057",
    "description": "Planetscape_384301",
    "title": "Planetscape_384301",
    "link_img": "https://live.staticflickr.com/65535/50040170956_be66a43688_o.jpg",
    "id_image": "Planetscape_384301",
    "count_view": 0
  },
  {
    "link_thumb": "https://live.staticflickr.com/65535/50039904621_9fb06c528e_n.jpg",
    "id_album": "395161030",
    "description": "Planet_118587",
    "title": "Planet_118587",
    "link_img": "https://live.staticflickr.com/65535/50039904621_993dfa1bb6_o.jpg",
    "id_image": "Planet_118587",
    "count_view": 0
  },
  {
    "link_thumb": "https://live.staticflickr.com/65535/50039299923_f921864955_n.jpg",
    "id_album": "-1610342324",
    "description": "Nebula_882498",
    "title": "Nebula_882498",
    "link_img": "https://live.staticflickr.com/65535/50039299923_b0eed2a3d7_o.jpg",
    "id_image": "Nebula_882498",
    "count_view": 0
  },
  {
    "link_thumb": "https://live.staticflickr.com/65535/50039661742_42abb783de_n.jpg",
    "id_album": "1187037014",
    "description": "Battle_269840",
    "title": "Battle_269840",
    "link_img": "https://live.staticflickr.com/65535/50039661742_7273f8ce89_o.jpg",
    "id_image": "Battle_269840",
    "count_view": 0
  },
  {
    "link_thumb": "https://live.staticflickr.com/65535/50039240361_7a66527f6f_n.jpg",
    "id_album": "-406145265",
    "description": "Aircraft_401742",
    "title": "Aircraft_401742",
    "link_img": "https://live.staticflickr.com/65535/50039240361_bc3dfc1554_o.jpg",
    "id_image": "Aircraft_401742",
    "count_view": 0
  },
  {
    "link_thumb": "https://live.staticflickr.com/65535/50039790232_6d6812ae80_n.jpg",
    "id_album": "-1964113117",
    "description": "City_962967",
    "title": "City_962967",
    "link_img": "https://live.staticflickr.com/65535/50039790232_2bac71de3a_o.jpg",
    "id_image": "City_962967",
    "count_view": 0
  },
  {
    "link_thumb": "https://live.staticflickr.com/65535/50040440256_cc6c235f9c_n.jpg",
    "id_album": "779690680",
    "description": "Robot_944762",
    "title": "Robot_944762",
    "link_img": "https://live.staticflickr.com/65535/50040440256_e5ba996fdd_o.jpg",
    "id_image": "Robot_944762",
    "count_view": 0
  },
  {
    "link_thumb": "https://live.staticflickr.com/65535/50041525222_5680399726_n.jpg",
    "id_album": "-1587696329",
    "description": "Stars_291491",
    "title": "Stars_291491",
    "link_img": "https://live.staticflickr.com/65535/50041525222_f977e6a673_o.jpg",
    "id_image": "Stars_291491",
    "count_view": 0
  },
  {
    "link_thumb": "https://live.staticflickr.com/65535/50039082913_d523f81c72_n.jpg",
    "id_album": "1204249541",
    "description": "Galaxy_385782",
    "title": "Galaxy_385782",
    "link_img": "https://live.staticflickr.com/65535/50039082913_560c42ff1e_o.jpg",
    "id_image": "Galaxy_385782",
    "count_view": 0
  },
  {
    "link_thumb": "https://live.staticflickr.com/65535/50039496322_c99c2540f5_n.jpg",
    "id_album": "-406145265",
    "description": "Aircraft_146659",
    "title": "Aircraft_146659",
    "link_img": "https://live.staticflickr.com/65535/50039496322_0652f561e7_o.jpg",
    "id_image": "Aircraft_146659",
    "count_view": 0
  },
  {
    "link_thumb": "https://live.staticflickr.com/65535/50040298947_6bfb3b0494_n.jpg",
    "id_album": "814701616",
    "description": "PlanetaryRing_514552",
    "title": "PlanetaryRing_514552",
    "link_img": "https://live.staticflickr.com/65535/50040298947_e0d0d78fb2_o.jpg",
    "id_image": "PlanetaryRing_514552",
    "count_view": 0
  },
  {
    "link_thumb": "https://live.staticflickr.com/65535/50039569558_36c895c848_n.jpg",
    "id_album": "-1102314093",
    "description": "Planets_511225",
    "title": "Planets_511225",
    "link_img": "https://live.staticflickr.com/65535/50039569558_79d4602b00_o.jpg",
    "id_image": "Planets_511225",
    "count_view": 0
  },
  {
    "link_thumb": "https://live.staticflickr.com/65535/50041554092_27c3cd6730_n.jpg",
    "id_album": "1267121215",
    "description": "Steampunk_184480",
    "title": "Steampunk_184480",
    "link_img": "https://live.staticflickr.com/65535/50041554092_1f9d033136_o.jpg",
    "id_image": "Steampunk_184480",
    "count_view": 0
  },
  {
    "link_thumb": "https://live.staticflickr.com/65535/50039677727_dd477e0c53_n.jpg",
    "id_album": "-1780971522",
    "description": "Biohazard_494279",
    "title": "Biohazard_494279",
    "link_img": "https://live.staticflickr.com/65535/50039677727_5213f9f4f4_o.jpg",
    "id_image": "Biohazard_494279",
    "count_view": 0
  },
  {
    "link_thumb": "https://live.staticflickr.com/65535/50040607452_5e70fe2392_n.jpg",
    "id_album": "779690680",
    "description": "Robot_602295",
    "title": "Robot_602295",
    "link_img": "https://live.staticflickr.com/65535/50040607452_813059482e_o.jpg",
    "id_image": "Robot_602295",
    "count_view": 0
  },
  {
    "link_thumb": "https://live.staticflickr.com/65535/50039677437_84e5a6ae5f_n.jpg",
    "id_album": "-1780971522",
    "description": "Biohazard_494274",
    "title": "Biohazard_494274",
    "link_img": "https://live.staticflickr.com/65535/50039677437_9953ffb040_o.jpg",
    "id_image": "Biohazard_494274",
    "count_view": 0
  },
  {
    "link_thumb": "https://live.staticflickr.com/65535/50041047902_090005729d_n.jpg",
    "id_album": "2130067313",
    "description": "Spaceship_992543",
    "title": "Spaceship_992543",
    "link_img": "https://live.staticflickr.com/65535/50041047902_0f27dee4b9_o.jpg",
    "id_image": "Spaceship_992543",
    "count_view": 0
  },
  {
    "link_thumb": "https://live.staticflickr.com/65535/50039345746_b4ef96a822_n.jpg",
    "id_album": "523598895",
    "description": "Artistic_876188",
    "title": "Artistic_876188",
    "link_img": "https://live.staticflickr.com/65535/50039345746_dbdd7ae338_o.jpg",
    "id_image": "Artistic_876188",
    "count_view": 0
  },
  {
    "link_thumb": "https://live.staticflickr.com/65535/50040448151_70b74267cf_n.jpg",
    "id_album": "779690680",
    "description": "Robot_959170",
    "title": "Robot_959170",
    "link_img": "https://live.staticflickr.com/65535/50040448151_65ab59fcfd_o.jpg",
    "id_image": "Robot_959170",
    "count_view": 0
  },
  {
    "link_thumb": "https://live.staticflickr.com/65535/50039810387_e4dcb667c3_n.jpg",
    "id_album": "-437872736",
    "description": "Creature_289697",
    "title": "Creature_289697",
    "link_img": "https://live.staticflickr.com/65535/50039810387_c91247edb9_o.jpg",
    "id_image": "Creature_289697",
    "count_view": 0
  },
  {
    "link_thumb": "https://live.staticflickr.com/65535/50039854023_58566d8048_n.jpg",
    "id_album": "779690680",
    "description": "Robot_910947",
    "title": "Robot_910947",
    "link_img": "https://live.staticflickr.com/65535/50039854023_ce17a48a4e_o.jpg",
    "id_image": "Robot_910947",
    "count_view": 0
  },
  {
    "link_thumb": "https://live.staticflickr.com/65535/50039281251_2715e69def_n.jpg",
    "id_album": "-419633230",
    "description": "Apocalyptic_283702",
    "title": "Apocalyptic_283702",
    "link_img": "https://live.staticflickr.com/65535/50039281251_cc905eae01_o.jpg",
    "id_image": "Apocalyptic_283702",
    "count_view": 0
  },
  {
    "link_thumb": "https://live.staticflickr.com/65535/50041269281_d02eac25a0_n.jpg",
    "id_album": "-1587696329",
    "description": "Stars_442533",
    "title": "Stars_442533",
    "link_img": "https://live.staticflickr.com/65535/50041269281_b3ab716c7d_o.jpg",
    "id_image": "Stars_442533",
    "count_view": 0
  },
  {
    "link_thumb": "https://live.staticflickr.com/65535/50040266296_f4c7288674_n.jpg",
    "id_album": "779690680",
    "description": "Robot_219077",
    "title": "Robot_219077",
    "link_img": "https://live.staticflickr.com/65535/50040266296_b3d3a26b1c_o.jpg",
    "id_image": "Robot_219077",
    "count_view": 0
  },
  {
    "link_thumb": "https://live.staticflickr.com/65535/50041468557_71131fda71_n.jpg",
    "id_album": "-1863373220",
    "description": "StarWars_662526",
    "title": "StarWars_662526",
    "link_img": "https://live.staticflickr.com/65535/50041468557_d118ddb2ae_o.jpg",
    "id_image": "StarWars_662526",
    "count_view": 0
  },
  {
    "link_thumb": "https://live.staticflickr.com/65535/50039142478_b59b1afcb9_n.jpg",
    "id_album": "1402713104",
    "description": "Landscape_522893",
    "title": "Landscape_522893",
    "link_img": "https://live.staticflickr.com/65535/50039142478_c4c74a46ae_o.jpg",
    "id_image": "Landscape_522893",
    "count_view": 0
  },
  {
    "link_thumb": "https://live.staticflickr.com/65535/50039706217_e5a32367fe_n.jpg",
    "id_album": "-1964113117",
    "description": "City_205947",
    "title": "City_205947",
    "link_img": "https://live.staticflickr.com/65535/50039706217_7ce252b0bb_o.jpg",
    "id_image": "City_205947",
    "count_view": 0
  },
  {
    "link_thumb": "https://live.staticflickr.com/65535/50039755923_36c5f3e412_n.jpg",
    "id_album": "779690680",
    "description": "Robot_445890",
    "title": "Robot_445890",
    "link_img": "https://live.staticflickr.com/65535/50039755923_af9be5aea0_o.jpg",
    "id_image": "Robot_445890",
    "count_view": 0
  },
  {
    "link_thumb": "https://live.staticflickr.com/65535/50038849333_5e166103ba_n.jpg",
    "id_album": "1187037014",
    "description": "Battle_244159",
    "title": "Battle_244159",
    "link_img": "https://live.staticflickr.com/65535/50038849333_483d61b029_o.jpg",
    "id_image": "Battle_244159",
    "count_view": 0
  },
  {
    "link_thumb": "https://live.staticflickr.com/65535/50038966678_3f8e297388_n.jpg",
    "id_album": "-1964113117",
    "description": "City_896214",
    "title": "City_896214",
    "link_img": "https://live.staticflickr.com/65535/50038966678_2e48e46991_o.jpg",
    "id_image": "City_896214",
    "count_view": 0
  },
  {
    "link_thumb": "https://live.staticflickr.com/65535/50039905851_2dce4efd1e_n.jpg",
    "id_album": "395161030",
    "description": "Planet_152730",
    "title": "Planet_152730",
    "link_img": "https://live.staticflickr.com/65535/50039905851_f6a42f9f6b_o.jpg",
    "id_image": "Planet_152730",
    "count_view": 0
  },
  {
    "link_thumb": "https://live.staticflickr.com/65535/50039505486_417670b1cf_n.jpg",
    "id_album": "-1964113117",
    "description": "City_862704",
    "title": "City_862704",
    "link_img": "https://live.staticflickr.com/65535/50039505486_9ca3973435_o.jpg",
    "id_image": "City_862704",
    "count_view": 0
  },
  {
    "link_thumb": "https://live.staticflickr.com/65535/50040020257_14483f86d5_n.jpg",
    "id_album": "416351698",
    "description": "Moon_490656",
    "title": "Moon_490656",
    "link_img": "https://live.staticflickr.com/65535/50040020257_611c0ce2a7_o.jpg",
    "id_image": "Moon_490656",
    "count_view": 0
  },
  {
    "link_thumb": "https://live.staticflickr.com/65535/50039844726_8fd2b35026_n.jpg",
    "id_album": "-1610342324",
    "description": "Nebula_86411",
    "title": "Nebula_86411",
    "link_img": "https://live.staticflickr.com/65535/50039844726_c5035b80f3_o.jpg",
    "id_image": "Nebula_86411",
    "count_view": 0
  },
  {
    "link_thumb": "https://live.staticflickr.com/65535/50039532848_a1a77e918a_n.jpg",
    "id_album": "-1102314093",
    "description": "Planets_328726",
    "title": "Planets_328726",
    "link_img": "https://live.staticflickr.com/65535/50039532848_cd53a14aca_o.jpg",
    "id_image": "Planets_328726",
    "count_view": 0
  },
  {
    "link_thumb": "https://live.staticflickr.com/65535/50039386546_929cdece6f_n.jpg",
    "id_album": "869545341",
    "description": "Astronaut_965900",
    "title": "Astronaut_965900",
    "link_img": "https://live.staticflickr.com/65535/50039386546_f848d53bc1_o.jpg",
    "id_image": "Astronaut_965900",
    "count_view": 0
  },
  {
    "link_thumb": "https://live.staticflickr.com/65535/50039624873_98f4293153_n.jpg",
    "id_album": "376235057",
    "description": "Planetscape_531444",
    "title": "Planetscape_531444",
    "link_img": "https://live.staticflickr.com/65535/50039624873_48e2e179f1_o.jpg",
    "id_image": "Planetscape_531444",
    "count_view": 0
  },
  {
    "link_thumb": "https://live.staticflickr.com/65535/50041187211_9c1a05b262_n.jpg",
    "id_album": "-1863373220",
    "description": "StarWars_497637",
    "title": "StarWars_497637",
    "link_img": "https://live.staticflickr.com/65535/50041187211_07b9832a9f_o.jpg",
    "id_image": "StarWars_497637",
    "count_view": 0
  },
  {
    "link_thumb": "https://live.staticflickr.com/65535/50040188396_c951e8cf0a_n.jpg",
    "id_album": "-482547208",
    "description": "PostApocalyptic_106770",
    "title": "PostApocalyptic_106770",
    "link_img": "https://live.staticflickr.com/65535/50040188396_24a49a4bf9_o.jpg",
    "id_image": "PostApocalyptic_106770",
    "count_view": 0
  },
  {
    "link_thumb": "https://live.staticflickr.com/65535/50040462237_eab648c418_n.jpg",
    "id_album": "-482547208",
    "description": "PostApocalyptic_231176",
    "title": "PostApocalyptic_231176",
    "link_img": "https://live.staticflickr.com/65535/50040462237_78e22231ac_o.jpg",
    "id_image": "PostApocalyptic_231176",
    "count_view": 0
  },
  {
    "link_thumb": "https://live.staticflickr.com/65535/50038716488_df6335a28c_n.jpg",
    "id_album": "849020728",
    "description": "Alien_410857",
    "title": "Alien_410857",
    "link_img": "https://live.staticflickr.com/65535/50038716488_75988dcf3f_o.jpg",
    "id_image": "Alien_410857",
    "count_view": 0
  },
  {
    "link_thumb": "https://live.staticflickr.com/65535/50040833178_f241410f19_n.jpg",
    "id_album": "2020068132",
    "description": "Vehicle_318713",
    "title": "Vehicle_318713",
    "link_img": "https://live.staticflickr.com/65535/50040833178_27e40cca3e_o.jpg",
    "id_image": "Vehicle_318713",
    "count_view": 0
  },
  {
    "link_thumb": "https://live.staticflickr.com/65535/50040655717_2130ce619c_n.jpg",
    "id_album": "779690680",
    "description": "Robot_88207",
    "title": "Robot_88207",
    "link_img": "https://live.staticflickr.com/65535/50040655717_4495ecf33d_o.jpg",
    "id_image": "Robot_88207",
    "count_view": 0
  },
  {
    "link_thumb": "https://live.staticflickr.com/65535/50039352433_99981d5d0c_n.jpg",
    "id_album": "395161030",
    "description": "Planet_1008906",
    "title": "Planet_1008906",
    "link_img": "https://live.staticflickr.com/65535/50039352433_c9239cfce6_o.jpg",
    "id_image": "Planet_1008906",
    "count_view": 0
  },
  {
    "link_thumb": "https://live.staticflickr.com/65535/50040996078_225a6a7d80_n.jpg",
    "id_album": "-1126835654",
    "description": "Women_880586",
    "title": "Women_880586",
    "link_img": "https://live.staticflickr.com/65535/50040996078_ce575d81a3_o.jpg",
    "id_image": "Women_880586",
    "count_view": 0
  },
  {
    "link_thumb": "https://live.staticflickr.com/65535/50040058042_0d6d2d0b1a_n.jpg",
    "id_album": "-1610342324",
    "description": "Nebula_41630",
    "title": "Nebula_41630",
    "link_img": "https://live.staticflickr.com/65535/50040058042_2fafcaeaaa_o.jpg",
    "id_image": "Nebula_41630",
    "count_view": 0
  },
  {
    "link_thumb": "https://live.staticflickr.com/65535/50039000358_25b3337d7e_n.jpg",
    "id_album": "-437872736",
    "description": "Creature_282527",
    "title": "Creature_282527",
    "link_img": "https://live.staticflickr.com/65535/50039000358_d1205a310f_o.jpg",
    "id_image": "Creature_282527",
    "count_view": 0
  },
  {
    "link_thumb": "https://live.staticflickr.com/65535/50041417716_306a5c73bb_n.jpg",
    "id_album": "2020068132",
    "description": "Vehicle_883354",
    "title": "Vehicle_883354",
    "link_img": "https://live.staticflickr.com/65535/50041417716_5fe9f098d1_o.jpg",
    "id_image": "Vehicle_883354",
    "count_view": 0
  },
  {
    "link_thumb": "https://live.staticflickr.com/65535/50040062536_1f3a47b520_n.jpg",
    "id_album": "-1102314093",
    "description": "Planets_225063",
    "title": "Planets_225063",
    "link_img": "https://live.staticflickr.com/65535/50040062536_3959b3d6ae_o.jpg",
    "id_image": "Planets_225063",
    "count_view": 0
  },
  {
    "link_thumb": "https://live.staticflickr.com/65535/50039978913_ff8811870b_n.jpg",
    "id_album": "1613540653",
    "description": "Space_729755",
    "title": "Space_729755",
    "link_img": "https://live.staticflickr.com/65535/50039978913_289c416232_o.jpg",
    "id_image": "Space_729755",
    "count_view": 0
  },
  {
    "link_thumb": "https://live.staticflickr.com/65535/50039962258_c9bb985c74_n.jpg",
    "id_album": "1613540653",
    "description": "Space_595000",
    "title": "Space_595000",
    "link_img": "https://live.staticflickr.com/65535/50039962258_5dcdc95ba7_o.jpg",
    "id_image": "Space_595000",
    "count_view": 0
  },
  {
    "link_thumb": "https://live.staticflickr.com/65535/50039015933_d1e0ea1d24_n.jpg",
    "id_album": "-1372247677",
    "description": "Cyberpunk_876309",
    "title": "Cyberpunk_876309",
    "link_img": "https://live.staticflickr.com/65535/50039015933_819cf99358_o.jpg",
    "id_image": "Cyberpunk_876309",
    "count_view": 0
  },
  {
    "link_thumb": "https://live.staticflickr.com/65535/50039427796_40c402370e_n.jpg",
    "id_album": "406431601",
    "description": "Building_94710",
    "title": "Building_94710",
    "link_img": "https://live.staticflickr.com/65535/50039427796_b95386d190_o.jpg",
    "id_image": "Building_94710",
    "count_view": 0
  },
  {
    "link_thumb": "https://live.staticflickr.com/65535/50039893182_e636ba3c38_n.jpg",
    "id_album": "1204249541",
    "description": "Galaxy_305308",
    "title": "Galaxy_305308",
    "link_img": "https://live.staticflickr.com/65535/50039893182_89dfddf850_o.jpg",
    "id_image": "Galaxy_305308",
    "count_view": 0
  },
  {
    "link_thumb": "https://live.staticflickr.com/65535/50040066152_58229be646_n.jpg",
    "id_album": "-1610342324",
    "description": "Nebula_505516",
    "title": "Nebula_505516",
    "link_img": "https://live.staticflickr.com/65535/50040066152_914ba7d824_o.jpg",
    "id_image": "Nebula_505516",
    "count_view": 0
  },
  {
    "link_thumb": "https://live.staticflickr.com/65535/50040685842_10878fcac6_n.jpg",
    "id_album": "779690680",
    "description": "Robot_928550",
    "title": "Robot_928550",
    "link_img": "https://live.staticflickr.com/65535/50040685842_558bc1b795_o.jpg",
    "id_image": "Robot_928550",
    "count_view": 0
  },
  {
    "link_thumb": "https://live.staticflickr.com/65535/50039159053_b339d649f2_n.jpg",
    "id_album": "1402713104",
    "description": "Landscape_80660",
    "title": "Landscape_80660",
    "link_img": "https://live.staticflickr.com/65535/50039159053_3302981f3f_o.jpg",
    "id_image": "Landscape_80660",
    "count_view": 0
  },
  {
    "link_thumb": "https://live.staticflickr.com/65535/50039953173_322089070e_n.jpg",
    "id_album": "1613540653",
    "description": "Space_444791",
    "title": "Space_444791",
    "link_img": "https://live.staticflickr.com/65535/50039953173_5f32154020_o.jpg",
    "id_image": "Space_444791",
    "count_view": 0
  },
  {
    "link_thumb": "https://live.staticflickr.com/65535/50039250181_66e483f09a_n.jpg",
    "id_album": "849020728",
    "description": "Alien_181504",
    "title": "Alien_181504",
    "link_img": "https://live.staticflickr.com/65535/50039250181_d1c59bd2bd_o.jpg",
    "id_image": "Alien_181504",
    "count_view": 0
  },
  {
    "link_thumb": "https://live.staticflickr.com/65535/50040418751_8b8ee7c638_n.jpg",
    "id_album": "779690680",
    "description": "Robot_922858",
    "title": "Robot_922858",
    "link_img": "https://live.staticflickr.com/65535/50040418751_8166db540e_o.jpg",
    "id_image": "Robot_922858",
    "count_view": 0
  },
  {
    "link_thumb": "https://live.staticflickr.com/65535/50038772593_382ecebfee_n.jpg",
    "id_album": "523598895",
    "description": "Artistic_233260",
    "title": "Artistic_233260",
    "link_img": "https://live.staticflickr.com/65535/50038772593_a9f7f1991e_o.jpg",
    "id_image": "Artistic_233260",
    "count_view": 0
  },
  {
    "link_thumb": "https://live.staticflickr.com/65535/50039755787_04ce990403_n.jpg",
    "id_album": "-1964113117",
    "description": "City_726447",
    "title": "City_726447",
    "link_img": "https://live.staticflickr.com/65535/50039755787_4a56d216d2_o.jpg",
    "id_image": "City_726447",
    "count_view": 0
  },
  {
    "link_thumb": "https://live.staticflickr.com/65535/50041590377_79ca5c6569_n.jpg",
    "id_album": "1267121215",
    "description": "Steampunk_711576",
    "title": "Steampunk_711576",
    "link_img": "https://live.staticflickr.com/65535/50041590377_627e9a7acc_o.jpg",
    "id_image": "Steampunk_711576",
    "count_view": 0
  },
  {
    "link_thumb": "https://live.staticflickr.com/65535/50041706317_d0bb8dbe57_n.jpg",
    "id_album": "-1261420436",
    "description": "Warrior_283852",
    "title": "Warrior_283852",
    "link_img": "https://live.staticflickr.com/65535/50041706317_783af978b6_o.jpg",
    "id_image": "Warrior_283852",
    "count_view": 0
  },
  {
    "link_thumb": "https://live.staticflickr.com/65535/50040717947_984bcaf4df_n.jpg",
    "id_album": "779690680",
    "description": "Robot_987589",
    "title": "Robot_987589",
    "link_img": "https://live.staticflickr.com/65535/50040717947_504b691a7f_o.jpg",
    "id_image": "Robot_987589",
    "count_view": 0
  },
  {
    "link_thumb": "https://live.staticflickr.com/65535/50040390571_09254441b8_n.jpg",
    "id_album": "779690680",
    "description": "Robot_881754",
    "title": "Robot_881754",
    "link_img": "https://live.staticflickr.com/65535/50040390571_cf607076ae_o.jpg",
    "id_image": "Robot_881754",
    "count_view": 0
  },
  {
    "link_thumb": "https://live.staticflickr.com/65535/50039888817_2774ec4698_n.jpg",
    "id_album": "1204249541",
    "description": "Galaxy_196794",
    "title": "Galaxy_196794",
    "link_img": "https://live.staticflickr.com/65535/50039888817_1c9ab2f884_o.jpg",
    "id_image": "Galaxy_196794",
    "count_view": 0
  },
  {
    "link_thumb": "https://live.staticflickr.com/65535/50039721711_d47b2d461c_n.jpg",
    "id_album": "1402713104",
    "description": "Landscape_912378",
    "title": "Landscape_912378",
    "link_img": "https://live.staticflickr.com/65535/50039721711_7a33306519_o.jpg",
    "id_image": "Landscape_912378",
    "count_view": 0
  },
  {
    "link_thumb": "https://live.staticflickr.com/65535/50040441872_0682cedd97_n.jpg",
    "id_album": "376235057",
    "description": "Planetscape_589835",
    "title": "Planetscape_589835",
    "link_img": "https://live.staticflickr.com/65535/50040441872_4213ea89cc_o.jpg",
    "id_image": "Planetscape_589835",
    "count_view": 0
  },
  {
    "link_thumb": "https://live.staticflickr.com/65535/50039533161_8c3a5bf048_n.jpg",
    "id_album": "-1964113117",
    "description": "City_992759",
    "title": "City_992759",
    "link_img": "https://live.staticflickr.com/65535/50039533161_fec4689f84_o.jpg",
    "id_image": "City_992759",
    "count_view": 0
  },
  {
    "link_thumb": "https://live.staticflickr.com/65535/50039524302_866881c836_n.jpg",
    "id_album": "849020728",
    "description": "Alien_393636",
    "title": "Alien_393636",
    "link_img": "https://live.staticflickr.com/65535/50039524302_e94c17fd43_o.jpg",
    "id_image": "Alien_393636",
    "count_view": 0
  },
  {
    "link_thumb": "https://live.staticflickr.com/65535/50039768126_0350da0c0d_n.jpg",
    "id_album": "-1610342324",
    "description": "Nebula_200197",
    "title": "Nebula_200197",
    "link_img": "https://live.staticflickr.com/65535/50039768126_0a58b825b6_o.jpg",
    "id_image": "Nebula_200197",
    "count_view": 0
  },
  {
    "link_thumb": "https://live.staticflickr.com/65535/50041563741_5b21c625f9_n.jpg",
    "id_album": "-1675918237",
    "description": "WomenWarrior_283334",
    "title": "WomenWarrior_283334",
    "link_img": "https://live.staticflickr.com/65535/50041563741_5a8b211ee1_o.jpg",
    "id_image": "WomenWarrior_283334",
    "count_view": 0
  },
  {
    "link_thumb": "https://live.staticflickr.com/65535/50038809133_4a12181fd9_n.jpg",
    "id_album": "869545341",
    "description": "Astronaut_556060",
    "title": "Astronaut_556060",
    "link_img": "https://live.staticflickr.com/65535/50038809133_d49d9a4e81_o.jpg",
    "id_image": "Astronaut_556060",
    "count_view": 0
  },
  {
    "link_thumb": "https://live.staticflickr.com/65535/50041450807_85d70ee999_n.jpg",
    "id_album": "-1863373220",
    "description": "StarWars_497639",
    "title": "StarWars_497639",
    "link_img": "https://live.staticflickr.com/65535/50041450807_53b0d23841_o.jpg",
    "id_image": "StarWars_497639",
    "count_view": 0
  },
  {
    "link_thumb": "https://live.staticflickr.com/65535/50040677787_e4c2c7b5d5_n.jpg",
    "id_album": "779690680",
    "description": "Robot_915578",
    "title": "Robot_915578",
    "link_img": "https://live.staticflickr.com/65535/50040677787_4ae7a6eb2e_o.jpg",
    "id_image": "Robot_915578",
    "count_view": 0
  },
  {
    "link_thumb": "https://live.staticflickr.com/65535/50040821777_cff0433310_n.jpg",
    "id_album": "-1532370292",
    "description": "SpaceStation_266621",
    "title": "SpaceStation_266621",
    "link_img": "https://live.staticflickr.com/65535/50040821777_a7f1d5dd7a_o.jpg",
    "id_image": "SpaceStation_266621",
    "count_view": 0
  },
  {
    "link_thumb": "https://live.staticflickr.com/65535/50039573978_2ac10f220b_n.jpg",
    "id_album": "-1102314093",
    "description": "Planets_533960",
    "title": "Planets_533960",
    "link_img": "https://live.staticflickr.com/65535/50039573978_e253cb8486_o.jpg",
    "id_image": "Planets_533960",
    "count_view": 0
  },
  {
    "link_thumb": "https://live.staticflickr.com/65535/50039856278_1b0e5177c1_n.jpg",
    "id_album": "779690680",
    "description": "Robot_913017",
    "title": "Robot_913017",
    "link_img": "https://live.staticflickr.com/65535/50039856278_d43de2aa44_o.jpg",
    "id_image": "Robot_913017",
    "count_view": 0
  },
  {
    "link_thumb": "https://live.staticflickr.com/65535/50040739568_baba53057c_n.jpg",
    "id_album": "1267121215",
    "description": "Steampunk_190394",
    "title": "Steampunk_190394",
    "link_img": "https://live.staticflickr.com/65535/50040739568_dd9deb02a4_o.jpg",
    "id_image": "Steampunk_190394",
    "count_view": 0
  },
  {
    "link_thumb": "https://live.staticflickr.com/65535/50039502432_bda6dfd791_n.jpg",
    "id_album": "-406145265",
    "description": "Aircraft_405087",
    "title": "Aircraft_405087",
    "link_img": "https://live.staticflickr.com/65535/50039502432_6131cef8fb_o.jpg",
    "id_image": "Aircraft_405087",
    "count_view": 0
  },
  {
    "link_thumb": "https://live.staticflickr.com/65535/50040351366_48d5a85c92_n.jpg",
    "id_album": "779690680",
    "description": "Robot_649115",
    "title": "Robot_649115",
    "link_img": "https://live.staticflickr.com/65535/50040351366_e6b5310be5_o.jpg",
    "id_image": "Robot_649115",
    "count_view": 0
  },
  {
    "link_thumb": "https://live.staticflickr.com/65535/50039830157_4dfc89e288_n.jpg",
    "id_album": "-1372247677",
    "description": "Cyberpunk_949756",
    "title": "Cyberpunk_949756",
    "link_img": "https://live.staticflickr.com/65535/50039830157_1904dd5371_o.jpg",
    "id_image": "Cyberpunk_949756",
    "count_view": 0
  },
  {
    "link_thumb": "https://live.staticflickr.com/65535/50040638362_31351a3378_n.jpg",
    "id_album": "779690680",
    "description": "Robot_857285",
    "title": "Robot_857285",
    "link_img": "https://live.staticflickr.com/65535/50040638362_3503092af9_o.jpg",
    "id_image": "Robot_857285",
    "count_view": 0
  },
  {
    "link_thumb": "https://live.staticflickr.com/65535/50039997132_4bd9127a46_n.jpg",
    "id_album": "-1388385651",
    "description": "MilkyWay_555692",
    "title": "MilkyWay_555692",
    "link_img": "https://live.staticflickr.com/65535/50039997132_b5baf847bd_o.jpg",
    "id_image": "MilkyWay_555692",
    "count_view": 0
  },
  {
    "link_thumb": "https://live.staticflickr.com/65535/50039639906_ac7f8862a6_n.jpg",
    "id_album": "1204249541",
    "description": "Galaxy_540067",
    "title": "Galaxy_540067",
    "link_img": "https://live.staticflickr.com/65535/50039639906_ec2418558b_o.jpg",
    "id_image": "Galaxy_540067",
    "count_view": 0
  },
  {
    "link_thumb": "https://live.staticflickr.com/65535/50039094653_63ec40f413_n.jpg",
    "id_album": "1204249541",
    "description": "Galaxy_567288",
    "title": "Galaxy_567288",
    "link_img": "https://live.staticflickr.com/65535/50039094653_bc00c3208f_o.jpg",
    "id_image": "Galaxy_567288",
    "count_view": 0
  },
  {
    "link_thumb": "https://live.staticflickr.com/65535/50040738426_22718a9821_n.jpg",
    "id_album": "2130067313",
    "description": "Spaceship_696164",
    "title": "Spaceship_696164",
    "link_img": "https://live.staticflickr.com/65535/50040738426_d184f5df38_o.jpg",
    "id_image": "Spaceship_696164",
    "count_view": 0
  },
  {
    "link_thumb": "https://live.staticflickr.com/65535/50040761967_7021796001_n.jpg",
    "id_album": "1613540653",
    "description": "Space_343744",
    "title": "Space_343744",
    "link_img": "https://live.staticflickr.com/65535/50040761967_bde2ca9c7f_o.jpg",
    "id_image": "Space_343744",
    "count_view": 0
  },
  {
    "link_thumb": "https://live.staticflickr.com/65535/50039303811_cdac9eb026_n.jpg",
    "id_album": "523598895",
    "description": "Artistic_174223",
    "title": "Artistic_174223",
    "link_img": "https://live.staticflickr.com/65535/50039303811_294df40208_o.jpg",
    "id_image": "Artistic_174223",
    "count_view": 0
  },
  {
    "link_thumb": "https://live.staticflickr.com/65535/50040286386_59f1ec3ae1_n.jpg",
    "id_album": "779690680",
    "description": "Robot_309940",
    "title": "Robot_309940",
    "link_img": "https://live.staticflickr.com/65535/50040286386_efa91b9ed3_o.jpg",
    "id_image": "Robot_309940",
    "count_view": 0
  },
  {
    "link_thumb": "https://live.staticflickr.com/65535/50041495037_4ed78b72d5_n.jpg",
    "id_album": "-1863373220",
    "description": "StarWars_879747",
    "title": "StarWars_879747",
    "link_img": "https://live.staticflickr.com/65535/50041495037_2a81a3030f_o.jpg",
    "id_image": "StarWars_879747",
    "count_view": 0
  },
  {
    "link_thumb": "https://live.staticflickr.com/65535/50040421202_502e2a0f1f_n.jpg",
    "id_album": "376235057",
    "description": "Planetscape_286984",
    "title": "Planetscape_286984",
    "link_img": "https://live.staticflickr.com/65535/50040421202_c8c09ae325_o.jpg",
    "id_image": "Planetscape_286984",
    "count_view": 0
  },
  {
    "link_thumb": "https://live.staticflickr.com/65535/50040561327_c6e9d8058c_n.jpg",
    "id_album": "779690680",
    "description": "Robot_371241",
    "title": "Robot_371241",
    "link_img": "https://live.staticflickr.com/65535/50040561327_c56ec217a6_o.jpg",
    "id_image": "Robot_371241",
    "count_view": 0
  },
  {
    "link_thumb": "https://live.staticflickr.com/65535/50039751536_c9eabe8953_n.jpg",
    "id_album": "-1388385651",
    "description": "MilkyWay_870610",
    "title": "MilkyWay_870610",
    "link_img": "https://live.staticflickr.com/65535/50039751536_3c8c2807f4_o.jpg",
    "id_image": "MilkyWay_870610",
    "count_view": 0
  },
  {
    "link_thumb": "https://live.staticflickr.com/65535/50039060098_b711eda23b_n.jpg",
    "id_album": "651930207",
    "description": "Explosion_347239",
    "title": "Explosion_347239",
    "link_img": "https://live.staticflickr.com/65535/50039060098_72c8c325e3_o.jpg",
    "id_image": "Explosion_347239",
    "count_view": 0
  },
  {
    "link_thumb": "https://live.staticflickr.com/65535/50039789261_a38b95e74c_n.jpg",
    "id_album": "-1610342324",
    "description": "Nebula_381561",
    "title": "Nebula_381561",
    "link_img": "https://live.staticflickr.com/65535/50039789261_b4a3ce1147_o.jpg",
    "id_image": "Nebula_381561",
    "count_view": 0
  },
  {
    "link_thumb": "https://live.staticflickr.com/65535/50039831358_b329178d50_n.jpg",
    "id_album": "779690680",
    "description": "Robot_874028",
    "title": "Robot_874028",
    "link_img": "https://live.staticflickr.com/65535/50039831358_bed6b08a00_o.jpg",
    "id_image": "Robot_874028",
    "count_view": 0
  },
  {
    "link_thumb": "https://live.staticflickr.com/65535/50039195418_c3bab08eec_n.jpg",
    "id_album": "-1388385651",
    "description": "MilkyWay_717707",
    "title": "MilkyWay_717707",
    "link_img": "https://live.staticflickr.com/65535/50039195418_f12dc3d3cf_o.jpg",
    "id_image": "MilkyWay_717707",
    "count_view": 0
  },
  {
    "link_thumb": "https://live.staticflickr.com/65535/50041512557_670439bf2e_n.jpg",
    "id_album": "-1863373220",
    "description": "StarWars_980534",
    "title": "StarWars_980534",
    "link_img": "https://live.staticflickr.com/65535/50041512557_81dd6d72f8_o.jpg",
    "id_image": "StarWars_980534",
    "count_view": 0
  },
  {
    "link_thumb": "https://live.staticflickr.com/65535/50039822658_61833177da_n.jpg",
    "id_album": "779690680",
    "description": "Robot_857297",
    "title": "Robot_857297",
    "link_img": "https://live.staticflickr.com/65535/50039822658_1af1e325ec_o.jpg",
    "id_image": "Robot_857297",
    "count_view": 0
  },
  {
    "link_thumb": "https://live.staticflickr.com/65535/50040556417_de5935b891_n.jpg",
    "id_album": "779690680",
    "description": "Robot_333324",
    "title": "Robot_333324",
    "link_img": "https://live.staticflickr.com/65535/50040556417_26e70843e6_o.jpg",
    "id_image": "Robot_333324",
    "count_view": 0
  },
  {
    "link_thumb": "https://live.staticflickr.com/65535/50040205481_132e3d57e1_n.jpg",
    "id_album": "-482547208",
    "description": "PostApocalyptic_314445",
    "title": "PostApocalyptic_314445",
    "link_img": "https://live.staticflickr.com/65535/50040205481_99cd6ecaef_o.jpg",
    "id_image": "PostApocalyptic_314445",
    "count_view": 0
  },
  {
    "link_thumb": "https://live.staticflickr.com/65535/50040100707_acface6235_n.jpg",
    "id_album": "-1610342324",
    "description": "Nebula_78849",
    "title": "Nebula_78849",
    "link_img": "https://live.staticflickr.com/65535/50040100707_fb0a85bdd4_o.jpg",
    "id_image": "Nebula_78849",
    "count_view": 0
  },
  {
    "link_thumb": "https://live.staticflickr.com/65535/50041681327_333f318a1f_n.jpg",
    "id_album": "2020068132",
    "description": "Vehicle_896234",
    "title": "Vehicle_896234",
    "link_img": "https://live.staticflickr.com/65535/50041681327_53d1b7909e_o.jpg",
    "id_image": "Vehicle_896234",
    "count_view": 0
  },
  {
    "link_thumb": "https://live.staticflickr.com/65535/50040607413_e1598f01a8_n.jpg",
    "id_album": "-1863373220",
    "description": "StarWars_294174",
    "title": "StarWars_294174",
    "link_img": "https://live.staticflickr.com/65535/50040607413_9e4b6a22b4_o.jpg",
    "id_image": "StarWars_294174",
    "count_view": 0
  },
  {
    "link_thumb": "https://live.staticflickr.com/65535/50039252768_56d3efe159_n.jpg",
    "id_album": "-1610342324",
    "description": "Nebula_502936",
    "title": "Nebula_502936",
    "link_img": "https://live.staticflickr.com/65535/50039252768_1e7a02e676_o.jpg",
    "id_image": "Nebula_502936",
    "count_view": 0
  },
  {
    "link_thumb": "https://live.staticflickr.com/65535/50038871783_6598792974_n.jpg",
    "id_album": "406431601",
    "description": "Building_1010654",
    "title": "Building_1010654",
    "link_img": "https://live.staticflickr.com/65535/50038871783_3822167de1_o.jpg",
    "id_image": "Building_1010654",
    "count_view": 0
  },
  {
    "link_thumb": "https://live.staticflickr.com/65535/50039920417_f3c2fe3f38_n.jpg",
    "id_album": "1204249541",
    "description": "Galaxy_957478",
    "title": "Galaxy_957478",
    "link_img": "https://live.staticflickr.com/65535/50039920417_70639223d4_o.jpg",
    "id_image": "Galaxy_957478",
    "count_view": 0
  },
  {
    "link_thumb": "https://live.staticflickr.com/65535/50041391786_ce8c83050b_n.jpg",
    "id_album": "2020068132",
    "description": "Vehicle_343994",
    "title": "Vehicle_343994",
    "link_img": "https://live.staticflickr.com/65535/50041391786_f04c29c0b4_o.jpg",
    "id_image": "Vehicle_343994",
    "count_view": 0
  },
  {
    "link_thumb": "https://live.staticflickr.com/65535/50040670542_5e6d63da17_n.jpg",
    "id_album": "779690680",
    "description": "Robot_909552",
    "title": "Robot_909552",
    "link_img": "https://live.staticflickr.com/65535/50040670542_016b0643c4_o.jpg",
    "id_image": "Robot_909552",
    "count_view": 0
  },
  {
    "link_thumb": "https://live.staticflickr.com/65535/50040067441_2929c7e767_n.jpg",
    "id_album": "-1102314093",
    "description": "Planets_25111",
    "title": "Planets_25111",
    "link_img": "https://live.staticflickr.com/65535/50040067441_6c39951352_o.jpg",
    "id_image": "Planets_25111",
    "count_view": 0
  },
  {
    "link_thumb": "https://live.staticflickr.com/65535/50041495786_1bb1786ed0_n.jpg",
    "id_album": "-1261420436",
    "description": "Warrior_955774",
    "title": "Warrior_955774",
    "link_img": "https://live.staticflickr.com/65535/50041495786_6229111aca_o.jpg",
    "id_image": "Warrior_955774",
    "count_view": 0
  },
  {
    "link_thumb": "https://live.staticflickr.com/65535/50039292011_edf6c5a396_n.jpg",
    "id_album": "523598895",
    "description": "Artistic_106016",
    "title": "Artistic_106016",
    "link_img": "https://live.staticflickr.com/65535/50039292011_947437645f_o.jpg",
    "id_image": "Artistic_106016",
    "count_view": 0
  },
  {
    "link_thumb": "https://live.staticflickr.com/65535/50039398448_9dfb79c23e_n.jpg",
    "id_album": "395161030",
    "description": "Planet_397572",
    "title": "Planet_397572",
    "link_img": "https://live.staticflickr.com/65535/50039398448_83c49d40c1_o.jpg",
    "id_image": "Planet_397572",
    "count_view": 0
  },
  {
    "link_thumb": "https://live.staticflickr.com/65535/50039995402_e84a8eeff5_n.jpg",
    "id_album": "-1388385651",
    "description": "MilkyWay_528668",
    "title": "MilkyWay_528668",
    "link_img": "https://live.staticflickr.com/65535/50039995402_fd41a38416_o.jpg",
    "id_image": "MilkyWay_528668",
    "count_view": 0
  },
  {
    "link_thumb": "https://live.staticflickr.com/65535/50039727468_171810a224_n.jpg",
    "id_album": "779690680",
    "description": "Robot_276731",
    "title": "Robot_276731",
    "link_img": "https://live.staticflickr.com/65535/50039727468_ab48be5f98_o.jpg",
    "id_image": "Robot_276731",
    "count_view": 0
  },
  {
    "link_thumb": "https://live.staticflickr.com/65535/50039914352_bef13ed891_n.jpg",
    "id_album": "1204249541",
    "description": "Galaxy_689589",
    "title": "Galaxy_689589",
    "link_img": "https://live.staticflickr.com/65535/50039914352_90c1e634d5_o.jpg",
    "id_image": "Galaxy_689589",
    "count_view": 0
  },
  {
    "link_thumb": "https://live.staticflickr.com/65535/50039148938_baf4a72767_n.jpg",
    "id_album": "1402713104",
    "description": "Landscape_662791",
    "title": "Landscape_662791",
    "link_img": "https://live.staticflickr.com/65535/50039148938_70f2509b67_o.jpg",
    "id_image": "Landscape_662791",
    "count_view": 0
  },
  {
    "link_thumb": "https://live.staticflickr.com/65535/50040865147_9f5dc8f6bc_n.jpg",
    "id_album": "2130067313",
    "description": "Spaceship_235124",
    "title": "Spaceship_235124",
    "link_img": "https://live.staticflickr.com/65535/50040865147_9fa98a3e00_o.jpg",
    "id_image": "Spaceship_235124",
    "count_view": 0
  },
  {
    "link_thumb": "https://live.staticflickr.com/65535/50040376246_1da39238a5_n.jpg",
    "id_album": "779690680",
    "description": "Robot_857302",
    "title": "Robot_857302",
    "link_img": "https://live.staticflickr.com/65535/50040376246_0d06366074_o.jpg",
    "id_image": "Robot_857302",
    "count_view": 0
  },
  {
    "link_thumb": "https://live.staticflickr.com/65535/50039663627_806fd64a21_n.jpg",
    "id_album": "1187037014",
    "description": "Battle_312630",
    "title": "Battle_312630",
    "link_img": "https://live.staticflickr.com/65535/50039663627_23d2cffc73_o.jpg",
    "id_image": "Battle_312630",
    "count_view": 0
  },
  {
    "link_thumb": "https://live.staticflickr.com/65535/50039461011_e01bf1c217_n.jpg",
    "id_album": "-1964113117",
    "description": "City_301681",
    "title": "City_301681",
    "link_img": "https://live.staticflickr.com/65535/50039461011_a64ced3f84_o.jpg",
    "id_image": "City_301681",
    "count_view": 0
  },
  {
    "link_thumb": "https://live.staticflickr.com/65535/50040216337_53a0289db9_n.jpg",
    "id_album": "395161030",
    "description": "Planet_464560",
    "title": "Planet_464560",
    "link_img": "https://live.staticflickr.com/65535/50040216337_b9b5f80338_o.jpg",
    "id_image": "Planet_464560",
    "count_view": 0
  },
  {
    "link_thumb": "https://live.staticflickr.com/65535/50040299096_fb25238c29_n.jpg",
    "id_album": "779690680",
    "description": "Robot_386112",
    "title": "Robot_386112",
    "link_img": "https://live.staticflickr.com/65535/50040299096_700c7272e5_o.jpg",
    "id_image": "Robot_386112",
    "count_view": 0
  },
  {
    "link_thumb": "https://live.staticflickr.com/65535/50039812338_90b23430ed_n.jpg",
    "id_album": "779690680",
    "description": "Robot_763233",
    "title": "Robot_763233",
    "link_img": "https://live.staticflickr.com/65535/50039812338_0538a5e033_o.jpg",
    "id_image": "Robot_763233",
    "count_view": 0
  },
  {
    "link_thumb": "https://live.staticflickr.com/65535/50041512782_45828daa1b_n.jpg",
    "id_album": "-1863373220",
    "description": "StarWars_980539",
    "title": "StarWars_980539",
    "link_img": "https://live.staticflickr.com/65535/50041512782_2ae75f170f_o.jpg",
    "id_image": "StarWars_980539",
    "count_view": 0
  },
  {
    "link_thumb": "https://live.staticflickr.com/65535/50040484926_176d7ecf2b_n.jpg",
    "id_album": "1613540653",
    "description": "Space_274266",
    "title": "Space_274266",
    "link_img": "https://live.staticflickr.com/65535/50040484926_3cdae2ed26_o.jpg",
    "id_image": "Space_274266",
    "count_view": 0
  },
  {
    "link_thumb": "https://live.staticflickr.com/65535/50040024591_b2d1b16ed4_n.jpg",
    "id_album": "814701616",
    "description": "PlanetaryRing_286989",
    "title": "PlanetaryRing_286989",
    "link_img": "https://live.staticflickr.com/65535/50040024591_b8ea25b8ca_o.jpg",
    "id_image": "PlanetaryRing_286989",
    "count_view": 0
  },
  {
    "link_thumb": "https://live.staticflickr.com/65535/50040671682_5b585e9d32_n.jpg",
    "id_album": "779690680",
    "description": "Robot_910946",
    "title": "Robot_910946",
    "link_img": "https://live.staticflickr.com/65535/50040671682_b6b2c807fd_o.jpg",
    "id_image": "Robot_910946",
    "count_view": 0
  },
  {
    "link_thumb": "https://live.staticflickr.com/65535/50040047826_166414075c_n.jpg",
    "id_album": "-1102314093",
    "description": "Planets_11371",
    "title": "Planets_11371",
    "link_img": "https://live.staticflickr.com/65535/50040047826_ce6815279a_o.jpg",
    "id_image": "Planets_11371",
    "count_view": 0
  },
  {
    "link_thumb": "https://live.staticflickr.com/65535/50039633796_af539bcf27_n.jpg",
    "id_album": "1204249541",
    "description": "Galaxy_427241",
    "title": "Galaxy_427241",
    "link_img": "https://live.staticflickr.com/65535/50039633796_8ace2040d6_o.jpg",
    "id_image": "Galaxy_427241",
    "count_view": 0
  },
  {
    "link_thumb": "https://live.staticflickr.com/65535/50038992273_332bfc418f_n.jpg",
    "id_album": "894679094",
    "description": "Collision_373127",
    "title": "Collision_373127",
    "link_img": "https://live.staticflickr.com/65535/50038992273_1298b0406c_o.jpg",
    "id_image": "Collision_373127",
    "count_view": 0
  },
  {
    "link_thumb": "https://live.staticflickr.com/65535/50040727772_3c026f59f0_n.jpg",
    "id_album": "1613540653",
    "description": "Space_110229",
    "title": "Space_110229",
    "link_img": "https://live.staticflickr.com/65535/50040727772_dc3a4d2bec_o.jpg",
    "id_image": "Space_110229",
    "count_view": 0
  },
  {
    "link_thumb": "https://live.staticflickr.com/65535/50040116397_222b3d60c2_n.jpg",
    "id_album": "-1610342324",
    "description": "Nebula_922577",
    "title": "Nebula_922577",
    "link_img": "https://live.staticflickr.com/65535/50040116397_6b6feaed4e_o.jpg",
    "id_image": "Nebula_922577",
    "count_view": 0
  },
  {
    "link_thumb": "https://live.staticflickr.com/65535/50039887838_71a33aab6d_n.jpg",
    "id_album": "779690680",
    "description": "Robot_949799",
    "title": "Robot_949799",
    "link_img": "https://live.staticflickr.com/65535/50039887838_266a2798d8_o.jpg",
    "id_image": "Robot_949799",
    "count_view": 0
  },
  {
    "link_thumb": "https://live.staticflickr.com/65535/50039182418_6784a2a8e4_n.jpg",
    "id_album": "-1388385651",
    "description": "MilkyWay_482715",
    "title": "MilkyWay_482715",
    "link_img": "https://live.staticflickr.com/65535/50039182418_43b6a3103f_o.jpg",
    "id_image": "MilkyWay_482715",
    "count_view": 0
  },
  {
    "link_thumb": "https://live.staticflickr.com/65535/50039496662_1137b48f9a_n.jpg",
    "id_album": "-406145265",
    "description": "Aircraft_155754",
    "title": "Aircraft_155754",
    "link_img": "https://live.staticflickr.com/65535/50039496662_8da75c198f_o.jpg",
    "id_image": "Aircraft_155754",
    "count_view": 0
  },
  {
    "link_thumb": "https://live.staticflickr.com/65535/50039553217_04f8c828ed_n.jpg",
    "id_album": "523598895",
    "description": "Artistic_103853",
    "title": "Artistic_103853",
    "link_img": "https://live.staticflickr.com/65535/50039553217_7a0d894b0b_o.jpg",
    "id_image": "Artistic_103853",
    "count_view": 0
  },
  {
    "link_thumb": "https://live.staticflickr.com/65535/50041036663_f15d42a281_n.jpg",
    "id_album": "-1675918237",
    "description": "WomenWarrior_912306",
    "title": "WomenWarrior_912306",
    "link_img": "https://live.staticflickr.com/65535/50041036663_4e85bed13e_o.jpg",
    "id_image": "WomenWarrior_912306",
    "count_view": 0
  },
  {
    "link_thumb": "https://live.staticflickr.com/65535/50038941223_0e49e1183a_n.jpg",
    "id_album": "-1964113117",
    "description": "City_697303",
    "title": "City_697303",
    "link_img": "https://live.staticflickr.com/65535/50038941223_7df4d2b874_o.jpg",
    "id_image": "City_697303",
    "count_view": 0
  },
  {
    "link_thumb": "https://live.staticflickr.com/65535/50039257173_c761bce870_n.jpg",
    "id_album": "-1610342324",
    "description": "Nebula_548004",
    "title": "Nebula_548004",
    "link_img": "https://live.staticflickr.com/65535/50039257173_f9f8fb169f_o.jpg",
    "id_image": "Nebula_548004",
    "count_view": 0
  },
  {
    "link_thumb": "https://live.staticflickr.com/65535/50040817153_60b476ef59_n.jpg",
    "id_album": "2020068132",
    "description": "Vehicle_1011724",
    "title": "Vehicle_1011724",
    "link_img": "https://live.staticflickr.com/65535/50040817153_c463822ea1_o.jpg",
    "id_image": "Vehicle_1011724",
    "count_view": 0
  },
  {
    "link_thumb": "https://live.staticflickr.com/65535/50038886143_3a47dd3760_n.jpg",
    "id_album": "-1964113117",
    "description": "City_145430",
    "title": "City_145430",
    "link_img": "https://live.staticflickr.com/65535/50038886143_47014d32b6_o.jpg",
    "id_image": "City_145430",
    "count_view": 0
  },
  {
    "link_thumb": "https://live.staticflickr.com/65535/50041388652_952c09fc2c_n.jpg",
    "id_album": "-1863373220",
    "description": "StarWars_195358",
    "title": "StarWars_195358",
    "link_img": "https://live.staticflickr.com/65535/50041388652_9efbf2a39d_o.jpg",
    "id_image": "StarWars_195358",
    "count_view": 0
  },
  {
    "link_thumb": "https://live.staticflickr.com/65535/50039022278_254730c207_n.jpg",
    "id_album": "-1372247677",
    "description": "Cyberpunk_970426",
    "title": "Cyberpunk_970426",
    "link_img": "https://live.staticflickr.com/65535/50039022278_ef4cde0c3e_o.jpg",
    "id_image": "Cyberpunk_970426",
    "count_view": 0
  },
  {
    "link_thumb": "https://live.staticflickr.com/65535/50038994348_8b720a29f6_n.jpg",
    "id_album": "894679094",
    "description": "Collision_677704",
    "title": "Collision_677704",
    "link_img": "https://live.staticflickr.com/65535/50038994348_e8ef029a18_o.jpg",
    "id_image": "Collision_677704",
    "count_view": 0
  },
  {
    "link_thumb": "https://live.staticflickr.com/65535/50041788117_605ac920b8_n.jpg",
    "id_album": "-1126835654",
    "description": "Women_350154",
    "title": "Women_350154",
    "link_img": "https://live.staticflickr.com/65535/50041788117_617b52c05a_o.jpg",
    "id_image": "Women_350154",
    "count_view": 0
  },
  {
    "link_thumb": "https://live.staticflickr.com/65535/50039652537_ca5424085b_n.jpg",
    "id_album": "869545341",
    "description": "Astronaut_984725",
    "title": "Astronaut_984725",
    "link_img": "https://live.staticflickr.com/65535/50039652537_1528070dbd_o.jpg",
    "id_image": "Astronaut_984725",
    "count_view": 0
  },
  {
    "link_thumb": "https://live.staticflickr.com/65535/50040420487_826e1346f8_n.jpg",
    "id_album": "376235057",
    "description": "Planetscape_286873",
    "title": "Planetscape_286873",
    "link_img": "https://live.staticflickr.com/65535/50040420487_41851416ec_o.jpg",
    "id_image": "Planetscape_286873",
    "count_view": 0
  },
  {
    "link_thumb": "https://live.staticflickr.com/65535/50040053327_c8c0ac95cb_n.jpg",
    "id_album": "-1610342324",
    "description": "Nebula_38847",
    "title": "Nebula_38847",
    "link_img": "https://live.staticflickr.com/65535/50040053327_8256c2d53e_o.jpg",
    "id_image": "Nebula_38847",
    "count_view": 0
  },
  {
    "link_thumb": "https://live.staticflickr.com/65535/50040324266_d7896ee185_n.jpg",
    "id_album": "779690680",
    "description": "Robot_476108",
    "title": "Robot_476108",
    "link_img": "https://live.staticflickr.com/65535/50040324266_97dddc093c_o.jpg",
    "id_image": "Robot_476108",
    "count_view": 0
  },
  {
    "link_thumb": "https://live.staticflickr.com/65535/50039629951_0f5e3e9cbd_n.jpg",
    "id_album": "1204249541",
    "description": "Galaxy_286765",
    "title": "Galaxy_286765",
    "link_img": "https://live.staticflickr.com/65535/50039629951_07369883f5_o.jpg",
    "id_image": "Galaxy_286765",
    "count_view": 0
  },
  {
    "link_thumb": "https://live.staticflickr.com/65535/50039805657_7815d4268e_n.jpg",
    "id_album": "894679094",
    "description": "Collision_78653",
    "title": "Collision_78653",
    "link_img": "https://live.staticflickr.com/65535/50039805657_733b6692b3_o.jpg",
    "id_image": "Collision_78653",
    "count_view": 0
  },
  {
    "link_thumb": "https://live.staticflickr.com/65535/50040517567_93b0356ae2_n.jpg",
    "id_album": "779690680",
    "description": "Robot_116309",
    "title": "Robot_116309",
    "link_img": "https://live.staticflickr.com/65535/50040517567_0816b977a4_o.jpg",
    "id_image": "Robot_116309",
    "count_view": 0
  },
  {
    "link_thumb": "https://live.staticflickr.com/65535/50038858448_d37aab7c2c_n.jpg",
    "id_album": "1187037014",
    "description": "Battle_697549",
    "title": "Battle_697549",
    "link_img": "https://live.staticflickr.com/65535/50038858448_abd3b6c281_o.jpg",
    "id_image": "Battle_697549",
    "count_view": 0
  },
  {
    "link_thumb": "https://live.staticflickr.com/65535/50040696693_08e8c87cf1_n.jpg",
    "id_album": "-1863373220",
    "description": "StarWars_980564",
    "title": "StarWars_980564",
    "link_img": "https://live.staticflickr.com/65535/50040696693_f839fe2d5a_o.jpg",
    "id_image": "StarWars_980564",
    "count_view": 0
  },
  {
    "link_thumb": "https://live.staticflickr.com/65535/50041449031_4f6fc4cf77_n.jpg",
    "id_album": "-1261420436",
    "description": "Warrior_331577",
    "title": "Warrior_331577",
    "link_img": "https://live.staticflickr.com/65535/50041449031_7b777b345d_o.jpg",
    "id_image": "Warrior_331577",
    "count_view": 0
  },
  {
    "link_thumb": "https://live.staticflickr.com/65535/50039235398_4c75d4d376_n.jpg",
    "id_album": "-1610342324",
    "description": "Nebula_304913",
    "title": "Nebula_304913",
    "link_img": "https://live.staticflickr.com/65535/50039235398_4bd58af705_o.jpg",
    "id_image": "Nebula_304913",
    "count_view": 0
  },
  {
    "link_thumb": "https://live.staticflickr.com/65535/50039372003_0840424668_n.jpg",
    "id_album": "395161030",
    "description": "Planet_248751",
    "title": "Planet_248751",
    "link_img": "https://live.staticflickr.com/65535/50039372003_be16860678_o.jpg",
    "id_image": "Planet_248751",
    "count_view": 0
  },
  {
    "link_thumb": "https://live.staticflickr.com/65535/50040416286_c73537a555_n.jpg",
    "id_album": "779690680",
    "description": "Robot_918802",
    "title": "Robot_918802",
    "link_img": "https://live.staticflickr.com/65535/50040416286_8f0bc4aa8a_o.jpg",
    "id_image": "Robot_918802",
    "count_view": 0
  },
  {
    "link_thumb": "https://live.staticflickr.com/65535/50040858078_1e16ea58c6_n.jpg",
    "id_album": "2020068132",
    "description": "Vehicle_712523",
    "title": "Vehicle_712523",
    "link_img": "https://live.staticflickr.com/65535/50040858078_b6ed348ef0_o.jpg",
    "id_image": "Vehicle_712523",
    "count_view": 0
  },
  {
    "link_thumb": "https://live.staticflickr.com/65535/50040861303_f43e52962e_n.jpg",
    "id_album": "2020068132",
    "description": "Vehicle_854208",
    "title": "Vehicle_854208",
    "link_img": "https://live.staticflickr.com/65535/50040861303_f5c44fdd3f_o.jpg",
    "id_image": "Vehicle_854208",
    "count_view": 0
  },
  {
    "link_thumb": "https://live.staticflickr.com/65535/50039891192_3fa3e33aac_n.jpg",
    "id_album": "1204249541",
    "description": "Galaxy_264708",
    "title": "Galaxy_264708",
    "link_img": "https://live.staticflickr.com/65535/50039891192_1061b2d69c_o.jpg",
    "id_image": "Galaxy_264708",
    "count_view": 0
  },
  {
    "link_thumb": "https://live.staticflickr.com/65535/50041423262_89d16c1247_n.jpg",
    "id_album": "-1863373220",
    "description": "StarWars_286350",
    "title": "StarWars_286350",
    "link_img": "https://live.staticflickr.com/65535/50041423262_5feb5812f8_o.jpg",
    "id_image": "StarWars_286350",
    "count_view": 0
  },
  {
    "link_thumb": "https://live.staticflickr.com/65535/50039737751_97b9f297da_n.jpg",
    "id_album": "-1388385651",
    "description": "MilkyWay_677843",
    "title": "MilkyWay_677843",
    "link_img": "https://live.staticflickr.com/65535/50039737751_bdb7c1d154_o.jpg",
    "id_image": "MilkyWay_677843",
    "count_view": 0
  },
  {
    "link_thumb": "https://live.staticflickr.com/65535/50039461883_2d3b003458_n.jpg",
    "id_album": "1443611160",
    "description": "PlanetRise_74378",
    "title": "PlanetRise_74378",
    "link_img": "https://live.staticflickr.com/65535/50039461883_7e6b80ba51_o.jpg",
    "id_image": "PlanetRise_74378",
    "count_view": 0
  },
  {
    "link_thumb": "https://live.staticflickr.com/65535/50039872113_142d9e857d_n.jpg",
    "id_album": "779690680",
    "description": "Robot_928645",
    "title": "Robot_928645",
    "link_img": "https://live.staticflickr.com/65535/50039872113_3fc60675f3_o.jpg",
    "id_image": "Robot_928645",
    "count_view": 0
  },
  {
    "link_thumb": "https://live.staticflickr.com/65535/50040311142_67c4993e9e_n.jpg",
    "id_album": "-1102314093",
    "description": "Planets_114345",
    "title": "Planets_114345",
    "link_img": "https://live.staticflickr.com/65535/50040311142_a5686c9892_o.jpg",
    "id_image": "Planets_114345",
    "count_view": 0
  },
  {
    "link_thumb": "https://live.staticflickr.com/65535/50039908971_a5a2289d67_n.jpg",
    "id_album": "395161030",
    "description": "Planet_173622",
    "title": "Planet_173622",
    "link_img": "https://live.staticflickr.com/65535/50039908971_36b47f1c0a_o.jpg",
    "id_image": "Planet_173622",
    "count_view": 0
  },
  {
    "link_thumb": "https://live.staticflickr.com/65535/50039223973_ff682b100f_n.jpg",
    "id_album": "-1610342324",
    "description": "Nebula_226013",
    "title": "Nebula_226013",
    "link_img": "https://live.staticflickr.com/65535/50039223973_9e6fe1866a_o.jpg",
    "id_image": "Nebula_226013",
    "count_view": 0
  },
  {
    "link_thumb": "https://live.staticflickr.com/65535/50041030073_1305bb5fa6_n.jpg",
    "id_album": "-1675918237",
    "description": "WomenWarrior_602059",
    "title": "WomenWarrior_602059",
    "link_img": "https://live.staticflickr.com/65535/50041030073_1476ef39fe_o.jpg",
    "id_image": "WomenWarrior_602059",
    "count_view": 0
  },
  {
    "link_thumb": "https://live.staticflickr.com/65535/50039693716_dcd6d4ce62_n.jpg",
    "id_album": "1402713104",
    "description": "Landscape_558948",
    "title": "Landscape_558948",
    "link_img": "https://live.staticflickr.com/65535/50039693716_bc36f43346_o.jpg",
    "id_image": "Landscape_558948",
    "count_view": 0
  },
  {
    "link_thumb": "https://live.staticflickr.com/65535/50041436532_5fa4366a71_n.jpg",
    "id_album": "-1863373220",
    "description": "StarWars_382008",
    "title": "StarWars_382008",
    "link_img": "https://live.staticflickr.com/65535/50041436532_f0db220b66_o.jpg",
    "id_image": "StarWars_382008",
    "count_view": 0
  },
  {
    "link_thumb": "https://live.staticflickr.com/65535/50039764576_fc9951e53d_n.jpg",
    "id_album": "-1610342324",
    "description": "Nebula_175208",
    "title": "Nebula_175208",
    "link_img": "https://live.staticflickr.com/65535/50039764576_da55c34015_o.jpg",
    "id_image": "Nebula_175208",
    "count_view": 0
  },
  {
    "link_thumb": "https://live.staticflickr.com/65535/50039916192_3bdbf1617b_n.jpg",
    "id_album": "1204249541",
    "description": "Galaxy_74987",
    "title": "Galaxy_74987",
    "link_img": "https://live.staticflickr.com/65535/50039916192_0025e65efc_o.jpg",
    "id_image": "Galaxy_74987",
    "count_view": 0
  },
  {
    "link_thumb": "https://live.staticflickr.com/65535/50039430536_1aed38bd00_n.jpg",
    "id_album": "-1964113117",
    "description": "City_101078",
    "title": "City_101078",
    "link_img": "https://live.staticflickr.com/65535/50039430536_a2b35dc527_o.jpg",
    "id_image": "City_101078",
    "count_view": 0
  },
  {
    "link_thumb": "https://live.staticflickr.com/65535/50041679587_3197bf43b7_n.jpg",
    "id_album": "2020068132",
    "description": "Vehicle_874023",
    "title": "Vehicle_874023",
    "link_img": "https://live.staticflickr.com/65535/50041679587_a54f58ae3e_o.jpg",
    "id_image": "Vehicle_874023",
    "count_view": 0
  },
  {
    "link_thumb": "https://live.staticflickr.com/65535/50040525872_6fcb82711f_n.jpg",
    "id_album": "779690680",
    "description": "Robot_187163",
    "title": "Robot_187163",
    "link_img": "https://live.staticflickr.com/65535/50040525872_1c5f0711c6_o.jpg",
    "id_image": "Robot_187163",
    "count_view": 0
  },
  {
    "link_thumb": "https://live.staticflickr.com/65535/50038757958_b194714199_n.jpg",
    "id_album": "523598895",
    "description": "Artistic_179712",
    "title": "Artistic_179712",
    "link_img": "https://live.staticflickr.com/65535/50038757958_f73358b1e4_o.jpg",
    "id_image": "Artistic_179712",
    "count_view": 0
  },
  {
    "link_thumb": "https://live.staticflickr.com/65535/50041475132_2b67f239ab_n.jpg",
    "id_album": "-1863373220",
    "description": "StarWars_670189",
    "title": "StarWars_670189",
    "link_img": "https://live.staticflickr.com/65535/50041475132_3c07f4fe9a_o.jpg",
    "id_image": "StarWars_670189",
    "count_view": 0
  },
  {
    "link_thumb": "https://live.staticflickr.com/65535/50041180431_3b77b6f923_n.jpg",
    "id_album": "-1863373220",
    "description": "StarWars_438738",
    "title": "StarWars_438738",
    "link_img": "https://live.staticflickr.com/65535/50041180431_0aa98fa141_o.jpg",
    "id_image": "StarWars_438738",
    "count_view": 0
  },
  {
    "link_thumb": "https://live.staticflickr.com/65535/50039495998_3fa8988fb4_n.jpg",
    "id_album": "-1102314093",
    "description": "Planets_111481",
    "title": "Planets_111481",
    "link_img": "https://live.staticflickr.com/65535/50039495998_e515228c01_o.jpg",
    "id_image": "Planets_111481",
    "count_view": 0
  },
  {
    "link_thumb": "https://live.staticflickr.com/65535/50039655133_b4cc6d9963_n.jpg",
    "id_album": "-482547208",
    "description": "PostApocalyptic_337385",
    "title": "PostApocalyptic_337385",
    "link_img": "https://live.staticflickr.com/65535/50039655133_136d8bb3a0_o.jpg",
    "id_image": "PostApocalyptic_337385",
    "count_view": 0
  },
  {
    "link_thumb": "https://live.staticflickr.com/65535/50039373203_a7803e89e7_n.jpg",
    "id_album": "395161030",
    "description": "Planet_286812",
    "title": "Planet_286812",
    "link_img": "https://live.staticflickr.com/65535/50039373203_50f66bda1f_o.jpg",
    "id_image": "Planet_286812",
    "count_view": 0
  },
  {
    "link_thumb": "https://live.staticflickr.com/65535/50040520286_bfe730115c_n.jpg",
    "id_album": "1613540653",
    "description": "Space_659465",
    "title": "Space_659465",
    "link_img": "https://live.staticflickr.com/65535/50040520286_491d92e827_o.jpg",
    "id_image": "Space_659465",
    "count_view": 0
  },
  {
    "link_thumb": "https://live.staticflickr.com/65535/50039787391_b2d8cb877a_n.jpg",
    "id_album": "-1610342324",
    "description": "Nebula_357577",
    "title": "Nebula_357577",
    "link_img": "https://live.staticflickr.com/65535/50039787391_9e2be356b7_o.jpg",
    "id_image": "Nebula_357577",
    "count_view": 0
  },
  {
    "link_thumb": "https://live.staticflickr.com/65535/50041453596_f565cfd8c3_n.jpg",
    "id_album": "-1261420436",
    "description": "Warrior_375736",
    "title": "Warrior_375736",
    "link_img": "https://live.staticflickr.com/65535/50041453596_3cb202530e_o.jpg",
    "id_image": "Warrior_375736",
    "count_view": 0
  },
  {
    "link_thumb": "https://live.staticflickr.com/65535/50040326512_f8f5122b4f_n.jpg",
    "id_album": "-1102314093",
    "description": "Planets_235523",
    "title": "Planets_235523",
    "link_img": "https://live.staticflickr.com/65535/50040326512_637bc2a3df_o.jpg",
    "id_image": "Planets_235523",
    "count_view": 0
  },
  {
    "link_thumb": "https://live.staticflickr.com/65535/50040425491_5f6449827a_n.jpg",
    "id_album": "779690680",
    "description": "Robot_928639",
    "title": "Robot_928639",
    "link_img": "https://live.staticflickr.com/65535/50040425491_08fbc1b27f_o.jpg",
    "id_image": "Robot_928639",
    "count_view": 0
  },
  {
    "link_thumb": "https://live.staticflickr.com/65535/50039011638_1b34a7dd4e_n.jpg",
    "id_album": "-437872736",
    "description": "Creature_967850",
    "title": "Creature_967850",
    "link_img": "https://live.staticflickr.com/65535/50039011638_14695bba44_o.jpg",
    "id_image": "Creature_967850",
    "count_view": 0
  },
  {
    "link_thumb": "https://live.staticflickr.com/65535/50040500362_def1fe25ee_n.jpg",
    "id_album": "-482547208",
    "description": "PostApocalyptic_975857",
    "title": "PostApocalyptic_975857",
    "link_img": "https://live.staticflickr.com/65535/50040500362_976ae7da96_o.jpg",
    "id_image": "PostApocalyptic_975857",
    "count_view": 0
  },
  {
    "link_thumb": "https://live.staticflickr.com/65535/50039891422_3084d764d6_n.jpg",
    "id_album": "1204249541",
    "description": "Galaxy_264726",
    "title": "Galaxy_264726",
    "link_img": "https://live.staticflickr.com/65535/50039891422_649b75c755_o.jpg",
    "id_image": "Galaxy_264726",
    "count_view": 0
  },
  {
    "link_thumb": "https://live.staticflickr.com/65535/50040240501_d7e7aa9cae_n.jpg",
    "id_album": "-839602625",
    "description": "Predator_333753",
    "title": "Predator_333753",
    "link_img": "https://live.staticflickr.com/65535/50040240501_102b896490_o.jpg",
    "id_image": "Predator_333753",
    "count_view": 0
  },
  {
    "link_thumb": "https://live.staticflickr.com/65535/50039281146_ea71bbf2c1_n.jpg",
    "id_album": "-419633230",
    "description": "Apocalyptic_275161",
    "title": "Apocalyptic_275161",
    "link_img": "https://live.staticflickr.com/65535/50039281146_27ddebe673_o.jpg",
    "id_image": "Apocalyptic_275161",
    "count_view": 0
  },
  {
    "link_thumb": "https://live.staticflickr.com/65535/50040681182_b5361030f0_n.jpg",
    "id_album": "779690680",
    "description": "Robot_920333",
    "title": "Robot_920333",
    "link_img": "https://live.staticflickr.com/65535/50040681182_7a01088e57_o.jpg",
    "id_image": "Robot_920333",
    "count_view": 0
  },
  {
    "link_thumb": "https://live.staticflickr.com/65535/50038786063_0d6727158c_n.jpg",
    "id_album": "523598895",
    "description": "Artistic_401760",
    "title": "Artistic_401760",
    "link_img": "https://live.staticflickr.com/65535/50038786063_905765e937_o.jpg",
    "id_image": "Artistic_401760",
    "count_view": 0
  },
  {
    "link_thumb": "https://live.staticflickr.com/65535/50040105371_f38edf25d6_n.jpg",
    "id_album": "-1102314093",
    "description": "Planets_393895",
    "title": "Planets_393895",
    "link_img": "https://live.staticflickr.com/65535/50040105371_c922fa9262_o.jpg",
    "id_image": "Planets_393895",
    "count_view": 0
  },
  {
    "link_thumb": "https://live.staticflickr.com/65535/50041175551_7b892956e7_n.jpg",
    "id_album": "-1863373220",
    "description": "StarWars_393613",
    "title": "StarWars_393613",
    "link_img": "https://live.staticflickr.com/65535/50041175551_f252ffdcee_o.jpg",
    "id_image": "StarWars_393613",
    "count_view": 0
  },
  {
    "link_thumb": "https://live.staticflickr.com/65535/50038930628_18a352b553_n.jpg",
    "id_album": "-1964113117",
    "description": "City_567071",
    "title": "City_567071",
    "link_img": "https://live.staticflickr.com/65535/50038930628_4dbc05c10d_o.jpg",
    "id_image": "City_567071",
    "count_view": 0
  },
  {
    "link_thumb": "https://live.staticflickr.com/65535/50039742837_bc2949a4cc_n.jpg",
    "id_album": "-1964113117",
    "description": "City_599394",
    "title": "City_599394",
    "link_img": "https://live.staticflickr.com/65535/50039742837_032e33ba0a_o.jpg",
    "id_image": "City_599394",
    "count_view": 0
  },
  {
    "link_thumb": "https://live.staticflickr.com/65535/50039664026_c091361f89_n.jpg",
    "id_album": "1402713104",
    "description": "Landscape_197462",
    "title": "Landscape_197462",
    "link_img": "https://live.staticflickr.com/65535/50039664026_ba56fd0a10_o.jpg",
    "id_image": "Landscape_197462",
    "count_view": 0
  },
  {
    "link_thumb": "https://live.staticflickr.com/65535/50040277987_7580a49da4_n.jpg",
    "id_album": "1443611160",
    "description": "PlanetRise_785848",
    "title": "PlanetRise_785848",
    "link_img": "https://live.staticflickr.com/65535/50040277987_a91df36e70_o.jpg",
    "id_image": "PlanetRise_785848",
    "count_view": 0
  }
]