[
  {
    "link_thumb": "https://live.staticflickr.com/65535/50039545156_c9b3fd667f_n.jpg",
    "id_album": "894679094",
    "description": "Collision_957509",
    "title": "Collision_957509",
    "link_img": "https://live.staticflickr.com/65535/50039545156_b4dfc50dc4_o.jpg",
    "id_image": "Collision_957509",
    "count_view": 0
  },
  {
    "link_thumb": "https://live.staticflickr.com/65535/50040660562_290f8bf892_n.jpg",
    "id_album": "779690680",
    "description": "Robot_889656",
    "title": "Robot_889656",
    "link_img": "https://live.staticflickr.com/65535/50040660562_947b24b54d_o.jpg",
    "id_image": "Robot_889656",
    "count_view": 0
  },
  {
    "link_thumb": "https://live.staticflickr.com/65535/50038782563_fef883eac9_n.jpg",
    "id_album": "523598895",
    "description": "Artistic_350329",
    "title": "Artistic_350329",
    "link_img": "https://live.staticflickr.com/65535/50038782563_1513bddbb7_o.jpg",
    "id_image": "Artistic_350329",
    "count_view": 0
  },
  {
    "link_thumb": "https://live.staticflickr.com/65535/50039659866_0c7057fd38_n.jpg",
    "id_album": "1402713104",
    "description": "Landscape_119739",
    "title": "Landscape_119739",
    "link_img": "https://live.staticflickr.com/65535/50039659866_1048fc0503_o.jpg",
    "id_image": "Landscape_119739",
    "count_view": 0
  },
  {
    "link_thumb": "https://live.staticflickr.com/65535/50040179061_be2d805ee8_n.jpg",
    "id_album": "376235057",
    "description": "Planetscape_648878",
    "title": "Planetscape_648878",
    "link_img": "https://live.staticflickr.com/65535/50040179061_498927521c_o.jpg",
    "id_image": "Planetscape_648878",
    "count_view": 0
  },
  {
    "link_thumb": "https://live.staticflickr.com/65535/50041572327_7791a5c289_n.jpg",
    "id_album": "1267121215",
    "description": "Steampunk_264131",
    "title": "Steampunk_264131",
    "link_img": "https://live.staticflickr.com/65535/50041572327_b1f3491341_o.jpg",
    "id_image": "Steampunk_264131",
    "count_view": 0
  },
  {
    "link_thumb": "https://live.staticflickr.com/65535/50039433691_498591e3fe_n.jpg",
    "id_album": "-1964113117",
    "description": "City_123330",
    "title": "City_123330",
    "link_img": "https://live.staticflickr.com/65535/50039433691_48637e3d08_o.jpg",
    "id_image": "City_123330",
    "count_view": 0
  },
  {
    "link_thumb": "https://live.staticflickr.com/65535/50039286931_1553707b50_n.jpg",
    "id_album": "-419633230",
    "description": "Apocalyptic_711999",
    "title": "Apocalyptic_711999",
    "link_img": "https://live.staticflickr.com/65535/50039286931_94e9a435a6_o.jpg",
    "id_image": "Apocalyptic_711999",
    "count_view": 0
  },
  {
    "link_thumb": "https://live.staticflickr.com/65535/50039824026_73c7ac94db_n.jpg",
    "id_album": "-1610342324",
    "description": "Nebula_699745",
    "title": "Nebula_699745",
    "link_img": "https://live.staticflickr.com/65535/50039824026_069fa14f99_o.jpg",
    "id_image": "Nebula_699745",
    "count_view": 0
  },
  {
    "link_thumb": "https://live.staticflickr.com/65535/50039683667_5bcb8a66e0_n.jpg",
    "id_album": "406431601",
    "description": "Building_286800",
    "title": "Building_286800",
    "link_img": "https://live.staticflickr.com/65535/50039683667_df1b365e9d_o.jpg",
    "id_image": "Building_286800",
    "count_view": 0
  },
  {
    "link_thumb": "https://live.staticflickr.com/65535/50040052897_c090505e9d_n.jpg",
    "id_album": "-1610342324",
    "description": "Nebula_379571",
    "title": "Nebula_379571",
    "link_img": "https://live.staticflickr.com/65535/50040052897_0e350d2360_o.jpg",
    "id_image": "Nebula_379571",
    "count_view": 0
  },
  {
    "link_thumb": "https://live.staticflickr.com/65535/50039645047_b260e20d66_n.jpg",
    "id_album": "869545341",
    "description": "Astronaut_931830",
    "title": "Astronaut_931830",
    "link_img": "https://live.staticflickr.com/65535/50039645047_6a6378b1e4_o.jpg",
    "id_image": "Astronaut_931830",
    "count_view": 0
  },
  {
    "link_thumb": "https://live.staticflickr.com/65535/50041249906_436d5529e7_n.jpg",
    "id_album": "-1863373220",
    "description": "StarWars_980549",
    "title": "StarWars_980549",
    "link_img": "https://live.staticflickr.com/65535/50041249906_feef8a22c1_o.jpg",
    "id_image": "StarWars_980549",
    "count_view": 0
  },
  {
    "link_thumb": "https://live.staticflickr.com/65535/50039351748_e229d0d649_n.jpg",
    "id_album": "395161030",
    "description": "Planet_1005774",
    "title": "Planet_1005774",
    "link_img": "https://live.staticflickr.com/65535/50039351748_322371f792_o.jpg",
    "id_image": "Planet_1005774",
    "count_view": 0
  },
  {
    "link_thumb": "https://live.staticflickr.com/65535/50039213263_7d5cfe5903_n.jpg",
    "id_album": "-1610342324",
    "description": "Nebula_124789",
    "title": "Nebula_124789",
    "link_img": "https://live.staticflickr.com/65535/50039213263_ddb536c501_o.jpg",
    "id_image": "Nebula_124789",
    "count_view": 0
  },
  {
    "link_thumb": "https://live.staticflickr.com/65535/50039717691_1584aea667_n.jpg",
    "id_album": "1402713104",
    "description": "Landscape_881834",
    "title": "Landscape_881834",
    "link_img": "https://live.staticflickr.com/65535/50039717691_0110ed1f92_o.jpg",
    "id_image": "Landscape_881834",
    "count_view": 0
  },
  {
    "link_thumb": "https://live.staticflickr.com/65535/50039571382_a18eed57d4_n.jpg",
    "id_album": "523598895",
    "description": "Artistic_191740",
    "title": "Artistic_191740",
    "link_img": "https://live.staticflickr.com/65535/50039571382_91ceba7069_o.jpg",
    "id_image": "Artistic_191740",
    "count_view": 0
  },
  {
    "link_thumb": "https://live.staticflickr.com/65535/50039243428_f62a5c208a_n.jpg",
    "id_album": "-1610342324",
    "description": "Nebula_399991",
    "title": "Nebula_399991",
    "link_img": "https://live.staticflickr.com/65535/50039243428_dcd04ff1e0_o.jpg",
    "id_image": "Nebula_399991",
    "count_view": 0
  },
  {
    "link_thumb": "https://live.staticflickr.com/65535/50039835161_045746440b_n.jpg",
    "id_album": "-1610342324",
    "description": "Nebula_77316",
    "title": "Nebula_77316",
    "link_img": "https://live.staticflickr.com/65535/50039835161_56d24d7d99_o.jpg",
    "id_image": "Nebula_77316",
    "count_view": 0
  },
  {
    "link_thumb": "https://live.staticflickr.com/65535/50039960156_3e00bae2f3_n.jpg",
    "id_album": "395161030",
    "description": "Planet_558937",
    "title": "Planet_558937",
    "link_img": "https://live.staticflickr.com/65535/50039960156_3d0af5d8b5_o.jpg",
    "id_image": "Planet_558937",
    "count_view": 0
  },
  {
    "link_thumb": "https://live.staticflickr.com/65535/50039420551_1d4ec51869_n.jpg",
    "id_album": "-1780971522",
    "description": "Biohazard_851548",
    "title": "Biohazard_851548",
    "link_img": "https://live.staticflickr.com/65535/50039420551_939bd5e6e8_o.jpg",
    "id_image": "Biohazard_851548",
    "count_view": 0
  },
  {
    "link_thumb": "https://live.staticflickr.com/65535/50039087083_5911ec77a5_n.jpg",
    "id_album": "1204249541",
    "description": "Galaxy_450494",
    "title": "Galaxy_450494",
    "link_img": "https://live.staticflickr.com/65535/50039087083_b25c7d31f3_o.jpg",
    "id_image": "Galaxy_450494",
    "count_view": 0
  },
  {
    "link_thumb": "https://live.staticflickr.com/65535/50040556351_14a6b22076_n.jpg",
    "id_album": "-1532370292",
    "description": "SpaceStation_1007078",
    "title": "SpaceStation_1007078",
    "link_img": "https://live.staticflickr.com/65535/50040556351_241aec1500_o.jpg",
    "id_image": "SpaceStation_1007078",
    "count_view": 0
  },
  {
    "link_thumb": "https://live.staticflickr.com/65535/50040611117_82456fa1ff_n.jpg",
    "id_album": "779690680",
    "description": "Robot_616978",
    "title": "Robot_616978",
    "link_img": "https://live.staticflickr.com/65535/50040611117_f9051082bc_o.jpg",
    "id_image": "Robot_616978",
    "count_view": 0
  },
  {
    "link_thumb": "https://live.staticflickr.com/65535/50039772903_b864d98bef_n.jpg",
    "id_album": "779690680",
    "description": "Robot_497237",
    "title": "Robot_497237",
    "link_img": "https://live.staticflickr.com/65535/50039772903_b4f5c2e84f_o.jpg",
    "id_image": "Robot_497237",
    "count_view": 0
  },
  {
    "link_thumb": "https://live.staticflickr.com/65535/50039235633_ecb43aecea_n.jpg",
    "id_album": "-1610342324",
    "description": "Nebula_306650",
    "title": "Nebula_306650",
    "link_img": "https://live.staticflickr.com/65535/50039235633_ba457d6746_o.jpg",
    "id_image": "Nebula_306650",
    "count_view": 0
  },
  {
    "link_thumb": "https://live.staticflickr.com/65535/50040801177_9a479cc642_n.jpg",
    "id_album": "1613540653",
    "description": "Space_748350",
    "title": "Space_748350",
    "link_img": "https://live.staticflickr.com/65535/50040801177_cf00ba5ec8_o.jpg",
    "id_image": "Space_748350",
    "count_view": 0
  },
  {
    "link_thumb": "https://live.staticflickr.com/65535/50039692792_9e8ccb7e8b_n.jpg",
    "id_album": "-1964113117",
    "description": "City_1007789",
    "title": "City_1007789",
    "link_img": "https://live.staticflickr.com/65535/50039692792_3f84bf8f7b_o.jpg",
    "id_image": "City_1007789",
    "count_view": 0
  },
  {
    "link_thumb": "https://live.staticflickr.com/65535/50039676087_9f077851ba_n.jpg",
    "id_album": "-1780971522",
    "description": "Biohazard_339231",
    "title": "Biohazard_339231",
    "link_img": "https://live.staticflickr.com/65535/50039676087_600e8a7b9f_o.jpg",
    "id_image": "Biohazard_339231",
    "count_view": 0
  },
  {
    "link_thumb": "https://live.staticflickr.com/65535/50040830233_58557d9c93_n.jpg",
    "id_album": "2020068132",
    "description": "Vehicle_289753",
    "title": "Vehicle_289753",
    "link_img": "https://live.staticflickr.com/65535/50040830233_2acbc50e0a_o.jpg",
    "id_image": "Vehicle_289753",
    "count_view": 0
  },
  {
    "link_thumb": "https://live.staticflickr.com/65535/50039567157_a538a132fa_n.jpg",
    "id_album": "523598895",
    "description": "Artistic_178957",
    "title": "Artistic_178957",
    "link_img": "https://live.staticflickr.com/65535/50039567157_f55c53392f_o.jpg",
    "id_image": "Artistic_178957",
    "count_view": 0
  },
  {
    "link_thumb": "https://live.staticflickr.com/65535/50040062066_ff378f4c09_n.jpg",
    "id_album": "-1102314093",
    "description": "Planets_221903",
    "title": "Planets_221903",
    "link_img": "https://live.staticflickr.com/65535/50040062066_6edbbf9fb4_o.jpg",
    "id_image": "Planets_221903",
    "count_view": 0
  },
  {
    "link_thumb": "https://live.staticflickr.com/65535/50039430536_1aed38bd00_n.jpg",
    "id_album": "-1964113117",
    "description": "City_101078",
    "title": "City_101078",
    "link_img": "https://live.staticflickr.com/65535/50039430536_a2b35dc527_o.jpg",
    "id_image": "City_101078",
    "count_view": 0
  },
  {
    "link_thumb": "https://live.staticflickr.com/65535/50039994677_0af103918c_n.jpg",
    "id_album": "-1388385651",
    "description": "MilkyWay_308365",
    "title": "MilkyWay_308365",
    "link_img": "https://live.staticflickr.com/65535/50039994677_4912721877_o.jpg",
    "id_image": "MilkyWay_308365",
    "count_view": 0
  },
  {
    "link_thumb": "https://live.staticflickr.com/65535/50039823476_5396ed7530_n.jpg",
    "id_album": "-1610342324",
    "description": "Nebula_690814",
    "title": "Nebula_690814",
    "link_img": "https://live.staticflickr.com/65535/50039823476_74d5695a91_o.jpg",
    "id_image": "Nebula_690814",
    "count_view": 0
  },
  {
    "link_thumb": "https://live.staticflickr.com/65535/50040438816_81b360e571_n.jpg",
    "id_album": "779690680",
    "description": "Robot_944755",
    "title": "Robot_944755",
    "link_img": "https://live.staticflickr.com/65535/50040438816_5d04e78999_o.jpg",
    "id_image": "Robot_944755",
    "count_view": 0
  },
  {
    "link_thumb": "https://live.staticflickr.com/65535/50040153753_144050b1e8_n.jpg",
    "id_album": "2130067313",
    "description": "Spaceship_528589",
    "title": "Spaceship_528589",
    "link_img": "https://live.staticflickr.com/65535/50040153753_72358b2687_o.jpg",
    "id_image": "Spaceship_528589",
    "count_view": 0
  },
  {
    "link_thumb": "https://live.staticflickr.com/65535/50040829273_89316a3e19_n.jpg",
    "id_album": "2020068132",
    "description": "Vehicle_285211",
    "title": "Vehicle_285211",
    "link_img": "https://live.staticflickr.com/65535/50040829273_522bd7b837_o.jpg",
    "id_image": "Vehicle_285211",
    "count_view": 0
  },
  {
    "link_thumb": "https://live.staticflickr.com/65535/50039548253_2d175c5921_n.jpg",
    "id_album": "-1102314093",
    "description": "Planets_361692",
    "title": "Planets_361692",
    "link_img": "https://live.staticflickr.com/65535/50039548253_a3c4f19015_o.jpg",
    "id_image": "Planets_361692",
    "count_view": 0
  },
  {
    "link_thumb": "https://live.staticflickr.com/65535/50040620326_bdaba5614c_n.jpg",
    "id_album": "2130067313",
    "description": "Spaceship_273959",
    "title": "Spaceship_273959",
    "link_img": "https://live.staticflickr.com/65535/50040620326_9d098b2b30_o.jpg",
    "id_image": "Spaceship_273959",
    "count_view": 0
  },
  {
    "link_thumb": "https://live.staticflickr.com/65535/50040977513_96a03899d9_n.jpg",
    "id_album": "-1126835654",
    "description": "Women_424542",
    "title": "Women_424542",
    "link_img": "https://live.staticflickr.com/65535/50040977513_b2221c4199_o.jpg",
    "id_image": "Women_424542",
    "count_view": 0
  },
  {
    "link_thumb": "https://live.staticflickr.com/65535/50039305461_62da245ab9_n.jpg",
    "id_album": "523598895",
    "description": "Artistic_179637",
    "title": "Artistic_179637",
    "link_img": "https://live.staticflickr.com/65535/50039305461_269aa6c6cd_o.jpg",
    "id_image": "Artistic_179637",
    "count_view": 0
  },
  {
    "link_thumb": "https://live.staticflickr.com/65535/50039539687_ddc55c7817_n.jpg",
    "id_album": "849020728",
    "description": "Alien_941433",
    "title": "Alien_941433",
    "link_img": "https://live.staticflickr.com/65535/50039539687_86cacf4b57_o.jpg",
    "id_image": "Alien_941433",
    "count_view": 0
  },
  {
    "link_thumb": "https://live.staticflickr.com/65535/50040505482_4a1466bac0_n.jpg",
    "id_album": "-839602625",
    "description": "Predator_340249",
    "title": "Predator_340249",
    "link_img": "https://live.staticflickr.com/65535/50040505482_1225656af3_o.jpg",
    "id_image": "Predator_340249",
    "count_view": 0
  },
  {
    "link_thumb": "https://live.staticflickr.com/65535/50039668053_de8a0b79c0_n.jpg",
    "id_album": "-482547208",
    "description": "PostApocalyptic_709120",
    "title": "PostApocalyptic_709120",
    "link_img": "https://live.staticflickr.com/65535/50039668053_f21b51ef70_o.jpg",
    "id_image": "PostApocalyptic_709120",
    "count_view": 0
  },
  {
    "link_thumb": "https://live.staticflickr.com/65535/50039799902_abcc939dea_n.jpg",
    "id_album": "894679094",
    "description": "Collision_2867",
    "title": "Collision_2867",
    "link_img": "https://live.staticflickr.com/65535/50039799902_cff2464fa9_o.jpg",
    "id_image": "Collision_2867",
    "count_view": 0
  },
  {
    "link_thumb": "https://live.staticflickr.com/65535/50040036572_86b7163123_n.jpg",
    "id_album": "-1610342324",
    "description": "Nebula_225127",
    "title": "Nebula_225127",
    "link_img": "https://live.staticflickr.com/65535/50040036572_e862dc15fb_o.jpg",
    "id_image": "Nebula_225127",
    "count_view": 0
  },
  {
    "link_thumb": "https://live.staticflickr.com/65535/50040933818_f4eaf23484_n.jpg",
    "id_album": "-1261420436",
    "description": "Warrior_788776",
    "title": "Warrior_788776",
    "link_img": "https://live.staticflickr.com/65535/50040933818_e98073c311_o.jpg",
    "id_image": "Warrior_788776",
    "count_view": 0
  },
  {
    "link_thumb": "https://live.staticflickr.com/65535/50039098633_5606f04523_n.jpg",
    "id_album": "1204249541",
    "description": "Galaxy_606741",
    "title": "Galaxy_606741",
    "link_img": "https://live.staticflickr.com/65535/50039098633_3266e95d70_o.jpg",
    "id_image": "Galaxy_606741",
    "count_view": 0
  },
  {
    "link_thumb": "https://live.staticflickr.com/65535/50039681462_e6dda5f651_n.jpg",
    "id_album": "-1780971522",
    "description": "Biohazard_577357",
    "title": "Biohazard_577357",
    "link_img": "https://live.staticflickr.com/65535/50039681462_1481798f23_o.jpg",
    "id_image": "Biohazard_577357",
    "count_view": 0
  },
  {
    "link_thumb": "https://live.staticflickr.com/65535/50039683013_5db81b9238_n.jpg",
    "id_album": "-482547208",
    "description": "PostApocalyptic_971388",
    "title": "PostApocalyptic_971388",
    "link_img": "https://live.staticflickr.com/65535/50039683013_7292c81f04_o.jpg",
    "id_image": "PostApocalyptic_971388",
    "count_view": 0
  },
  {
    "link_thumb": "https://live.staticflickr.com/65535/50040735886_6df3961fde_n.jpg",
    "id_album": "2130067313",
    "description": "Spaceship_677167",
    "title": "Spaceship_677167",
    "link_img": "https://live.staticflickr.com/65535/50040735886_679cc5214e_o.jpg",
    "id_image": "Spaceship_677167",
    "count_view": 0
  },
  {
    "link_thumb": "https://live.staticflickr.com/65535/50040828848_83378202cc_n.jpg",
    "id_album": "2020068132",
    "description": "Vehicle_271142",
    "title": "Vehicle_271142",
    "link_img": "https://live.staticflickr.com/65535/50040828848_0755b1ed6b_o.jpg",
    "id_image": "Vehicle_271142",
    "count_view": 0
  },
  {
    "link_thumb": "https://live.staticflickr.com/65535/50039919857_ace01248de_n.jpg",
    "id_album": "1204249541",
    "description": "Galaxy_942511",
    "title": "Galaxy_942511",
    "link_img": "https://live.staticflickr.com/65535/50039919857_9038d76819_o.jpg",
    "id_image": "Galaxy_942511",
    "count_view": 0
  },
  {
    "link_thumb": "https://live.staticflickr.com/65535/50041574982_dc5f51af90_n.jpg",
    "id_album": "1267121215",
    "description": "Steampunk_303880",
    "title": "Steampunk_303880",
    "link_img": "https://live.staticflickr.com/65535/50041574982_bf59e4b132_o.jpg",
    "id_image": "Steampunk_303880",
    "count_view": 0
  },
  {
    "link_thumb": "https://live.staticflickr.com/65535/50039841023_344c5db0c6_n.jpg",
    "id_album": "779690680",
    "description": "Robot_886631",
    "title": "Robot_886631",
    "link_img": "https://live.staticflickr.com/65535/50039841023_2141924e95_o.jpg",
    "id_image": "Robot_886631",
    "count_view": 0
  },
  {
    "link_thumb": "https://live.staticflickr.com/65535/50040226628_ba1b951dac_n.jpg",
    "id_album": "2130067313",
    "description": "Spaceship_975881",
    "title": "Spaceship_975881",
    "link_img": "https://live.staticflickr.com/65535/50040226628_3d6d7658c4_o.jpg",
    "id_image": "Spaceship_975881",
    "count_view": 0
  },
  {
    "link_thumb": "https://live.staticflickr.com/65535/50039582511_523098457b_n.jpg",
    "id_album": "829169633",
    "description": "Cyborg_239897",
    "title": "Cyborg_239897",
    "link_img": "https://live.staticflickr.com/65535/50039582511_6b7fdc7fb4_o.jpg",
    "id_image": "Cyborg_239897",
    "count_view": 0
  },
  {
    "link_thumb": "https://live.staticflickr.com/65535/50041026328_e85a67549a_n.jpg",
    "id_album": "-1675918237",
    "description": "WomenWarrior_551719",
    "title": "WomenWarrior_551719",
    "link_img": "https://live.staticflickr.com/65535/50041026328_438f57d5fb_o.jpg",
    "id_image": "WomenWarrior_551719",
    "count_view": 0
  },
  {
    "link_thumb": "https://live.staticflickr.com/65535/50039893052_6f15fea84e_n.jpg",
    "id_album": "1204249541",
    "description": "Galaxy_30413",
    "title": "Galaxy_30413",
    "link_img": "https://live.staticflickr.com/65535/50039893052_f85680f304_o.jpg",
    "id_image": "Galaxy_30413",
    "count_view": 0
  },
  {
    "link_thumb": "https://live.staticflickr.com/65535/50040044377_2eef36a06b_n.jpg",
    "id_album": "-1610342324",
    "description": "Nebula_280749",
    "title": "Nebula_280749",
    "link_img": "https://live.staticflickr.com/65535/50040044377_d5afaaaf11_o.jpg",
    "id_image": "Nebula_280749",
    "count_view": 0
  },
  {
    "link_thumb": "https://live.staticflickr.com/65535/50041339576_da3ec038ee_n.jpg",
    "id_album": "-221671103",
    "description": "Sun_181750",
    "title": "Sun_181750",
    "link_img": "https://live.staticflickr.com/65535/50041339576_b02a618001_o.jpg",
    "id_image": "Sun_181750",
    "count_view": 0
  },
  {
    "link_thumb": "https://live.staticflickr.com/65535/50039926633_b4bee4985e_n.jpg",
    "id_album": "1613540653",
    "description": "Space_224209",
    "title": "Space_224209",
    "link_img": "https://live.staticflickr.com/65535/50039926633_a62b9f3135_o.jpg",
    "id_image": "Space_224209",
    "count_view": 0
  },
  {
    "link_thumb": "https://live.staticflickr.com/65535/50041338136_760776478b_n.jpg",
    "id_album": "-221671103",
    "description": "Sun_106490",
    "title": "Sun_106490",
    "link_img": "https://live.staticflickr.com/65535/50041338136_782456eb93_o.jpg",
    "id_image": "Sun_106490",
    "count_view": 0
  },
  {
    "link_thumb": "https://live.staticflickr.com/65535/50039634896_296cfa6956_n.jpg",
    "id_album": "1204249541",
    "description": "Galaxy_441051",
    "title": "Galaxy_441051",
    "link_img": "https://live.staticflickr.com/65535/50039634896_860781df0c_o.jpg",
    "id_image": "Galaxy_441051",
    "count_view": 0
  },
  {
    "link_thumb": "https://live.staticflickr.com/65535/50038691448_9a163fd5fd_n.jpg",
    "id_album": "-406145265",
    "description": "Aircraft_341297",
    "title": "Aircraft_341297",
    "link_img": "https://live.staticflickr.com/65535/50038691448_5a33ac87e3_o.jpg",
    "id_image": "Aircraft_341297",
    "count_view": 0
  },
  {
    "link_thumb": "https://live.staticflickr.com/65535/50039660833_e4d8852f7f_n.jpg",
    "id_album": "-482547208",
    "description": "PostApocalyptic_529247",
    "title": "PostApocalyptic_529247",
    "link_img": "https://live.staticflickr.com/65535/50039660833_8317080e52_o.jpg",
    "id_image": "PostApocalyptic_529247",
    "count_view": 0
  },
  {
    "link_thumb": "https://live.staticflickr.com/65535/50040401451_60a1a6ff57_n.jpg",
    "id_album": "779690680",
    "description": "Robot_903928",
    "title": "Robot_903928",
    "link_img": "https://live.staticflickr.com/65535/50040401451_074e15775d_o.jpg",
    "id_image": "Robot_903928",
    "count_view": 0
  },
  {
    "link_thumb": "https://live.staticflickr.com/65535/50040113941_de221f7dac_n.jpg",
    "id_album": "-1102314093",
    "description": "Planets_426463",
    "title": "Planets_426463",
    "link_img": "https://live.staticflickr.com/65535/50040113941_b4b40559b3_o.jpg",
    "id_image": "Planets_426463",
    "count_view": 0
  },
  {
    "link_thumb": "https://live.staticflickr.com/65535/50040694702_2d061141a3_n.jpg",
    "id_album": "779690680",
    "description": "Robot_933179",
    "title": "Robot_933179",
    "link_img": "https://live.staticflickr.com/65535/50040694702_80845635af_o.jpg",
    "id_image": "Robot_933179",
    "count_view": 0
  },
  {
    "link_thumb": "https://live.staticflickr.com/65535/50040681182_b5361030f0_n.jpg",
    "id_album": "779690680",
    "description": "Robot_920333",
    "title": "Robot_920333",
    "link_img": "https://live.staticflickr.com/65535/50040681182_7a01088e57_o.jpg",
    "id_image": "Robot_920333",
    "count_view": 0
  },
  {
    "link_thumb": "https://live.staticflickr.com/65535/50039376218_db17358580_n.jpg",
    "id_album": "395161030",
    "description": "Planet_287061",
    "title": "Planet_287061",
    "link_img": "https://live.staticflickr.com/65535/50039376218_1ba7b6eb58_o.jpg",
    "id_image": "Planet_287061",
    "count_view": 0
  },
  {
    "link_thumb": "https://live.staticflickr.com/65535/50041538841_1c77f4a142_n.jpg",
    "id_album": "-1126835654",
    "description": "Women_585191",
    "title": "Women_585191",
    "link_img": "https://live.staticflickr.com/65535/50041538841_d00491546c_o.jpg",
    "id_image": "Women_585191",
    "count_view": 0
  },
  {
    "link_thumb": "https://live.staticflickr.com/65535/50039278903_1ede999b3e_n.jpg",
    "id_album": "-1610342324",
    "description": "Nebula_747001",
    "title": "Nebula_747001",
    "link_img": "https://live.staticflickr.com/65535/50039278903_356300dfa1_o.jpg",
    "id_image": "Nebula_747001",
    "count_view": 0
  },
  {
    "link_thumb": "https://live.staticflickr.com/65535/50041324186_638bb342c1_n.jpg",
    "id_album": "1267121215",
    "description": "Steampunk_61891",
    "title": "Steampunk_61891",
    "link_img": "https://live.staticflickr.com/65535/50041324186_b0dfdd9f1f_o.jpg",
    "id_image": "Steampunk_61891",
    "count_view": 0
  },
  {
    "link_thumb": "https://live.staticflickr.com/65535/50039653062_d6aff6c413_n.jpg",
    "id_album": "869545341",
    "description": "Astronaut_988771",
    "title": "Astronaut_988771",
    "link_img": "https://live.staticflickr.com/65535/50039653062_3eaefb5e72_o.jpg",
    "id_image": "Astronaut_988771",
    "count_view": 0
  },
  {
    "link_thumb": "https://live.staticflickr.com/65535/50039061098_31b8e5929b_n.jpg",
    "id_album": "651930207",
    "description": "Explosion_370831",
    "title": "Explosion_370831",
    "link_img": "https://live.staticflickr.com/65535/50039061098_aeda350901_o.jpg",
    "id_image": "Explosion_370831",
    "count_view": 0
  },
  {
    "link_thumb": "https://live.staticflickr.com/65535/50038975123_e146523da8_n.jpg",
    "id_album": "-1964113117",
    "description": "City_931875",
    "title": "City_931875",
    "link_img": "https://live.staticflickr.com/65535/50038975123_c40ea215a0_o.jpg",
    "id_image": "City_931875",
    "count_view": 0
  },
  {
    "link_thumb": "https://live.staticflickr.com/65535/50040184022_73ae9ce7ca_n.jpg",
    "id_album": "395161030",
    "description": "Planet_220189",
    "title": "Planet_220189",
    "link_img": "https://live.staticflickr.com/65535/50040184022_acfa8eb5ce_o.jpg",
    "id_image": "Planet_220189",
    "count_view": 0
  },
  {
    "link_thumb": "https://live.staticflickr.com/65535/50039348496_bced6d40d0_n.jpg",
    "id_album": "869545341",
    "description": "Astronaut_1008983",
    "title": "Astronaut_1008983",
    "link_img": "https://live.staticflickr.com/65535/50039348496_7620831dd1_o.jpg",
    "id_image": "Astronaut_1008983",
    "count_view": 0
  },
  {
    "link_thumb": "https://live.staticflickr.com/65535/50040105371_f38edf25d6_n.jpg",
    "id_album": "-1102314093",
    "description": "Planets_393895",
    "title": "Planets_393895",
    "link_img": "https://live.staticflickr.com/65535/50040105371_c922fa9262_o.jpg",
    "id_image": "Planets_393895",
    "count_view": 0
  },
  {
    "link_thumb": "https://live.staticflickr.com/65535/50039905061_9805104031_n.jpg",
    "id_album": "395161030",
    "description": "Planet_140189",
    "title": "Planet_140189",
    "link_img": "https://live.staticflickr.com/65535/50039905061_12c871aa1c_o.jpg",
    "id_image": "Planet_140189",
    "count_view": 0
  },
  {
    "link_thumb": "https://live.staticflickr.com/65535/50038730893_f627ac0246_n.jpg",
    "id_album": "-419633230",
    "description": "Apocalyptic_116807",
    "title": "Apocalyptic_116807",
    "link_img": "https://live.staticflickr.com/65535/50038730893_68d7d64db4_o.jpg",
    "id_image": "Apocalyptic_116807",
    "count_view": 0
  },
  {
    "link_thumb": "https://live.staticflickr.com/65535/50038831068_49718945d0_n.jpg",
    "id_album": "869545341",
    "description": "Astronaut_923964",
    "title": "Astronaut_923964",
    "link_img": "https://live.staticflickr.com/65535/50038831068_862b9fc374_o.jpg",
    "id_image": "Astronaut_923964",
    "count_view": 0
  },
  {
    "link_thumb": "https://live.staticflickr.com/65535/50039957666_9b858296a4_n.jpg",
    "id_album": "395161030",
    "description": "Planet_533952",
    "title": "Planet_533952",
    "link_img": "https://live.staticflickr.com/65535/50039957666_102822f0c0_o.jpg",
    "id_image": "Planet_533952",
    "count_view": 0
  },
  {
    "link_thumb": "https://live.staticflickr.com/65535/50040104627_f90e3909a7_n.jpg",
    "id_album": "-1610342324",
    "description": "Nebula_822477",
    "title": "Nebula_822477",
    "link_img": "https://live.staticflickr.com/65535/50040104627_13b6a0ee44_o.jpg",
    "id_image": "Nebula_822477",
    "count_view": 0
  },
  {
    "link_thumb": "https://live.staticflickr.com/65535/50039905956_47da4daa2e_n.jpg",
    "id_album": "395161030",
    "description": "Planet_154024",
    "title": "Planet_154024",
    "link_img": "https://live.staticflickr.com/65535/50039905956_5740415e63_o.jpg",
    "id_image": "Planet_154024",
    "count_view": 0
  },
  {
    "link_thumb": "https://live.staticflickr.com/65535/50039628668_9112ebe46d_n.jpg",
    "id_album": "376235057",
    "description": "Planetscape_694465",
    "title": "Planetscape_694465",
    "link_img": "https://live.staticflickr.com/65535/50039628668_57b7ea11db_o.jpg",
    "id_image": "Planetscape_694465",
    "count_view": 0
  },
  {
    "link_thumb": "https://live.staticflickr.com/65535/50039781262_ab243fa03b_n.jpg",
    "id_album": "-1964113117",
    "description": "City_910936",
    "title": "City_910936",
    "link_img": "https://live.staticflickr.com/65535/50039781262_2d62bda94d_o.jpg",
    "id_image": "City_910936",
    "count_view": 0
  },
  {
    "link_thumb": "https://live.staticflickr.com/65535/50039323541_4bd3ff0ab7_n.jpg",
    "id_album": "523598895",
    "description": "Artistic_244220",
    "title": "Artistic_244220",
    "link_img": "https://live.staticflickr.com/65535/50039323541_6c8b4cd9c1_o.jpg",
    "id_image": "Artistic_244220",
    "count_view": 0
  },
  {
    "link_thumb": "https://live.staticflickr.com/65535/50039110628_c9f9b1e2f1_n.jpg",
    "id_album": "1402713104",
    "description": "Landscape_114870",
    "title": "Landscape_114870",
    "link_img": "https://live.staticflickr.com/65535/50039110628_79fc5f4556_o.jpg",
    "id_image": "Landscape_114870",
    "count_view": 0
  },
  {
    "link_thumb": "https://live.staticflickr.com/65535/50039603208_cc0c285278_n.jpg",
    "id_album": "376235057",
    "description": "Planetscape_261187",
    "title": "Planetscape_261187",
    "link_img": "https://live.staticflickr.com/65535/50039603208_f61873a757_o.jpg",
    "id_image": "Planetscape_261187",
    "count_view": 0
  },
  {
    "link_thumb": "https://live.staticflickr.com/65535/50039843911_6922ea63d4_n.jpg",
    "id_album": "-1610342324",
    "description": "Nebula_84616",
    "title": "Nebula_84616",
    "link_img": "https://live.staticflickr.com/65535/50039843911_60fbac3ab0_o.jpg",
    "id_image": "Nebula_84616",
    "count_view": 0
  },
  {
    "link_thumb": "https://live.staticflickr.com/65535/50039234101_47916c6b9e_n.jpg",
    "id_album": "-406145265",
    "description": "Aircraft_145916",
    "title": "Aircraft_145916",
    "link_img": "https://live.staticflickr.com/65535/50039234101_52b1bf0684_o.jpg",
    "id_image": "Aircraft_145916",
    "count_view": 0
  },
  {
    "link_thumb": "https://live.staticflickr.com/65535/50041390587_f7f91c66f4_n.jpg",
    "id_album": "-1863373220",
    "description": "StarWars_205601",
    "title": "StarWars_205601",
    "link_img": "https://live.staticflickr.com/65535/50041390587_bb11a95dfc_o.jpg",
    "id_image": "StarWars_205601",
    "count_view": 0
  },
  {
    "link_thumb": "https://live.staticflickr.com/65535/50040776807_8a0b86e4f4_n.jpg",
    "id_album": "1613540653",
    "description": "Space_560775",
    "title": "Space_560775",
    "link_img": "https://live.staticflickr.com/65535/50040776807_0da1156ccb_o.jpg",
    "id_image": "Space_560775",
    "count_view": 0
  },
  {
    "link_thumb": "https://live.staticflickr.com/65535/50041248791_2e0a22919b_n.jpg",
    "id_album": "-1863373220",
    "description": "StarWars_980526",
    "title": "StarWars_980526",
    "link_img": "https://live.staticflickr.com/65535/50041248791_9cce4a1571_o.jpg",
    "id_image": "StarWars_980526",
    "count_view": 0
  },
  {
    "link_thumb": "https://live.staticflickr.com/65535/50038840983_36dd88061e_n.jpg",
    "id_album": "869545341",
    "description": "Astronaut_979106",
    "title": "Astronaut_979106",
    "link_img": "https://live.staticflickr.com/65535/50038840983_5ff9f98903_o.jpg",
    "id_image": "Astronaut_979106",
    "count_view": 0
  },
  {
    "link_thumb": "https://live.staticflickr.com/65535/50039640126_124536ea39_n.jpg",
    "id_album": "1204249541",
    "description": "Galaxy_540814",
    "title": "Galaxy_540814",
    "link_img": "https://live.staticflickr.com/65535/50039640126_67d6b7f344_o.jpg",
    "id_image": "Galaxy_540814",
    "count_view": 0
  },
  {
    "link_thumb": "https://live.staticflickr.com/65535/50040085927_d654532440_n.jpg",
    "id_album": "-1610342324",
    "description": "Nebula_689583",
    "title": "Nebula_689583",
    "link_img": "https://live.staticflickr.com/65535/50040085927_271894aa9f_o.jpg",
    "id_image": "Nebula_689583",
    "count_view": 0
  },
  {
    "link_thumb": "https://live.staticflickr.com/65535/50039431336_fc9b2cbeec_n.jpg",
    "id_album": "-1964113117",
    "description": "City_103619",
    "title": "City_103619",
    "link_img": "https://live.staticflickr.com/65535/50039431336_ec42afeb1e_o.jpg",
    "id_image": "City_103619",
    "count_view": 0
  },
  {
    "link_thumb": "https://live.staticflickr.com/65535/50039559467_651027c614_n.jpg",
    "id_album": "523598895",
    "description": "Artistic_152609",
    "title": "Artistic_152609",
    "link_img": "https://live.staticflickr.com/65535/50039559467_3387283521_o.jpg",
    "id_image": "Artistic_152609",
    "count_view": 0
  },
  {
    "link_thumb": "https://live.staticflickr.com/65535/50039925416_1a4186db20_n.jpg",
    "id_album": "395161030",
    "description": "Planet_294959",
    "title": "Planet_294959",
    "link_img": "https://live.staticflickr.com/65535/50039925416_29ec6781ce_o.jpg",
    "id_image": "Planet_294959",
    "count_view": 0
  },
  {
    "link_thumb": "https://live.staticflickr.com/65535/50040427351_3b93c2a17c_n.jpg",
    "id_album": "779690680",
    "description": "Robot_930300",
    "title": "Robot_930300",
    "link_img": "https://live.staticflickr.com/65535/50040427351_c3951669d5_o.jpg",
    "id_image": "Robot_930300",
    "count_view": 0
  },
  {
    "link_thumb": "https://live.staticflickr.com/65535/50039588532_d410bc1a28_n.jpg",
    "id_album": "523598895",
    "description": "Artistic_278716",
    "title": "Artistic_278716",
    "link_img": "https://live.staticflickr.com/65535/50039588532_899ded1d12_o.jpg",
    "id_image": "Artistic_278716",
    "count_view": 0
  },
  {
    "link_thumb": "https://live.staticflickr.com/65535/50040214857_a7d3409e4b_n.jpg",
    "id_album": "395161030",
    "description": "Planet_450504",
    "title": "Planet_450504",
    "link_img": "https://live.staticflickr.com/65535/50040214857_0089e54cd0_o.jpg",
    "id_image": "Planet_450504",
    "count_view": 0
  },
  {
    "link_thumb": "https://live.staticflickr.com/65535/50039989128_57442d4d20_n.jpg",
    "id_album": "1613540653",
    "description": "Space_822471",
    "title": "Space_822471",
    "link_img": "https://live.staticflickr.com/65535/50039989128_5b33a5b0be_o.jpg",
    "id_image": "Space_822471",
    "count_view": 0
  },
  {
    "link_thumb": "https://live.staticflickr.com/65535/50039674377_aa2ff7c368_n.jpg",
    "id_album": "-1780971522",
    "description": "Biohazard_2968",
    "title": "Biohazard_2968",
    "link_img": "https://live.staticflickr.com/65535/50039674377_c325675a47_o.jpg",
    "id_image": "Biohazard_2968",
    "count_view": 0
  },
  {
    "link_thumb": "https://live.staticflickr.com/65535/50039543698_6e04135ea1_n.jpg",
    "id_album": "-1102314093",
    "description": "Planets_352982",
    "title": "Planets_352982",
    "link_img": "https://live.staticflickr.com/65535/50039543698_17097ceb80_o.jpg",
    "id_image": "Planets_352982",
    "count_view": 0
  },
  {
    "link_thumb": "https://live.staticflickr.com/65535/50039920292_28ede4f717_n.jpg",
    "id_album": "1204249541",
    "description": "Galaxy_957473",
    "title": "Galaxy_957473",
    "link_img": "https://live.staticflickr.com/65535/50039920292_e4658c6b0d_o.jpg",
    "id_image": "Galaxy_957473",
    "count_view": 0
  },
  {
    "link_thumb": "https://live.staticflickr.com/65535/50039516246_bd0d7e3b73_n.jpg",
    "id_album": "-1964113117",
    "description": "City_902774",
    "title": "City_902774",
    "link_img": "https://live.staticflickr.com/65535/50039516246_73a44948df_o.jpg",
    "id_image": "City_902774",
    "count_view": 0
  },
  {
    "link_thumb": "https://live.staticflickr.com/65535/50039817272_ce33e72734_n.jpg",
    "id_album": "-437872736",
    "description": "Creature_393234",
    "title": "Creature_393234",
    "link_img": "https://live.staticflickr.com/65535/50039817272_d1efb8501e_o.jpg",
    "id_image": "Creature_393234",
    "count_view": 0
  },
  {
    "link_thumb": "https://live.staticflickr.com/65535/50040545942_3605156c07_n.jpg",
    "id_album": "779690680",
    "description": "Robot_286162",
    "title": "Robot_286162",
    "link_img": "https://live.staticflickr.com/65535/50040545942_08dc1401f4_o.jpg",
    "id_image": "Robot_286162",
    "count_view": 0
  },
  {
    "link_thumb": "https://live.staticflickr.com/65535/50039692967_9b7c0601fc_n.jpg",
    "id_album": "-1964113117",
    "description": "City_1007901",
    "title": "City_1007901",
    "link_img": "https://live.staticflickr.com/65535/50039692967_29cea7c186_o.jpg",
    "id_image": "City_1007901",
    "count_view": 0
  },
  {
    "link_thumb": "https://live.staticflickr.com/65535/50038882418_20d7831f9a_n.jpg",
    "id_album": "-1964113117",
    "description": "City_103373",
    "title": "City_103373",
    "link_img": "https://live.staticflickr.com/65535/50038882418_cabcfc696b_o.jpg",
    "id_image": "City_103373",
    "count_view": 0
  },
  {
    "link_thumb": "https://live.staticflickr.com/65535/50040251697_da51773fc8_n.jpg",
    "id_album": "395161030",
    "description": "Planet_957424",
    "title": "Planet_957424",
    "link_img": "https://live.staticflickr.com/65535/50040251697_62e109065f_o.jpg",
    "id_image": "Planet_957424",
    "count_view": 0
  },
  {
    "link_thumb": "https://live.staticflickr.com/65535/50040399677_b89af3f3cf_n.jpg",
    "id_album": "-1102314093",
    "description": "Planets_78685",
    "title": "Planets_78685",
    "link_img": "https://live.staticflickr.com/65535/50040399677_09316be076_o.jpg",
    "id_image": "Planets_78685",
    "count_view": 0
  },
  {
    "link_thumb": "https://live.staticflickr.com/65535/50039076413_cd20851a56_n.jpg",
    "id_album": "1204249541",
    "description": "Galaxy_189863",
    "title": "Galaxy_189863",
    "link_img": "https://live.staticflickr.com/65535/50039076413_88a86322cc_o.jpg",
    "id_image": "Galaxy_189863",
    "count_view": 0
  },
  {
    "link_thumb": "https://live.staticflickr.com/65535/50039916951_8f0a85979d_n.jpg",
    "id_album": "395161030",
    "description": "Planet_197459",
    "title": "Planet_197459",
    "link_img": "https://live.staticflickr.com/65535/50039916951_3ebe7cae92_o.jpg",
    "id_image": "Planet_197459",
    "count_view": 0
  },
  {
    "link_thumb": "https://live.staticflickr.com/65535/50039747612_1d8f2eb968_n.jpg",
    "id_album": "-1964113117",
    "description": "City_671368",
    "title": "City_671368",
    "link_img": "https://live.staticflickr.com/65535/50039747612_8a3372d712_o.jpg",
    "id_image": "City_671368",
    "count_view": 0
  },
  {
    "link_thumb": "https://live.staticflickr.com/65535/50039869998_b42f714dc2_n.jpg",
    "id_album": "779690680",
    "description": "Robot_928585",
    "title": "Robot_928585",
    "link_img": "https://live.staticflickr.com/65535/50039869998_5a8bdb883f_o.jpg",
    "id_image": "Robot_928585",
    "count_view": 0
  },
  {
    "link_thumb": "https://live.staticflickr.com/65535/50039919783_b56c278657_n.jpg",
    "id_album": "1613540653",
    "description": "Space_180954",
    "title": "Space_180954",
    "link_img": "https://live.staticflickr.com/65535/50039919783_813e4f88c9_o.jpg",
    "id_image": "Space_180954",
    "count_view": 0
  },
  {
    "link_thumb": "https://live.staticflickr.com/65535/50040223032_a95f688fa6_n.jpg",
    "id_album": "395161030",
    "description": "Planet_546603",
    "title": "Planet_546603",
    "link_img": "https://live.staticflickr.com/65535/50040223032_d02cdd0868_o.jpg",
    "id_image": "Planet_546603",
    "count_view": 0
  },
  {
    "link_thumb": "https://live.staticflickr.com/65535/50038995868_580188ba2a_n.jpg",
    "id_album": "894679094",
    "description": "Collision_904527",
    "title": "Collision_904527",
    "link_img": "https://live.staticflickr.com/65535/50038995868_011baebe8d_o.jpg",
    "id_image": "Collision_904527",
    "count_view": 0
  },
  {
    "link_thumb": "https://live.staticflickr.com/65535/50038779088_a6ce33fc2f_n.jpg",
    "id_album": "523598895",
    "description": "Artistic_281513",
    "title": "Artistic_281513",
    "link_img": "https://live.staticflickr.com/65535/50038779088_dedec4b0a2_o.jpg",
    "id_image": "Artistic_281513",
    "count_view": 0
  },
  {
    "link_thumb": "https://live.staticflickr.com/65535/50039406901_922577001f_n.jpg",
    "id_album": "1187037014",
    "description": "Battle_793102",
    "title": "Battle_793102",
    "link_img": "https://live.staticflickr.com/65535/50039406901_a3b3d3cee0_o.jpg",
    "id_image": "Battle_793102",
    "count_view": 0
  },
  {
    "link_thumb": "https://live.staticflickr.com/65535/50039847908_1d44bdc836_n.jpg",
    "id_album": "779690680",
    "description": "Robot_902777",
    "title": "Robot_902777",
    "link_img": "https://live.staticflickr.com/65535/50039847908_05ccb57985_o.jpg",
    "id_image": "Robot_902777",
    "count_view": 0
  },
  {
    "link_thumb": "https://live.staticflickr.com/65535/50039211443_5c2826bea0_n.jpg",
    "id_album": "-1610342324",
    "description": "Nebula_106481",
    "title": "Nebula_106481",
    "link_img": "https://live.staticflickr.com/65535/50039211443_22e9d7dae2_o.jpg",
    "id_image": "Nebula_106481",
    "count_view": 0
  },
  {
    "link_thumb": "https://live.staticflickr.com/65535/50039188413_44f658698c_n.jpg",
    "id_album": "-1388385651",
    "description": "MilkyWay_670536",
    "title": "MilkyWay_670536",
    "link_img": "https://live.staticflickr.com/65535/50039188413_f6d585c4e9_o.jpg",
    "id_image": "MilkyWay_670536",
    "count_view": 0
  },
  {
    "link_thumb": "https://live.staticflickr.com/65535/50039015418_d5a7a41381_n.jpg",
    "id_album": "-1372247677",
    "description": "Cyberpunk_872307",
    "title": "Cyberpunk_872307",
    "link_img": "https://live.staticflickr.com/65535/50039015418_af7b16e04a_o.jpg",
    "id_image": "Cyberpunk_872307",
    "count_view": 0
  },
  {
    "link_thumb": "https://live.staticflickr.com/65535/50039171583_34aacbe682_n.jpg",
    "id_album": "1402713104",
    "description": "Landscape_906139",
    "title": "Landscape_906139",
    "link_img": "https://live.staticflickr.com/65535/50039171583_4c3a6c9d69_o.jpg",
    "id_image": "Landscape_906139",
    "count_view": 0
  },
  {
    "link_thumb": "https://live.staticflickr.com/65535/50039434676_7874f86231_n.jpg",
    "id_album": "-1964113117",
    "description": "City_145401",
    "title": "City_145401",
    "link_img": "https://live.staticflickr.com/65535/50039434676_e60e48be0f_o.jpg",
    "id_image": "City_145401",
    "count_view": 0
  },
  {
    "link_thumb": "https://live.staticflickr.com/65535/50039885228_8d381eb2c1_n.jpg",
    "id_album": "779690680",
    "description": "Robot_944761",
    "title": "Robot_944761",
    "link_img": "https://live.staticflickr.com/65535/50039885228_26d6978df8_o.jpg",
    "id_image": "Robot_944761",
    "count_view": 0
  },
  {
    "link_thumb": "https://live.staticflickr.com/65535/50039431521_4bd0e47844_n.jpg",
    "id_album": "-1964113117",
    "description": "City_103887",
    "title": "City_103887",
    "link_img": "https://live.staticflickr.com/65535/50039431521_77f311dd00_o.jpg",
    "id_image": "City_103887",
    "count_view": 0
  },
  {
    "link_thumb": "https://live.staticflickr.com/65535/50041725187_f704358b2a_n.jpg",
    "id_album": "-1261420436",
    "description": "Warrior_446492",
    "title": "Warrior_446492",
    "link_img": "https://live.staticflickr.com/65535/50041725187_25c6f5b00a_o.jpg",
    "id_image": "Warrior_446492",
    "count_view": 0
  },
  {
    "link_thumb": "https://live.staticflickr.com/65535/50038885388_e013fdd53e_n.jpg",
    "id_album": "-1964113117",
    "description": "City_145199",
    "title": "City_145199",
    "link_img": "https://live.staticflickr.com/65535/50038885388_8f56a2ab8d_o.jpg",
    "id_image": "City_145199",
    "count_view": 0
  },
  {
    "link_thumb": "https://live.staticflickr.com/65535/50039733351_70c32044d6_n.jpg",
    "id_album": "-1388385651",
    "description": "MilkyWay_555679",
    "title": "MilkyWay_555679",
    "link_img": "https://live.staticflickr.com/65535/50039733351_c7deceebc4_o.jpg",
    "id_image": "MilkyWay_555679",
    "count_view": 0
  },
  {
    "link_thumb": "https://live.staticflickr.com/65535/50039497947_6116e7ddd0_n.jpg",
    "id_album": "-406145265",
    "description": "Aircraft_269232",
    "title": "Aircraft_269232",
    "link_img": "https://live.staticflickr.com/65535/50039497947_10750e8705_o.jpg",
    "id_image": "Aircraft_269232",
    "count_view": 0
  },
  {
    "link_thumb": "https://live.staticflickr.com/65535/50039310958_1c77f5c3c5_n.jpg",
    "id_album": "-1862561193",
    "description": "Other_1304",
    "title": "Other_1304",
    "link_img": "https://live.staticflickr.com/65535/50039310958_814f2b0880_o.jpg",
    "id_image": "Other_1304",
    "count_view": 0
  },
  {
    "link_thumb": "https://live.staticflickr.com/65535/50041724472_e13e83775e_n.jpg",
    "id_album": "-1261420436",
    "description": "Warrior_430464",
    "title": "Warrior_430464",
    "link_img": "https://live.staticflickr.com/65535/50041724472_1d19a44ed1_o.jpg",
    "id_image": "Warrior_430464",
    "count_view": 0
  },
  {
    "link_thumb": "https://live.staticflickr.com/65535/50040595643_9b21035576_n.jpg",
    "id_album": "-1863373220",
    "description": "StarWars_235021",
    "title": "StarWars_235021",
    "link_img": "https://live.staticflickr.com/65535/50040595643_60b68b4786_o.jpg",
    "id_image": "StarWars_235021",
    "count_view": 0
  },
  {
    "link_thumb": "https://live.staticflickr.com/65535/50039287128_d5e4f3bb44_n.jpg",
    "id_album": "-1610342324",
    "description": "Nebula_785842",
    "title": "Nebula_785842",
    "link_img": "https://live.staticflickr.com/65535/50039287128_83cb6bf809_o.jpg",
    "id_image": "Nebula_785842",
    "count_view": 0
  },
  {
    "link_thumb": "https://live.staticflickr.com/65535/50040694388_6210433c1a_n.jpg",
    "id_album": "-1863373220",
    "description": "StarWars_980506",
    "title": "StarWars_980506",
    "link_img": "https://live.staticflickr.com/65535/50040694388_755d289289_o.jpg",
    "id_image": "StarWars_980506",
    "count_view": 0
  },
  {
    "link_thumb": "https://live.staticflickr.com/65535/50039264481_2d3e6d9a94_n.jpg",
    "id_album": "849020728",
    "description": "Alien_41597",
    "title": "Alien_41597",
    "link_img": "https://live.staticflickr.com/65535/50039264481_be2bfed6ca_o.jpg",
    "id_image": "Alien_41597",
    "count_view": 0
  },
  {
    "link_thumb": "https://live.staticflickr.com/65535/50040504382_6cf0537cf0_n.jpg",
    "id_album": "-839602625",
    "description": "Predator_321210",
    "title": "Predator_321210",
    "link_img": "https://live.staticflickr.com/65535/50040504382_cbc08bcc1a_o.jpg",
    "id_image": "Predator_321210",
    "count_view": 0
  },
  {
    "link_thumb": "https://live.staticflickr.com/65535/50040452252_536de4fb6c_n.jpg",
    "id_album": "-482547208",
    "description": "PostApocalyptic_1010160",
    "title": "PostApocalyptic_1010160",
    "link_img": "https://live.staticflickr.com/65535/50040452252_70c0b13824_o.jpg",
    "id_image": "PostApocalyptic_1010160",
    "count_view": 0
  },
  {
    "link_thumb": "https://live.staticflickr.com/65535/50039011638_1b34a7dd4e_n.jpg",
    "id_album": "-437872736",
    "description": "Creature_967850",
    "title": "Creature_967850",
    "link_img": "https://live.staticflickr.com/65535/50039011638_14695bba44_o.jpg",
    "id_image": "Creature_967850",
    "count_view": 0
  },
  {
    "link_thumb": "https://live.staticflickr.com/65535/50039722732_a40a11c783_n.jpg",
    "id_album": "-1964113117",
    "description": "City_298968",
    "title": "City_298968",
    "link_img": "https://live.staticflickr.com/65535/50039722732_6739214695_o.jpg",
    "id_image": "City_298968",
    "count_view": 0
  },
  {
    "link_thumb": "https://live.staticflickr.com/65535/50040815368_7e63465fac_n.jpg",
    "id_album": "-1177476763",
    "description": "Sunrise_857570",
    "title": "Sunrise_857570",
    "link_img": "https://live.staticflickr.com/65535/50040815368_5225a5f360_o.jpg",
    "id_image": "Sunrise_857570",
    "count_view": 0
  },
  {
    "link_thumb": "https://live.staticflickr.com/65535/50040290611_16bcd724d2_n.jpg",
    "id_album": "779690680",
    "description": "Robot_328255",
    "title": "Robot_328255",
    "link_img": "https://live.staticflickr.com/65535/50040290611_45e3fc58a2_o.jpg",
    "id_image": "Robot_328255",
    "count_view": 0
  },
  {
    "link_thumb": "https://live.staticflickr.com/65535/50039538571_4edf4fc523_n.jpg",
    "id_album": "894679094",
    "description": "Collision_286795",
    "title": "Collision_286795",
    "link_img": "https://live.staticflickr.com/65535/50039538571_a1bd482b33_o.jpg",
    "id_image": "Collision_286795",
    "count_view": 0
  },
  {
    "link_thumb": "https://live.staticflickr.com/65535/50039717938_9416c6cba5_n.jpg",
    "id_album": "779690680",
    "description": "Robot_249483",
    "title": "Robot_249483",
    "link_img": "https://live.staticflickr.com/65535/50039717938_d7b480b2d4_o.jpg",
    "id_image": "Robot_249483",
    "count_view": 0
  },
  {
    "link_thumb": "https://live.staticflickr.com/65535/50039687387_5618a75fc7_n.jpg",
    "id_album": "406431601",
    "description": "Building_871363",
    "title": "Building_871363",
    "link_img": "https://live.staticflickr.com/65535/50039687387_9506cf72be_o.jpg",
    "id_image": "Building_871363",
    "count_view": 0
  },
  {
    "link_thumb": "https://live.staticflickr.com/65535/50038934743_02eb740576_n.jpg",
    "id_album": "-1964113117",
    "description": "City_649182",
    "title": "City_649182",
    "link_img": "https://live.staticflickr.com/65535/50038934743_843ab563d2_o.jpg",
    "id_image": "City_649182",
    "count_view": 0
  },
  {
    "link_thumb": "https://live.staticflickr.com/65535/50039630566_f783454682_n.jpg",
    "id_album": "1204249541",
    "description": "Galaxy_30530",
    "title": "Galaxy_30530",
    "link_img": "https://live.staticflickr.com/65535/50039630566_6d6b8c87d2_o.jpg",
    "id_image": "Galaxy_30530",
    "count_view": 0
  },
  {
    "link_thumb": "https://live.staticflickr.com/65535/50039878998_7ae50c9485_n.jpg",
    "id_album": "779690680",
    "description": "Robot_937791",
    "title": "Robot_937791",
    "link_img": "https://live.staticflickr.com/65535/50039878998_e320fbf64d_o.jpg",
    "id_image": "Robot_937791",
    "count_view": 0
  },
  {
    "link_thumb": "https://live.staticflickr.com/65535/50039822786_a2d41b30d8_n.jpg",
    "id_album": "-1610342324",
    "description": "Nebula_687242",
    "title": "Nebula_687242",
    "link_img": "https://live.staticflickr.com/65535/50039822786_f5cf946704_o.jpg",
    "id_image": "Nebula_687242",
    "count_view": 0
  },
  {
    "link_thumb": "https://live.staticflickr.com/65535/50039692672_bf57dbaf6a_n.jpg",
    "id_album": "-1964113117",
    "description": "City_1005747",
    "title": "City_1005747",
    "link_img": "https://live.staticflickr.com/65535/50039692672_6db98fe4f9_o.jpg",
    "id_image": "City_1005747",
    "count_view": 0
  },
  {
    "link_thumb": "https://live.staticflickr.com/65535/50039549617_fe4f6a8960_n.jpg",
    "id_album": "-419633230",
    "description": "Apocalyptic_867435",
    "title": "Apocalyptic_867435",
    "link_img": "https://live.staticflickr.com/65535/50039549617_e67edb0d48_o.jpg",
    "id_image": "Apocalyptic_867435",
    "count_view": 0
  },
  {
    "link_thumb": "https://live.staticflickr.com/65535/50039287306_4f13052824_n.jpg",
    "id_album": "-419633230",
    "description": "Apocalyptic_728474",
    "title": "Apocalyptic_728474",
    "link_img": "https://live.staticflickr.com/65535/50039287306_62bcae0d77_o.jpg",
    "id_image": "Apocalyptic_728474",
    "count_view": 0
  },
  {
    "link_thumb": "https://live.staticflickr.com/65535/50039398448_9dfb79c23e_n.jpg",
    "id_album": "395161030",
    "description": "Planet_397572",
    "title": "Planet_397572",
    "link_img": "https://live.staticflickr.com/65535/50039398448_83c49d40c1_o.jpg",
    "id_image": "Planet_397572",
    "count_view": 0
  },
  {
    "link_thumb": "https://live.staticflickr.com/65535/50038841103_dec797d436_n.jpg",
    "id_album": "869545341",
    "description": "Astronaut_980244",
    "title": "Astronaut_980244",
    "link_img": "https://live.staticflickr.com/65535/50038841103_10acbedbc7_o.jpg",
    "id_image": "Astronaut_980244",
    "count_view": 0
  },
  {
    "link_thumb": "https://live.staticflickr.com/65535/50038827993_9f5bea2caa_n.jpg",
    "id_album": "869545341",
    "description": "Astronaut_888313",
    "title": "Astronaut_888313",
    "link_img": "https://live.staticflickr.com/65535/50038827993_6145767e51_o.jpg",
    "id_image": "Astronaut_888313",
    "count_view": 0
  },
  {
    "link_thumb": "https://live.staticflickr.com/65535/50039482246_2ecb721db4_n.jpg",
    "id_album": "-1964113117",
    "description": "City_631675",
    "title": "City_631675",
    "link_img": "https://live.staticflickr.com/65535/50039482246_035a518f4c_o.jpg",
    "id_image": "City_631675",
    "count_view": 0
  },
  {
    "link_thumb": "https://live.staticflickr.com/65535/50039888627_7e3894e8d6_n.jpg",
    "id_album": "1204249541",
    "description": "Galaxy_196122",
    "title": "Galaxy_196122",
    "link_img": "https://live.staticflickr.com/65535/50039888627_4820f5ce13_o.jpg",
    "id_image": "Galaxy_196122",
    "count_view": 0
  },
  {
    "link_thumb": "https://live.staticflickr.com/65535/50039599297_3dcd2f160a_n.jpg",
    "id_album": "523598895",
    "description": "Artistic_474379",
    "title": "Artistic_474379",
    "link_img": "https://live.staticflickr.com/65535/50039599297_cfbc932599_o.jpg",
    "id_image": "Artistic_474379",
    "count_view": 0
  },
  {
    "link_thumb": "https://live.staticflickr.com/65535/50040325082_8f058fa292_n.jpg",
    "id_album": "-1102314093",
    "description": "Planets_222333",
    "title": "Planets_222333",
    "link_img": "https://live.staticflickr.com/65535/50040325082_2563d53b63_o.jpg",
    "id_image": "Planets_222333",
    "count_view": 0
  },
  {
    "link_thumb": "https://live.staticflickr.com/65535/50040441806_1d3072103c_n.jpg",
    "id_album": "779690680",
    "description": "Robot_949793",
    "title": "Robot_949793",
    "link_img": "https://live.staticflickr.com/65535/50040441806_eba835940c_o.jpg",
    "id_image": "Robot_949793",
    "count_view": 0
  },
  {
    "link_thumb": "https://live.staticflickr.com/65535/50039504737_64a0b12285_n.jpg",
    "id_album": "-406145265",
    "description": "Aircraft_969699",
    "title": "Aircraft_969699",
    "link_img": "https://live.staticflickr.com/65535/50039504737_5370af2d52_o.jpg",
    "id_image": "Aircraft_969699",
    "count_view": 0
  },
  {
    "link_thumb": "https://live.staticflickr.com/65535/50040442596_9a60f16c18_n.jpg",
    "id_album": "779690680",
    "description": "Robot_949797",
    "title": "Robot_949797",
    "link_img": "https://live.staticflickr.com/65535/50040442596_2557fb0c85_o.jpg",
    "id_image": "Robot_949797",
    "count_view": 0
  },
  {
    "link_thumb": "https://live.staticflickr.com/65535/50040325867_75e9ff701f_n.jpg",
    "id_album": "-1102314093",
    "description": "Planets_232837",
    "title": "Planets_232837",
    "link_img": "https://live.staticflickr.com/65535/50040325867_9a71829854_o.jpg",
    "id_image": "Planets_232837",
    "count_view": 0
  },
  {
    "link_thumb": "https://live.staticflickr.com/65535/50038924853_19ceb0b08a_n.jpg",
    "id_album": "-1964113117",
    "description": "City_498283",
    "title": "City_498283",
    "link_img": "https://live.staticflickr.com/65535/50038924853_b2c7b2e46f_o.jpg",
    "id_image": "City_498283",
    "count_view": 0
  },
  {
    "link_thumb": "https://live.staticflickr.com/65535/50038900478_17de58b3dd_n.jpg",
    "id_album": "-1964113117",
    "description": "City_220572",
    "title": "City_220572",
    "link_img": "https://live.staticflickr.com/65535/50038900478_c510b96934_o.jpg",
    "id_image": "City_220572",
    "count_view": 0
  },
  {
    "link_thumb": "https://live.staticflickr.com/65535/50039240283_02f50ff7f2_n.jpg",
    "id_album": "-1610342324",
    "description": "Nebula_383694",
    "title": "Nebula_383694",
    "link_img": "https://live.staticflickr.com/65535/50039240283_374d3b14b1_o.jpg",
    "id_image": "Nebula_383694",
    "count_view": 0
  },
  {
    "link_thumb": "https://live.staticflickr.com/65535/50039085388_a184271118_n.jpg",
    "id_album": "1204249541",
    "description": "Galaxy_441050",
    "title": "Galaxy_441050",
    "link_img": "https://live.staticflickr.com/65535/50039085388_2882b4f43c_o.jpg",
    "id_image": "Galaxy_441050",
    "count_view": 0
  },
  {
    "link_thumb": "https://live.staticflickr.com/65535/50039998038_8056f4359e_n.jpg",
    "id_album": "1613540653",
    "description": "Space_940079",
    "title": "Space_940079",
    "link_img": "https://live.staticflickr.com/65535/50039998038_5e1f05241f_o.jpg",
    "id_image": "Space_940079",
    "count_view": 0
  },
  {
    "link_thumb": "https://live.staticflickr.com/65535/50039364861_71cb004e4b_n.jpg",
    "id_album": "869545341",
    "description": "Astronaut_720121",
    "title": "Astronaut_720121",
    "link_img": "https://live.staticflickr.com/65535/50039364861_71ba57c24c_o.jpg",
    "id_image": "Astronaut_720121",
    "count_view": 0
  },
  {
    "link_thumb": "https://live.staticflickr.com/65535/50039895387_f2628db708_n.jpg",
    "id_album": "1204249541",
    "description": "Galaxy_400642",
    "title": "Galaxy_400642",
    "link_img": "https://live.staticflickr.com/65535/50039895387_352f9a9aa0_o.jpg",
    "id_image": "Galaxy_400642",
    "count_view": 0
  },
  {
    "link_thumb": "https://live.staticflickr.com/65535/50040327887_367a68787f_n.jpg",
    "id_album": "-1102314093",
    "description": "Planets_242673",
    "title": "Planets_242673",
    "link_img": "https://live.staticflickr.com/65535/50040327887_3640b3ddeb_o.jpg",
    "id_image": "Planets_242673",
    "count_view": 0
  },
  {
    "link_thumb": "https://live.staticflickr.com/65535/50040865273_742989e5ac_n.jpg",
    "id_album": "2020068132",
    "description": "Vehicle_902916",
    "title": "Vehicle_902916",
    "link_img": "https://live.staticflickr.com/65535/50040865273_2804b430e1_o.jpg",
    "id_image": "Vehicle_902916",
    "count_view": 0
  },
  {
    "link_thumb": "https://live.staticflickr.com/65535/50039772466_0a396e6944_n.jpg",
    "id_album": "-1610342324",
    "description": "Nebula_221006",
    "title": "Nebula_221006",
    "link_img": "https://live.staticflickr.com/65535/50039772466_8d7d15ec75_o.jpg",
    "id_image": "Nebula_221006",
    "count_view": 0
  },
  {
    "link_thumb": "https://live.staticflickr.com/65535/50039243841_295484508c_n.jpg",
    "id_album": "849020728",
    "description": "Alien_108189",
    "title": "Alien_108189",
    "link_img": "https://live.staticflickr.com/65535/50039243841_6c1cb2b5a1_o.jpg",
    "id_image": "Alien_108189",
    "count_view": 0
  },
  {
    "link_thumb": "https://live.staticflickr.com/65535/50040089096_cc2de463a6_n.jpg",
    "id_album": "-1102314093",
    "description": "Planets_346529",
    "title": "Planets_346529",
    "link_img": "https://live.staticflickr.com/65535/50040089096_77848d2598_o.jpg",
    "id_image": "Planets_346529",
    "count_view": 0
  },
  {
    "link_thumb": "https://live.staticflickr.com/65535/50039988887_942389e290_n.jpg",
    "id_album": "1402713104",
    "description": "Landscape_935869",
    "title": "Landscape_935869",
    "link_img": "https://live.staticflickr.com/65535/50039988887_e2f3ba5910_o.jpg",
    "id_image": "Landscape_935869",
    "count_view": 0
  },
  {
    "link_thumb": "https://live.staticflickr.com/65535/50040433231_5bc9d860b0_n.jpg",
    "id_album": "779690680",
    "description": "Robot_936228",
    "title": "Robot_936228",
    "link_img": "https://live.staticflickr.com/65535/50040433231_d2b0590345_o.jpg",
    "id_image": "Robot_936228",
    "count_view": 0
  },
  {
    "link_thumb": "https://live.staticflickr.com/65535/50039760901_09d8dc15a3_n.jpg",
    "id_album": "-1610342324",
    "description": "Nebula_104406",
    "title": "Nebula_104406",
    "link_img": "https://live.staticflickr.com/65535/50039760901_b5e07cc007_o.jpg",
    "id_image": "Nebula_104406",
    "count_view": 0
  },
  {
    "link_thumb": "https://live.staticflickr.com/65535/50041591052_b11fe5ccf5_n.jpg",
    "id_album": "1267121215",
    "description": "Steampunk_762015",
    "title": "Steampunk_762015",
    "link_img": "https://live.staticflickr.com/65535/50041591052_5c25b4e5bf_o.jpg",
    "id_image": "Steampunk_762015",
    "count_view": 0
  },
  {
    "link_thumb": "https://live.staticflickr.com/65535/50040209712_c0e092e163_n.jpg",
    "id_album": "395161030",
    "description": "Planet_382442",
    "title": "Planet_382442",
    "link_img": "https://live.staticflickr.com/65535/50040209712_dc7fd12755_o.jpg",
    "id_image": "Planet_382442",
    "count_view": 0
  },
  {
    "link_thumb": "https://live.staticflickr.com/65535/50039145573_da6f6d7c46_n.jpg",
    "id_album": "1402713104",
    "description": "Landscape_559164",
    "title": "Landscape_559164",
    "link_img": "https://live.staticflickr.com/65535/50039145573_a4e8912a56_o.jpg",
    "id_image": "Landscape_559164",
    "count_view": 0
  },
  {
    "link_thumb": "https://live.staticflickr.com/65535/50039777302_a6efaf5222_n.jpg",
    "id_album": "-1964113117",
    "description": "City_898604",
    "title": "City_898604",
    "link_img": "https://live.staticflickr.com/65535/50039777302_6f1dfa2b3a_o.jpg",
    "id_image": "City_898604",
    "count_view": 0
  },
  {
    "link_thumb": "https://live.staticflickr.com/65535/50040184888_2e3b3371bb_n.jpg",
    "id_album": "2130067313",
    "description": "Spaceship_700686",
    "title": "Spaceship_700686",
    "link_img": "https://live.staticflickr.com/65535/50040184888_9b57ccbd51_o.jpg",
    "id_image": "Spaceship_700686",
    "count_view": 0
  },
  {
    "link_thumb": "https://live.staticflickr.com/65535/50039847583_f7ff5d60eb_n.jpg",
    "id_album": "779690680",
    "description": "Robot_902757",
    "title": "Robot_902757",
    "link_img": "https://live.staticflickr.com/65535/50039847583_3812b850fe_o.jpg",
    "id_image": "Robot_902757",
    "count_view": 0
  },
  {
    "link_thumb": "https://live.staticflickr.com/65535/50039641278_38554aeb1c_n.jpg",
    "id_album": "-482547208",
    "description": "PostApocalyptic_17680",
    "title": "PostApocalyptic_17680",
    "link_img": "https://live.staticflickr.com/65535/50039641278_944245bc1e_o.jpg",
    "id_image": "PostApocalyptic_17680",
    "count_view": 0
  },
  {
    "link_thumb": "https://live.staticflickr.com/65535/50039765346_3d4a0d7a09_n.jpg",
    "id_album": "-1610342324",
    "description": "Nebula_179723",
    "title": "Nebula_179723",
    "link_img": "https://live.staticflickr.com/65535/50039765346_02eb265f58_o.jpg",
    "id_image": "Nebula_179723",
    "count_view": 0
  },
  {
    "link_thumb": "https://live.staticflickr.com/65535/50040812583_902348c3d1_n.jpg",
    "id_album": "-1177476763",
    "description": "Sunrise_464557",
    "title": "Sunrise_464557",
    "link_img": "https://live.staticflickr.com/65535/50040812583_dca425bf30_o.jpg",
    "id_image": "Sunrise_464557",
    "count_view": 0
  },
  {
    "link_thumb": "https://live.staticflickr.com/65535/50039807081_1fb4da4527_n.jpg",
    "id_album": "-1610342324",
    "description": "Nebula_548311",
    "title": "Nebula_548311",
    "link_img": "https://live.staticflickr.com/65535/50039807081_d28e460ffd_o.jpg",
    "id_image": "Nebula_548311",
    "count_view": 0
  },
  {
    "link_thumb": "https://live.staticflickr.com/65535/50039331466_1a58c6cb90_n.jpg",
    "id_album": "523598895",
    "description": "Artistic_354521",
    "title": "Artistic_354521",
    "link_img": "https://live.staticflickr.com/65535/50039331466_36dbaaafb1_o.jpg",
    "id_image": "Artistic_354521",
    "count_view": 0
  },
  {
    "link_thumb": "https://live.staticflickr.com/65535/50040978667_680b883002_n.jpg",
    "id_album": "2130067313",
    "description": "Spaceship_553251",
    "title": "Spaceship_553251",
    "link_img": "https://live.staticflickr.com/65535/50040978667_468b34a63b_o.jpg",
    "id_image": "Spaceship_553251",
    "count_view": 0
  },
  {
    "link_thumb": "https://live.staticflickr.com/65535/50041724567_4b5f1ec52b_n.jpg",
    "id_album": "-1261420436",
    "description": "Warrior_439154",
    "title": "Warrior_439154",
    "link_img": "https://live.staticflickr.com/65535/50041724567_d4186eaeb7_o.jpg",
    "id_image": "Warrior_439154",
    "count_view": 0
  },
  {
    "link_thumb": "https://live.staticflickr.com/65535/50038965323_cbf454b1ef_n.jpg",
    "id_album": "-1964113117",
    "description": "City_890621",
    "title": "City_890621",
    "link_img": "https://live.staticflickr.com/65535/50038965323_280b38ed28_o.jpg",
    "id_image": "City_890621",
    "count_view": 0
  },
  {
    "link_thumb": "https://live.staticflickr.com/65535/50039433338_f97d1d2b2f_n.jpg",
    "id_album": "395161030",
    "description": "Planet_920764",
    "title": "Planet_920764",
    "link_img": "https://live.staticflickr.com/65535/50039433338_357a90b9e7_o.jpg",
    "id_image": "Planet_920764",
    "count_view": 0
  },
  {
    "link_thumb": "https://live.staticflickr.com/65535/50039737386_0338bf630d_n.jpg",
    "id_album": "-1388385651",
    "description": "MilkyWay_657343",
    "title": "MilkyWay_657343",
    "link_img": "https://live.staticflickr.com/65535/50039737386_424da3b5d6_o.jpg",
    "id_image": "MilkyWay_657343",
    "count_view": 0
  },
  {
    "link_thumb": "https://live.staticflickr.com/65535/50039281251_2715e69def_n.jpg",
    "id_album": "-419633230",
    "description": "Apocalyptic_283702",
    "title": "Apocalyptic_283702",
    "link_img": "https://live.staticflickr.com/65535/50039281251_cc905eae01_o.jpg",
    "id_image": "Apocalyptic_283702",
    "count_view": 0
  },
  {
    "link_thumb": "https://live.staticflickr.com/65535/50040233336_bec2aba565_n.jpg",
    "id_album": "-482547208",
    "description": "PostApocalyptic_954006",
    "title": "PostApocalyptic_954006",
    "link_img": "https://live.staticflickr.com/65535/50040233336_792af9fd23_o.jpg",
    "id_image": "PostApocalyptic_954006",
    "count_view": 0
  },
  {
    "link_thumb": "https://live.staticflickr.com/65535/50039687548_e4ddc203c8_n.jpg",
    "id_album": "-839602625",
    "description": "Predator_323988",
    "title": "Predator_323988",
    "link_img": "https://live.staticflickr.com/65535/50039687548_fb588cb08e_o.jpg",
    "id_image": "Predator_323988",
    "count_view": 0
  },
  {
    "link_thumb": "https://live.staticflickr.com/65535/50039688508_ca697ff529_n.jpg",
    "id_album": "-839602625",
    "description": "Predator_342964",
    "title": "Predator_342964",
    "link_img": "https://live.staticflickr.com/65535/50039688508_eb247d74cd_o.jpg",
    "id_image": "Predator_342964",
    "count_view": 0
  },
  {
    "link_thumb": "https://live.staticflickr.com/65535/50039356261_5b5c5b6fc0_n.jpg",
    "id_album": "869545341",
    "description": "Astronaut_526374",
    "title": "Astronaut_526374",
    "link_img": "https://live.staticflickr.com/65535/50039356261_dfdfe309e4_o.jpg",
    "id_image": "Astronaut_526374",
    "count_view": 0
  },
  {
    "link_thumb": "https://live.staticflickr.com/65535/50039840517_6ce30fe07c_n.jpg",
    "id_album": "829169633",
    "description": "Cyborg_170034",
    "title": "Cyborg_170034",
    "link_img": "https://live.staticflickr.com/65535/50039840517_8e81f13b3a_o.jpg",
    "id_image": "Cyborg_170034",
    "count_view": 0
  },
  {
    "link_thumb": "https://live.staticflickr.com/65535/50039894793_0f4c06a501_n.jpg",
    "id_album": "779690680",
    "description": "Robot_959318",
    "title": "Robot_959318",
    "link_img": "https://live.staticflickr.com/65535/50039894793_d1e579d2cd_o.jpg",
    "id_image": "Robot_959318",
    "count_view": 0
  },
  {
    "link_thumb": "https://live.staticflickr.com/65535/50040257717_45f6601cae_n.jpg",
    "id_album": "395161030",
    "description": "Planet_996487",
    "title": "Planet_996487",
    "link_img": "https://live.staticflickr.com/65535/50040257717_2038a61716_o.jpg",
    "id_image": "Planet_996487",
    "count_view": 0
  },
  {
    "link_thumb": "https://live.staticflickr.com/65535/50039846823_b0ff9bd13a_n.jpg",
    "id_album": "779690680",
    "description": "Robot_901627",
    "title": "Robot_901627",
    "link_img": "https://live.staticflickr.com/65535/50039846823_563937f894_o.jpg",
    "id_image": "Robot_901627",
    "count_view": 0
  },
  {
    "link_thumb": "https://live.staticflickr.com/65535/50040198482_c4c67b6f6f_n.jpg",
    "id_album": "395161030",
    "description": "Planet_350098",
    "title": "Planet_350098",
    "link_img": "https://live.staticflickr.com/65535/50040198482_32dc173a6f_o.jpg",
    "id_image": "Planet_350098",
    "count_view": 0
  },
  {
    "link_thumb": "https://live.staticflickr.com/65535/50040246336_5b475a8f53_n.jpg",
    "id_album": "-839602625",
    "description": "Predator_665921",
    "title": "Predator_665921",
    "link_img": "https://live.staticflickr.com/65535/50040246336_5d9e83f850_o.jpg",
    "id_image": "Predator_665921",
    "count_view": 0
  },
  {
    "link_thumb": "https://live.staticflickr.com/65535/50040115831_3ffc6895e1_n.jpg",
    "id_album": "-1102314093",
    "description": "Planets_439169",
    "title": "Planets_439169",
    "link_img": "https://live.staticflickr.com/65535/50040115831_11b882951d_o.jpg",
    "id_image": "Planets_439169",
    "count_view": 0
  },
  {
    "link_thumb": "https://live.staticflickr.com/65535/50039432101_a0c98daed4_n.jpg",
    "id_album": "-1964113117",
    "description": "City_106212",
    "title": "City_106212",
    "link_img": "https://live.staticflickr.com/65535/50039432101_1aceaf61d7_o.jpg",
    "id_image": "City_106212",
    "count_view": 0
  },
  {
    "link_thumb": "https://live.staticflickr.com/65535/50039171473_1b7a2f843e_n.jpg",
    "id_album": "1402713104",
    "description": "Landscape_906137",
    "title": "Landscape_906137",
    "link_img": "https://live.staticflickr.com/65535/50039171473_795d1a99e0_o.jpg",
    "id_image": "Landscape_906137",
    "count_view": 0
  },
  {
    "link_thumb": "https://live.staticflickr.com/65535/50039633796_af539bcf27_n.jpg",
    "id_album": "1204249541",
    "description": "Galaxy_427241",
    "title": "Galaxy_427241",
    "link_img": "https://live.staticflickr.com/65535/50039633796_8ace2040d6_o.jpg",
    "id_image": "Galaxy_427241",
    "count_view": 0
  },
  {
    "link_thumb": "https://live.staticflickr.com/65535/50040392686_314e5f47f9_n.jpg",
    "id_album": "779690680",
    "description": "Robot_884812",
    "title": "Robot_884812",
    "link_img": "https://live.staticflickr.com/65535/50040392686_6ecd77b7a0_o.jpg",
    "id_image": "Robot_884812",
    "count_view": 0
  },
  {
    "link_thumb": "https://live.staticflickr.com/65535/50040694203_32e9e48062_n.jpg",
    "id_album": "-1863373220",
    "description": "StarWars_980502",
    "title": "StarWars_980502",
    "link_img": "https://live.staticflickr.com/65535/50040694203_f3453b2d1c_o.jpg",
    "id_image": "StarWars_980502",
    "count_view": 0
  },
  {
    "link_thumb": "https://live.staticflickr.com/65535/50040265906_aeee3252f2_n.jpg",
    "id_album": "779690680",
    "description": "Robot_217185",
    "title": "Robot_217185",
    "link_img": "https://live.staticflickr.com/65535/50040265906_740b924553_o.jpg",
    "id_image": "Robot_217185",
    "count_view": 0
  },
  {
    "link_thumb": "https://live.staticflickr.com/65535/50040753187_906bb131bf_n.jpg",
    "id_album": "1613540653",
    "description": "Space_287067",
    "title": "Space_287067",
    "link_img": "https://live.staticflickr.com/65535/50040753187_7ebbd6e1b3_o.jpg",
    "id_image": "Space_287067",
    "count_view": 0
  },
  {
    "link_thumb": "https://live.staticflickr.com/65535/50039646813_0a42f50b96_n.jpg",
    "id_album": "-482547208",
    "description": "PostApocalyptic_237054",
    "title": "PostApocalyptic_237054",
    "link_img": "https://live.staticflickr.com/65535/50039646813_e28939975b_o.jpg",
    "id_image": "PostApocalyptic_237054",
    "count_view": 0
  },
  {
    "link_thumb": "https://live.staticflickr.com/65535/50040981523_c6703e20b7_n.jpg",
    "id_album": "-1126835654",
    "description": "Women_545307",
    "title": "Women_545307",
    "link_img": "https://live.staticflickr.com/65535/50040981523_a2d3a50b47_o.jpg",
    "id_image": "Women_545307",
    "count_view": 0
  },
  {
    "link_thumb": "https://live.staticflickr.com/65535/50038891683_67db6f16f3_n.jpg",
    "id_album": "-1964113117",
    "description": "City_187729",
    "title": "City_187729",
    "link_img": "https://live.staticflickr.com/65535/50038891683_52d189aeed_o.jpg",
    "id_image": "City_187729",
    "count_view": 0
  },
  {
    "link_thumb": "https://live.staticflickr.com/65535/50040975572_c3133cb669_n.jpg",
    "id_album": "2130067313",
    "description": "Spaceship_533750",
    "title": "Spaceship_533750",
    "link_img": "https://live.staticflickr.com/65535/50040975572_49432cf740_o.jpg",
    "id_image": "Spaceship_533750",
    "count_view": 0
  },
  {
    "link_thumb": "https://live.staticflickr.com/65535/50041221691_b92bb05451_n.jpg",
    "id_album": "-1863373220",
    "description": "StarWars_76383",
    "title": "StarWars_76383",
    "link_img": "https://live.staticflickr.com/65535/50041221691_6d0be3ec2d_o.jpg",
    "id_image": "StarWars_76383",
    "count_view": 0
  },
  {
    "link_thumb": "https://live.staticflickr.com/65535/50039742617_28fbe87e3e_n.jpg",
    "id_album": "-1964113117",
    "description": "City_588964",
    "title": "City_588964",
    "link_img": "https://live.staticflickr.com/65535/50039742617_db435993ae_o.jpg",
    "id_image": "City_588964",
    "count_view": 0
  },
  {
    "link_thumb": "https://live.staticflickr.com/65535/50039183448_bd47fd7b79_n.jpg",
    "id_album": "-1388385651",
    "description": "MilkyWay_550926",
    "title": "MilkyWay_550926",
    "link_img": "https://live.staticflickr.com/65535/50039183448_4bc8ed835e_o.jpg",
    "id_image": "MilkyWay_550926",
    "count_view": 0
  },
  {
    "link_thumb": "https://live.staticflickr.com/65535/50039703168_05333d16ba_n.jpg",
    "id_album": "779690680",
    "description": "Robot_153445",
    "title": "Robot_153445",
    "link_img": "https://live.staticflickr.com/65535/50039703168_1a309fcf98_o.jpg",
    "id_image": "Robot_153445",
    "count_view": 0
  },
  {
    "link_thumb": "https://live.staticflickr.com/65535/50040986287_a74fdc1878_n.jpg",
    "id_album": "2130067313",
    "description": "Spaceship_605718",
    "title": "Spaceship_605718",
    "link_img": "https://live.staticflickr.com/65535/50040986287_437cc31167_o.jpg",
    "id_image": "Spaceship_605718",
    "count_view": 0
  },
  {
    "link_thumb": "https://live.staticflickr.com/65535/50039885988_64343aa07e_n.jpg",
    "id_album": "779690680",
    "description": "Robot_949786",
    "title": "Robot_949786",
    "link_img": "https://live.staticflickr.com/65535/50039885988_76b6ddaa08_o.jpg",
    "id_image": "Robot_949786",
    "count_view": 0
  },
  {
    "link_thumb": "https://live.staticflickr.com/65535/50041491691_4e3ae1a524_n.jpg",
    "id_album": "-1261420436",
    "description": "Warrior_891761",
    "title": "Warrior_891761",
    "link_img": "https://live.staticflickr.com/65535/50041491691_ba578ed29d_o.jpg",
    "id_image": "Warrior_891761",
    "count_view": 0
  },
  {
    "link_thumb": "https://live.staticflickr.com/65535/50039805657_7815d4268e_n.jpg",
    "id_album": "894679094",
    "description": "Collision_78653",
    "title": "Collision_78653",
    "link_img": "https://live.staticflickr.com/65535/50039805657_733b6692b3_o.jpg",
    "id_image": "Collision_78653",
    "count_view": 0
  },
  {
    "link_thumb": "https://live.staticflickr.com/65535/50039572367_61048e771b_n.jpg",
    "id_album": "523598895",
    "description": "Artistic_196781",
    "title": "Artistic_196781",
    "link_img": "https://live.staticflickr.com/65535/50039572367_49c63bf868_o.jpg",
    "id_image": "Artistic_196781",
    "count_view": 0
  },
  {
    "link_thumb": "https://live.staticflickr.com/65535/50040337337_53b542b1e2_n.jpg",
    "id_album": "-1102314093",
    "description": "Planets_285582",
    "title": "Planets_285582",
    "link_img": "https://live.staticflickr.com/65535/50040337337_5902ee44ae_o.jpg",
    "id_image": "Planets_285582",
    "count_view": 0
  },
  {
    "link_thumb": "https://live.staticflickr.com/65535/50039550082_479b552b2a_n.jpg",
    "id_album": "-419633230",
    "description": "Apocalyptic_957340",
    "title": "Apocalyptic_957340",
    "link_img": "https://live.staticflickr.com/65535/50039550082_48929cab07_o.jpg",
    "id_image": "Apocalyptic_957340",
    "count_view": 0
  },
  {
    "link_thumb": "https://live.staticflickr.com/65535/50040529007_90ec0874ed_n.jpg",
    "id_album": "779690680",
    "description": "Robot_20567",
    "title": "Robot_20567",
    "link_img": "https://live.staticflickr.com/65535/50040529007_d413658751_o.jpg",
    "id_image": "Robot_20567",
    "count_view": 0
  },
  {
    "link_thumb": "https://live.staticflickr.com/65535/50039585026_c8aca55966_n.jpg",
    "id_album": "829169633",
    "description": "Cyborg_291088",
    "title": "Cyborg_291088",
    "link_img": "https://live.staticflickr.com/65535/50039585026_544b35289f_o.jpg",
    "id_image": "Cyborg_291088",
    "count_view": 0
  },
  {
    "link_thumb": "https://live.staticflickr.com/65535/50039764767_9ff6029ef4_n.jpg",
    "id_album": "-1964113117",
    "description": "City_857253",
    "title": "City_857253",
    "link_img": "https://live.staticflickr.com/65535/50039764767_1b774d7ee1_o.jpg",
    "id_image": "City_857253",
    "count_view": 0
  },
  {
    "link_thumb": "https://live.staticflickr.com/65535/50040674597_2f4cefcbc1_n.jpg",
    "id_album": "779690680",
    "description": "Robot_913019",
    "title": "Robot_913019",
    "link_img": "https://live.staticflickr.com/65535/50040674597_e280920ee0_o.jpg",
    "id_image": "Robot_913019",
    "count_view": 0
  },
  {
    "link_thumb": "https://live.staticflickr.com/65535/50038766553_64c40596e8_n.jpg",
    "id_album": "523598895",
    "description": "Artistic_211262",
    "title": "Artistic_211262",
    "link_img": "https://live.staticflickr.com/65535/50038766553_3aeb323b78_o.jpg",
    "id_image": "Artistic_211262",
    "count_view": 0
  },
  {
    "link_thumb": "https://live.staticflickr.com/65535/50040677787_e4c2c7b5d5_n.jpg",
    "id_album": "779690680",
    "description": "Robot_915578",
    "title": "Robot_915578",
    "link_img": "https://live.staticflickr.com/65535/50040677787_4ae7a6eb2e_o.jpg",
    "id_image": "Robot_915578",
    "count_view": 0
  },
  {
    "link_thumb": "https://live.staticflickr.com/65535/50038697633_b237584ebe_n.jpg",
    "id_album": "849020728",
    "description": "Alien_118769",
    "title": "Alien_118769",
    "link_img": "https://live.staticflickr.com/65535/50038697633_cd7e19cb62_o.jpg",
    "id_image": "Alien_118769",
    "count_view": 0
  },
  {
    "link_thumb": "https://live.staticflickr.com/65535/50041718477_98d2279614_n.jpg",
    "id_album": "-1261420436",
    "description": "Warrior_386973",
    "title": "Warrior_386973",
    "link_img": "https://live.staticflickr.com/65535/50041718477_9f3a1fc707_o.jpg",
    "id_image": "Warrior_386973",
    "count_view": 0
  },
  {
    "link_thumb": "https://live.staticflickr.com/65535/50040641433_9cda19fc71_n.jpg",
    "id_album": "-1863373220",
    "description": "StarWars_582380",
    "title": "StarWars_582380",
    "link_img": "https://live.staticflickr.com/65535/50040641433_da0ea79af5_o.jpg",
    "id_image": "StarWars_582380",
    "count_view": 0
  },
  {
    "link_thumb": "https://live.staticflickr.com/65535/50039959752_05af802ce6_n.jpg",
    "id_album": "1402713104",
    "description": "Landscape_6391",
    "title": "Landscape_6391",
    "link_img": "https://live.staticflickr.com/65535/50039959752_f7daae072a_o.jpg",
    "id_image": "Landscape_6391",
    "count_view": 0
  },
  {
    "link_thumb": "https://live.staticflickr.com/65535/50039125068_0ea5fe407e_n.jpg",
    "id_album": "1402713104",
    "description": "Landscape_310678",
    "title": "Landscape_310678",
    "link_img": "https://live.staticflickr.com/65535/50039125068_33b5f347a1_o.jpg",
    "id_image": "Landscape_310678",
    "count_view": 0
  },
  {
    "link_thumb": "https://live.staticflickr.com/65535/50040266778_028c6762ce_n.jpg",
    "id_album": "-1449720967",
    "description": "StarTrek_280876",
    "title": "StarTrek_280876",
    "link_img": "https://live.staticflickr.com/65535/50040266778_61bbec95d5_o.jpg",
    "id_image": "StarTrek_280876",
    "count_view": 0
  },
  {
    "link_thumb": "https://live.staticflickr.com/65535/50041335116_705bfcbb90_n.jpg",
    "id_album": "1267121215",
    "description": "Steampunk_912945",
    "title": "Steampunk_912945",
    "link_img": "https://live.staticflickr.com/65535/50041335116_ed47f33081_o.jpg",
    "id_image": "Steampunk_912945",
    "count_view": 0
  },
  {
    "link_thumb": "https://live.staticflickr.com/65535/50039771066_f580bbb28b_n.jpg",
    "id_album": "-1610342324",
    "description": "Nebula_216560",
    "title": "Nebula_216560",
    "link_img": "https://live.staticflickr.com/65535/50039771066_930396b3fa_o.jpg",
    "id_image": "Nebula_216560",
    "count_view": 0
  }
]