[
  {
    "link_thumb": "https://live.staticflickr.com/65535/50040638362_31351a3378_n.jpg",
    "id_album": "779690680",
    "description": "Robot_857285",
    "title": "Robot_857285",
    "link_img": "https://live.staticflickr.com/65535/50040638362_3503092af9_o.jpg",
    "id_image": "Robot_857285",
    "count_view": 0
  },
  {
    "link_thumb": "https://live.staticflickr.com/65535/50038746058_9c6b474123_n.jpg",
    "id_album": "523598895",
    "description": "Artistic_115150",
    "title": "Artistic_115150",
    "link_img": "https://live.staticflickr.com/65535/50038746058_3209216a41_o.jpg",
    "id_image": "Artistic_115150",
    "count_view": 0
  },
  {
    "link_thumb": "https://live.staticflickr.com/65535/50039847743_2a746f4090_n.jpg",
    "id_album": "779690680",
    "description": "Robot_902766",
    "title": "Robot_902766",
    "link_img": "https://live.staticflickr.com/65535/50039847743_51c54475a6_o.jpg",
    "id_image": "Robot_902766",
    "count_view": 0
  },
  {
    "link_thumb": "https://live.staticflickr.com/65535/50040477961_581a53ba86_n.jpg",
    "id_album": "1613540653",
    "description": "Space_196372",
    "title": "Space_196372",
    "link_img": "https://live.staticflickr.com/65535/50040477961_f2b0dff19f_o.jpg",
    "id_image": "Space_196372",
    "count_view": 0
  },
  {
    "link_thumb": "https://live.staticflickr.com/65535/50039305461_62da245ab9_n.jpg",
    "id_album": "523598895",
    "description": "Artistic_179637",
    "title": "Artistic_179637",
    "link_img": "https://live.staticflickr.com/65535/50039305461_269aa6c6cd_o.jpg",
    "id_image": "Artistic_179637",
    "count_view": 0
  },
  {
    "link_thumb": "https://live.staticflickr.com/65535/50040622793_d6af99f05d_n.jpg",
    "id_album": "-1863373220",
    "description": "StarWars_398455",
    "title": "StarWars_398455",
    "link_img": "https://live.staticflickr.com/65535/50040622793_42b74e4bf3_o.jpg",
    "id_image": "StarWars_398455",
    "count_view": 0
  },
  {
    "link_thumb": "https://live.staticflickr.com/65535/50039633543_dc94140a5b_n.jpg",
    "id_album": "376235057",
    "description": "Planetscape_957403",
    "title": "Planetscape_957403",
    "link_img": "https://live.staticflickr.com/65535/50039633543_b4b988f204_o.jpg",
    "id_image": "Planetscape_957403",
    "count_view": 0
  },
  {
    "link_thumb": "https://live.staticflickr.com/65535/50041410742_94bdd69f48_n.jpg",
    "id_album": "-1863373220",
    "description": "StarWars_234667",
    "title": "StarWars_234667",
    "link_img": "https://live.staticflickr.com/65535/50041410742_01a90b1679_o.jpg",
    "id_image": "StarWars_234667",
    "count_view": 0
  },
  {
    "link_thumb": "https://live.staticflickr.com/65535/50039841298_eb2ebd2254_n.jpg",
    "id_album": "779690680",
    "description": "Robot_886635",
    "title": "Robot_886635",
    "link_img": "https://live.staticflickr.com/65535/50039841298_32e33be649_o.jpg",
    "id_image": "Robot_886635",
    "count_view": 0
  },
  {
    "link_thumb": "https://live.staticflickr.com/65535/50040475606_98e166a5a7_n.jpg",
    "id_album": "1613540653",
    "description": "Space_187620",
    "title": "Space_187620",
    "link_img": "https://live.staticflickr.com/65535/50040475606_9bc82b6c76_o.jpg",
    "id_image": "Space_187620",
    "count_view": 0
  },
  {
    "link_thumb": "https://live.staticflickr.com/65535/50041687137_4ca9be2055_n.jpg",
    "id_album": "2020068132",
    "description": "Vehicle_959156",
    "title": "Vehicle_959156",
    "link_img": "https://live.staticflickr.com/65535/50041687137_662ab85afd_o.jpg",
    "id_image": "Vehicle_959156",
    "count_view": 0
  },
  {
    "link_thumb": "https://live.staticflickr.com/65535/50041337956_70af0d0485_n.jpg",
    "id_album": "-221671103",
    "description": "Sun_106487",
    "title": "Sun_106487",
    "link_img": "https://live.staticflickr.com/65535/50041337956_eb1a541b99_o.jpg",
    "id_image": "Sun_106487",
    "count_view": 0
  },
  {
    "link_thumb": "https://live.staticflickr.com/65535/50040734627_ef99d0d673_n.jpg",
    "id_album": "1613540653",
    "description": "Space_152721",
    "title": "Space_152721",
    "link_img": "https://live.staticflickr.com/65535/50040734627_b86f5c4655_o.jpg",
    "id_image": "Space_152721",
    "count_view": 0
  },
  {
    "link_thumb": "https://live.staticflickr.com/65535/50041245706_12f7858be4_n.jpg",
    "id_album": "-1863373220",
    "description": "StarWars_965772",
    "title": "StarWars_965772",
    "link_img": "https://live.staticflickr.com/65535/50041245706_c6d299dc19_o.jpg",
    "id_image": "StarWars_965772",
    "count_view": 0
  },
  {
    "link_thumb": "https://live.staticflickr.com/65535/50041851862_c00a68e778_n.jpg",
    "id_album": "-1675918237",
    "description": "WomenWarrior_921471",
    "title": "WomenWarrior_921471",
    "link_img": "https://live.staticflickr.com/65535/50041851862_cfc6e4f113_o.jpg",
    "id_image": "WomenWarrior_921471",
    "count_view": 0
  },
  {
    "link_thumb": "https://live.staticflickr.com/65535/50039661526_f2f08a4e81_n.jpg",
    "id_album": "1402713104",
    "description": "Landscape_163727",
    "title": "Landscape_163727",
    "link_img": "https://live.staticflickr.com/65535/50039661526_8f50f206e1_o.jpg",
    "id_image": "Landscape_163727",
    "count_view": 0
  },
  {
    "link_thumb": "https://live.staticflickr.com/65535/50039998771_7b37b4b555_n.jpg",
    "id_album": "1443611160",
    "description": "PlanetRise_249342",
    "title": "PlanetRise_249342",
    "link_img": "https://live.staticflickr.com/65535/50039998771_8b6bd105ba_o.jpg",
    "id_image": "PlanetRise_249342",
    "count_view": 0
  },
  {
    "link_thumb": "https://live.staticflickr.com/65535/50038732218_87fbeef32f_n.jpg",
    "id_album": "-419633230",
    "description": "Apocalyptic_200980",
    "title": "Apocalyptic_200980",
    "link_img": "https://live.staticflickr.com/65535/50038732218_abdb50087f_o.jpg",
    "id_image": "Apocalyptic_200980",
    "count_view": 0
  },
  {
    "link_thumb": "https://live.staticflickr.com/65535/50039580002_7c32119009_n.jpg",
    "id_album": "523598895",
    "description": "Artistic_222317",
    "title": "Artistic_222317",
    "link_img": "https://live.staticflickr.com/65535/50039580002_bcc4d6a7b9_o.jpg",
    "id_image": "Artistic_222317",
    "count_view": 0
  },
  {
    "link_thumb": "https://live.staticflickr.com/65535/50040284303_a92fb152d8_n.jpg",
    "id_album": "-1449720967",
    "description": "StarTrek_327165",
    "title": "StarTrek_327165",
    "link_img": "https://live.staticflickr.com/65535/50040284303_a55d586106_o.jpg",
    "id_image": "StarTrek_327165",
    "count_view": 0
  },
  {
    "link_thumb": "https://live.staticflickr.com/65535/50039542152_013b4fbdbf_n.jpg",
    "id_album": "-419633230",
    "description": "Apocalyptic_193947",
    "title": "Apocalyptic_193947",
    "link_img": "https://live.staticflickr.com/65535/50039542152_7ede340e26_o.jpg",
    "id_image": "Apocalyptic_193947",
    "count_view": 0
  },
  {
    "link_thumb": "https://live.staticflickr.com/65535/50040937533_8e7c025b13_n.jpg",
    "id_album": "-1261420436",
    "description": "Warrior_876900",
    "title": "Warrior_876900",
    "link_img": "https://live.staticflickr.com/65535/50040937533_5d09eb91e6_o.jpg",
    "id_image": "Warrior_876900",
    "count_view": 0
  },
  {
    "link_thumb": "https://live.staticflickr.com/65535/50039378366_ac1d1b1f91_n.jpg",
    "id_album": "869545341",
    "description": "Astronaut_923960",
    "title": "Astronaut_923960",
    "link_img": "https://live.staticflickr.com/65535/50039378366_e12d4744d3_o.jpg",
    "id_image": "Astronaut_923960",
    "count_view": 0
  },
  {
    "link_thumb": "https://live.staticflickr.com/65535/50038875888_c437bcd8c0_n.jpg",
    "id_album": "406431601",
    "description": "Building_871355",
    "title": "Building_871355",
    "link_img": "https://live.staticflickr.com/65535/50038875888_d00452b8db_o.jpg",
    "id_image": "Building_871355",
    "count_view": 0
  },
  {
    "link_thumb": "https://live.staticflickr.com/65535/50038941223_0e49e1183a_n.jpg",
    "id_album": "-1964113117",
    "description": "City_697303",
    "title": "City_697303",
    "link_img": "https://live.staticflickr.com/65535/50038941223_7df4d2b874_o.jpg",
    "id_image": "City_697303",
    "count_view": 0
  },
  {
    "link_thumb": "https://live.staticflickr.com/65535/50039523216_8aee033607_n.jpg",
    "id_album": "-1964113117",
    "description": "City_930299",
    "title": "City_930299",
    "link_img": "https://live.staticflickr.com/65535/50039523216_0f0700fbda_o.jpg",
    "id_image": "City_930299",
    "count_view": 0
  },
  {
    "link_thumb": "https://live.staticflickr.com/65535/50039735413_9ce523fdfb_n.jpg",
    "id_album": "779690680",
    "description": "Robot_321083",
    "title": "Robot_321083",
    "link_img": "https://live.staticflickr.com/65535/50039735413_63f33a556e_o.jpg",
    "id_image": "Robot_321083",
    "count_view": 0
  },
  {
    "link_thumb": "https://live.staticflickr.com/65535/50039210013_441c686ea4_n.jpg",
    "id_album": "-1610342324",
    "description": "Nebula_1002217",
    "title": "Nebula_1002217",
    "link_img": "https://live.staticflickr.com/65535/50039210013_fdd37df259_o.jpg",
    "id_image": "Nebula_1002217",
    "count_view": 0
  },
  {
    "link_thumb": "https://live.staticflickr.com/65535/50040479196_91af8c5407_n.jpg",
    "id_album": "1613540653",
    "description": "Space_207816",
    "title": "Space_207816",
    "link_img": "https://live.staticflickr.com/65535/50040479196_6678cdc929_o.jpg",
    "id_image": "Space_207816",
    "count_view": 0
  },
  {
    "link_thumb": "https://live.staticflickr.com/65535/50039901612_57866f98ae_n.jpg",
    "id_album": "1204249541",
    "description": "Galaxy_510806",
    "title": "Galaxy_510806",
    "link_img": "https://live.staticflickr.com/65535/50039901612_c9907679db_o.jpg",
    "id_image": "Galaxy_510806",
    "count_view": 0
  },
  {
    "link_thumb": "https://live.staticflickr.com/65535/50039406901_922577001f_n.jpg",
    "id_album": "1187037014",
    "description": "Battle_793102",
    "title": "Battle_793102",
    "link_img": "https://live.staticflickr.com/65535/50039406901_a3b3d3cee0_o.jpg",
    "id_image": "Battle_793102",
    "count_view": 0
  },
  {
    "link_thumb": "https://live.staticflickr.com/65535/50039756406_df22c0b5f7_n.jpg",
    "id_album": "416351698",
    "description": "Moon_480018",
    "title": "Moon_480018",
    "link_img": "https://live.staticflickr.com/65535/50039756406_8c8e21edc2_o.jpg",
    "id_image": "Moon_480018",
    "count_view": 0
  },
  {
    "link_thumb": "https://live.staticflickr.com/65535/50039270638_d62cdc3e34_n.jpg",
    "id_album": "-1610342324",
    "description": "Nebula_667423",
    "title": "Nebula_667423",
    "link_img": "https://live.staticflickr.com/65535/50039270638_d808d52400_o.jpg",
    "id_image": "Nebula_667423",
    "count_view": 0
  },
  {
    "link_thumb": "https://live.staticflickr.com/65535/50038965818_ecee26d3b2_n.jpg",
    "id_album": "-1964113117",
    "description": "City_891959",
    "title": "City_891959",
    "link_img": "https://live.staticflickr.com/65535/50038965818_a7e4988b41_o.jpg",
    "id_image": "City_891959",
    "count_view": 0
  },
  {
    "link_thumb": "https://live.staticflickr.com/65535/50040111956_fe0c3e0b44_n.jpg",
    "id_album": "-1102314093",
    "description": "Planets_419632",
    "title": "Planets_419632",
    "link_img": "https://live.staticflickr.com/65535/50040111956_cafae3f439_o.jpg",
    "id_image": "Planets_419632",
    "count_view": 0
  },
  {
    "link_thumb": "https://live.staticflickr.com/65535/50039498511_8ac94b0d94_n.jpg",
    "id_album": "-1964113117",
    "description": "City_80585",
    "title": "City_80585",
    "link_img": "https://live.staticflickr.com/65535/50039498511_ae0372f85e_o.jpg",
    "id_image": "City_80585",
    "count_view": 0
  },
  {
    "link_thumb": "https://live.staticflickr.com/65535/50040499822_9c9c1d7a44_n.jpg",
    "id_album": "-482547208",
    "description": "PostApocalyptic_969091",
    "title": "PostApocalyptic_969091",
    "link_img": "https://live.staticflickr.com/65535/50040499822_9cee81a89c_o.jpg",
    "id_image": "PostApocalyptic_969091",
    "count_view": 0
  },
  {
    "link_thumb": "https://live.staticflickr.com/65535/50040865273_742989e5ac_n.jpg",
    "id_album": "2020068132",
    "description": "Vehicle_902916",
    "title": "Vehicle_902916",
    "link_img": "https://live.staticflickr.com/65535/50040865273_2804b430e1_o.jpg",
    "id_image": "Vehicle_902916",
    "count_view": 0
  },
  {
    "link_thumb": "https://live.staticflickr.com/65535/50039701628_8772fd24d6_n.jpg",
    "id_album": "779690680",
    "description": "Robot_131017",
    "title": "Robot_131017",
    "link_img": "https://live.staticflickr.com/65535/50039701628_0e8006e3b1_o.jpg",
    "id_image": "Robot_131017",
    "count_view": 0
  },
  {
    "link_thumb": "https://live.staticflickr.com/65535/50040514327_ebaccdbf5d_n.jpg",
    "id_album": "779690680",
    "description": "Robot_103690",
    "title": "Robot_103690",
    "link_img": "https://live.staticflickr.com/65535/50040514327_2a91048b78_o.jpg",
    "id_image": "Robot_103690",
    "count_view": 0
  },
  {
    "link_thumb": "https://live.staticflickr.com/65535/50039782861_e874991a2d_n.jpg",
    "id_album": "-1610342324",
    "description": "Nebula_286825",
    "title": "Nebula_286825",
    "link_img": "https://live.staticflickr.com/65535/50039782861_22931596a8_o.jpg",
    "id_image": "Nebula_286825",
    "count_view": 0
  },
  {
    "link_thumb": "https://live.staticflickr.com/65535/50040778892_7790616608_n.jpg",
    "id_album": "1613540653",
    "description": "Space_568756",
    "title": "Space_568756",
    "link_img": "https://live.staticflickr.com/65535/50040778892_87805699ce_o.jpg",
    "id_image": "Space_568756",
    "count_view": 0
  },
  {
    "link_thumb": "https://live.staticflickr.com/65535/50040200171_c58fa93f43_n.jpg",
    "id_album": "-482547208",
    "description": "PostApocalyptic_242325",
    "title": "PostApocalyptic_242325",
    "link_img": "https://live.staticflickr.com/65535/50040200171_5d55efbf03_o.jpg",
    "id_image": "PostApocalyptic_242325",
    "count_view": 0
  },
  {
    "link_thumb": "https://live.staticflickr.com/65535/50040561327_c6e9d8058c_n.jpg",
    "id_album": "779690680",
    "description": "Robot_371241",
    "title": "Robot_371241",
    "link_img": "https://live.staticflickr.com/65535/50040561327_c56ec217a6_o.jpg",
    "id_image": "Robot_371241",
    "count_view": 0
  },
  {
    "link_thumb": "https://live.staticflickr.com/65535/50039520458_a32a05c6b1_n.jpg",
    "id_album": "-1102314093",
    "description": "Planets_274645",
    "title": "Planets_274645",
    "link_img": "https://live.staticflickr.com/65535/50039520458_454cc6c6a1_o.jpg",
    "id_image": "Planets_274645",
    "count_view": 0
  },
  {
    "link_thumb": "https://live.staticflickr.com/65535/50040027672_54944249fb_n.jpg",
    "id_album": "-1610342324",
    "description": "Nebula_171930",
    "title": "Nebula_171930",
    "link_img": "https://live.staticflickr.com/65535/50040027672_27ed10c88f_o.jpg",
    "id_image": "Nebula_171930",
    "count_view": 0
  },
  {
    "link_thumb": "https://live.staticflickr.com/65535/50039022278_254730c207_n.jpg",
    "id_album": "-1372247677",
    "description": "Cyberpunk_970426",
    "title": "Cyberpunk_970426",
    "link_img": "https://live.staticflickr.com/65535/50039022278_ef4cde0c3e_o.jpg",
    "id_image": "Cyberpunk_970426",
    "count_view": 0
  },
  {
    "link_thumb": "https://live.staticflickr.com/65535/50039582337_ea279e0b64_n.jpg",
    "id_album": "523598895",
    "description": "Artistic_229145",
    "title": "Artistic_229145",
    "link_img": "https://live.staticflickr.com/65535/50039582337_26a273301c_o.jpg",
    "id_image": "Artistic_229145",
    "count_view": 0
  },
  {
    "link_thumb": "https://live.staticflickr.com/65535/50040324307_103348949a_n.jpg",
    "id_album": "-1102314093",
    "description": "Planets_219934",
    "title": "Planets_219934",
    "link_img": "https://live.staticflickr.com/65535/50040324307_38f39e5eac_o.jpg",
    "id_image": "Planets_219934",
    "count_view": 0
  },
  {
    "link_thumb": "https://live.staticflickr.com/65535/50040093262_0cf2e2064b_n.jpg",
    "id_album": "-1610342324",
    "description": "Nebula_74809",
    "title": "Nebula_74809",
    "link_img": "https://live.staticflickr.com/65535/50040093262_5eabfb2f19_o.jpg",
    "id_image": "Nebula_74809",
    "count_view": 0
  },
  {
    "link_thumb": "https://live.staticflickr.com/65535/50040735886_6df3961fde_n.jpg",
    "id_album": "2130067313",
    "description": "Spaceship_677167",
    "title": "Spaceship_677167",
    "link_img": "https://live.staticflickr.com/65535/50040735886_679cc5214e_o.jpg",
    "id_image": "Spaceship_677167",
    "count_view": 0
  },
  {
    "link_thumb": "https://live.staticflickr.com/65535/50040633753_3021baf2ce_n.jpg",
    "id_album": "-1863373220",
    "description": "StarWars_497635",
    "title": "StarWars_497635",
    "link_img": "https://live.staticflickr.com/65535/50040633753_2cece27c5c_o.jpg",
    "id_image": "StarWars_497635",
    "count_view": 0
  },
  {
    "link_thumb": "https://live.staticflickr.com/65535/50041545407_c0b8ee00a6_n.jpg",
    "id_album": "-1587696329",
    "description": "Stars_805197",
    "title": "Stars_805197",
    "link_img": "https://live.staticflickr.com/65535/50041545407_a8a36a22e5_o.jpg",
    "id_image": "Stars_805197",
    "count_view": 0
  },
  {
    "link_thumb": "https://live.staticflickr.com/65535/50038838133_367d6ec3da_n.jpg",
    "id_album": "869545341",
    "description": "Astronaut_962011",
    "title": "Astronaut_962011",
    "link_img": "https://live.staticflickr.com/65535/50038838133_d82feb9472_o.jpg",
    "id_image": "Astronaut_962011",
    "count_view": 0
  },
  {
    "link_thumb": "https://live.staticflickr.com/65535/50040426726_1269e4e7ce_n.jpg",
    "id_album": "779690680",
    "description": "Robot_928647",
    "title": "Robot_928647",
    "link_img": "https://live.staticflickr.com/65535/50040426726_08f06734c0_o.jpg",
    "id_image": "Robot_928647",
    "count_view": 0
  },
  {
    "link_thumb": "https://live.staticflickr.com/65535/50038699638_8a9cde8b7f_n.jpg",
    "id_album": "849020728",
    "description": "Alien_155705",
    "title": "Alien_155705",
    "link_img": "https://live.staticflickr.com/65535/50038699638_d66480c02c_o.jpg",
    "id_image": "Alien_155705",
    "count_view": 0
  },
  {
    "link_thumb": "https://live.staticflickr.com/65535/50039903702_c142cd64a6_n.jpg",
    "id_album": "1204249541",
    "description": "Galaxy_540816",
    "title": "Galaxy_540816",
    "link_img": "https://live.staticflickr.com/65535/50039903702_dbba247f4c_o.jpg",
    "id_image": "Galaxy_540816",
    "count_view": 0
  },
  {
    "link_thumb": "https://live.staticflickr.com/65535/50039302993_15aa956093_n.jpg",
    "id_album": "-1610342324",
    "description": "Nebula_922578",
    "title": "Nebula_922578",
    "link_img": "https://live.staticflickr.com/65535/50039302993_f4f69a73ee_o.jpg",
    "id_image": "Nebula_922578",
    "count_view": 0
  },
  {
    "link_thumb": "https://live.staticflickr.com/65535/50041393292_b14fc76116_n.jpg",
    "id_album": "-1863373220",
    "description": "StarWars_214974",
    "title": "StarWars_214974",
    "link_img": "https://live.staticflickr.com/65535/50041393292_3229508a2a_o.jpg",
    "id_image": "StarWars_214974",
    "count_view": 0
  },
  {
    "link_thumb": "https://live.staticflickr.com/65535/50039938091_dc8ac0d01a_n.jpg",
    "id_album": "395161030",
    "description": "Planet_372303",
    "title": "Planet_372303",
    "link_img": "https://live.staticflickr.com/65535/50039938091_eb251b81d3_o.jpg",
    "id_image": "Planet_372303",
    "count_view": 0
  },
  {
    "link_thumb": "https://live.staticflickr.com/65535/50039645962_459bf1a307_n.jpg",
    "id_album": "869545341",
    "description": "Astronaut_942086",
    "title": "Astronaut_942086",
    "link_img": "https://live.staticflickr.com/65535/50039645962_237e420439_o.jpg",
    "id_image": "Astronaut_942086",
    "count_view": 0
  },
  {
    "link_thumb": "https://live.staticflickr.com/65535/50040595643_9b21035576_n.jpg",
    "id_album": "-1863373220",
    "description": "StarWars_235021",
    "title": "StarWars_235021",
    "link_img": "https://live.staticflickr.com/65535/50040595643_60b68b4786_o.jpg",
    "id_image": "StarWars_235021",
    "count_view": 0
  },
  {
    "link_thumb": "https://live.staticflickr.com/65535/50040050752_4562a973fb_n.jpg",
    "id_album": "-1610342324",
    "description": "Nebula_32608",
    "title": "Nebula_32608",
    "link_img": "https://live.staticflickr.com/65535/50040050752_b1e19a7e01_o.jpg",
    "id_image": "Nebula_32608",
    "count_view": 0
  },
  {
    "link_thumb": "https://live.staticflickr.com/65535/50040654621_8b8d2111e9_n.jpg",
    "id_album": "2130067313",
    "description": "Spaceship_329512",
    "title": "Spaceship_329512",
    "link_img": "https://live.staticflickr.com/65535/50040654621_c85a61aaac_o.jpg",
    "id_image": "Spaceship_329512",
    "count_view": 0
  },
  {
    "link_thumb": "https://live.staticflickr.com/65535/50039798761_95b4197085_n.jpg",
    "id_album": "-1610342324",
    "description": "Nebula_453086",
    "title": "Nebula_453086",
    "link_img": "https://live.staticflickr.com/65535/50039798761_5eec1daee7_o.jpg",
    "id_image": "Nebula_453086",
    "count_view": 0
  },
  {
    "link_thumb": "https://live.staticflickr.com/65535/50041497326_d07667195d_n.jpg",
    "id_album": "-1261420436",
    "description": "Warrior_976315",
    "title": "Warrior_976315",
    "link_img": "https://live.staticflickr.com/65535/50041497326_83652bbd7e_o.jpg",
    "id_image": "Warrior_976315",
    "count_view": 0
  },
  {
    "link_thumb": "https://live.staticflickr.com/65535/50039964506_639755913f_n.jpg",
    "id_album": "395161030",
    "description": "Planet_56300",
    "title": "Planet_56300",
    "link_img": "https://live.staticflickr.com/65535/50039964506_55bbb38065_o.jpg",
    "id_image": "Planet_56300",
    "count_view": 0
  },
  {
    "link_thumb": "https://live.staticflickr.com/65535/50039934901_aabe100fff_n.jpg",
    "id_album": "395161030",
    "description": "Planet_359430",
    "title": "Planet_359430",
    "link_img": "https://live.staticflickr.com/65535/50039934901_5c8b89e73e_o.jpg",
    "id_image": "Planet_359430",
    "count_view": 0
  },
  {
    "link_thumb": "https://live.staticflickr.com/65535/50040020257_14483f86d5_n.jpg",
    "id_album": "416351698",
    "description": "Moon_490656",
    "title": "Moon_490656",
    "link_img": "https://live.staticflickr.com/65535/50040020257_611c0ce2a7_o.jpg",
    "id_image": "Moon_490656",
    "count_view": 0
  },
  {
    "link_thumb": "https://live.staticflickr.com/65535/50038974028_5fb216dc33_n.jpg",
    "id_album": "-1964113117",
    "description": "City_922968",
    "title": "City_922968",
    "link_img": "https://live.staticflickr.com/65535/50038974028_9aed3b7587_o.jpg",
    "id_image": "City_922968",
    "count_view": 0
  },
  {
    "link_thumb": "https://live.staticflickr.com/65535/50040119336_4dfb371931_n.jpg",
    "id_album": "-1102314093",
    "description": "Planets_502963",
    "title": "Planets_502963",
    "link_img": "https://live.staticflickr.com/65535/50040119336_806373b1ea_o.jpg",
    "id_image": "Planets_502963",
    "count_view": 0
  },
  {
    "link_thumb": "https://live.staticflickr.com/65535/50040687773_ab5a280dee_n.jpg",
    "id_album": "-1863373220",
    "description": "StarWars_919884",
    "title": "StarWars_919884",
    "link_img": "https://live.staticflickr.com/65535/50040687773_12b86310b6_o.jpg",
    "id_image": "StarWars_919884",
    "count_view": 0
  },
  {
    "link_thumb": "https://live.staticflickr.com/65535/50039314751_38970c954a_n.jpg",
    "id_album": "523598895",
    "description": "Artistic_211487",
    "title": "Artistic_211487",
    "link_img": "https://live.staticflickr.com/65535/50039314751_22dbc42280_o.jpg",
    "id_image": "Artistic_211487",
    "count_view": 0
  },
  {
    "link_thumb": "https://live.staticflickr.com/65535/50038681068_4227c26570_n.jpg",
    "id_album": "280884763",
    "description": "Abstract_229063",
    "title": "Abstract_229063",
    "link_img": "https://live.staticflickr.com/65535/50038681068_4141d04e60_o.jpg",
    "id_image": "Abstract_229063",
    "count_view": 0
  },
  {
    "link_thumb": "https://live.staticflickr.com/65535/50039650976_05d506eb4b_n.jpg",
    "id_album": "1204249541",
    "description": "Galaxy_689586",
    "title": "Galaxy_689586",
    "link_img": "https://live.staticflickr.com/65535/50039650976_3d7dd9f1b3_o.jpg",
    "id_image": "Galaxy_689586",
    "count_view": 0
  },
  {
    "link_thumb": "https://live.staticflickr.com/65535/50038766653_06cac5a4e7_n.jpg",
    "id_album": "523598895",
    "description": "Artistic_211323",
    "title": "Artistic_211323",
    "link_img": "https://live.staticflickr.com/65535/50038766653_802c237498_o.jpg",
    "id_image": "Artistic_211323",
    "count_view": 0
  },
  {
    "link_thumb": "https://live.staticflickr.com/65535/50038835148_f6513c958b_n.jpg",
    "id_album": "869545341",
    "description": "Astronaut_949979",
    "title": "Astronaut_949979",
    "link_img": "https://live.staticflickr.com/65535/50038835148_ea8303124b_o.jpg",
    "id_image": "Astronaut_949979",
    "count_view": 0
  },
  {
    "link_thumb": "https://live.staticflickr.com/65535/50040695962_f522f31bae_n.jpg",
    "id_album": "779690680",
    "description": "Robot_934615",
    "title": "Robot_934615",
    "link_img": "https://live.staticflickr.com/65535/50040695962_7d5a785f39_o.jpg",
    "id_image": "Robot_934615",
    "count_view": 0
  },
  {
    "link_thumb": "https://live.staticflickr.com/65535/50038858893_c4f649b965_n.jpg",
    "id_album": "1187037014",
    "description": "Battle_790113",
    "title": "Battle_790113",
    "link_img": "https://live.staticflickr.com/65535/50038858893_8d91e7d6b9_o.jpg",
    "id_image": "Battle_790113",
    "count_view": 0
  },
  {
    "link_thumb": "https://live.staticflickr.com/65535/50041442602_257bfc854a_n.jpg",
    "id_album": "-1863373220",
    "description": "StarWars_430729",
    "title": "StarWars_430729",
    "link_img": "https://live.staticflickr.com/65535/50041442602_f7c1f17c9b_o.jpg",
    "id_image": "StarWars_430729",
    "count_view": 0
  },
  {
    "link_thumb": "https://live.staticflickr.com/65535/50039451431_e5cca83cab_n.jpg",
    "id_album": "-1964113117",
    "description": "City_233924",
    "title": "City_233924",
    "link_img": "https://live.staticflickr.com/65535/50039451431_7c57f7ac06_o.jpg",
    "id_image": "City_233924",
    "count_view": 0
  },
  {
    "link_thumb": "https://live.staticflickr.com/65535/50041289031_4454a1235f_n.jpg",
    "id_album": "1267121215",
    "description": "Steampunk_157861",
    "title": "Steampunk_157861",
    "link_img": "https://live.staticflickr.com/65535/50041289031_023ded701d_o.jpg",
    "id_image": "Steampunk_157861",
    "count_view": 0
  },
  {
    "link_thumb": "https://live.staticflickr.com/65535/50040111847_4e70bb7b4e_n.jpg",
    "id_album": "-1610342324",
    "description": "Nebula_876168",
    "title": "Nebula_876168",
    "link_img": "https://live.staticflickr.com/65535/50040111847_ef0a697003_o.jpg",
    "id_image": "Nebula_876168",
    "count_view": 0
  },
  {
    "link_thumb": "https://live.staticflickr.com/65535/50039959193_1f5227949d_n.jpg",
    "id_album": "1613540653",
    "description": "Space_566803",
    "title": "Space_566803",
    "link_img": "https://live.staticflickr.com/65535/50039959193_1c538d4e53_o.jpg",
    "id_image": "Space_566803",
    "count_view": 0
  },
  {
    "link_thumb": "https://live.staticflickr.com/65535/50039131428_2c034d92f0_n.jpg",
    "id_album": "1402713104",
    "description": "Landscape_341730",
    "title": "Landscape_341730",
    "link_img": "https://live.staticflickr.com/65535/50039131428_73d977111c_o.jpg",
    "id_image": "Landscape_341730",
    "count_view": 0
  },
  {
    "link_thumb": "https://live.staticflickr.com/65535/50039437311_e30a7eea65_n.jpg",
    "id_album": "-1964113117",
    "description": "City_156954",
    "title": "City_156954",
    "link_img": "https://live.staticflickr.com/65535/50039437311_e30cb41114_o.jpg",
    "id_image": "City_156954",
    "count_view": 0
  },
  {
    "link_thumb": "https://live.staticflickr.com/65535/50040588698_a5b95d75a7_n.jpg",
    "id_album": "-1863373220",
    "description": "StarWars_226928",
    "title": "StarWars_226928",
    "link_img": "https://live.staticflickr.com/65535/50040588698_b26eb2769b_o.jpg",
    "id_image": "StarWars_226928",
    "count_view": 0
  },
  {
    "link_thumb": "https://live.staticflickr.com/65535/50038898223_aced839c06_n.jpg",
    "id_album": "-1964113117",
    "description": "City_214293",
    "title": "City_214293",
    "link_img": "https://live.staticflickr.com/65535/50038898223_5699db0fa4_o.jpg",
    "id_image": "City_214293",
    "count_view": 0
  },
  {
    "link_thumb": "https://live.staticflickr.com/65535/50040074832_f17c94b69e_n.jpg",
    "id_album": "-1610342324",
    "description": "Nebula_562947",
    "title": "Nebula_562947",
    "link_img": "https://live.staticflickr.com/65535/50040074832_38cf926ff2_o.jpg",
    "id_image": "Nebula_562947",
    "count_view": 0
  },
  {
    "link_thumb": "https://live.staticflickr.com/65535/50039985912_5f00d34cc0_n.jpg",
    "id_album": "1402713104",
    "description": "Landscape_913623",
    "title": "Landscape_913623",
    "link_img": "https://live.staticflickr.com/65535/50039985912_9996607a8c_o.jpg",
    "id_image": "Landscape_913623",
    "count_view": 0
  },
  {
    "link_thumb": "https://live.staticflickr.com/65535/50040597596_e6ea8a20c9_n.jpg",
    "id_album": "2130067313",
    "description": "Spaceship_205565",
    "title": "Spaceship_205565",
    "link_img": "https://live.staticflickr.com/65535/50040597596_42d0eb2a73_o.jpg",
    "id_image": "Spaceship_205565",
    "count_view": 0
  },
  {
    "link_thumb": "https://live.staticflickr.com/65535/50040921203_ceea12e6de_n.jpg",
    "id_album": "-1261420436",
    "description": "Warrior_592237",
    "title": "Warrior_592237",
    "link_img": "https://live.staticflickr.com/65535/50040921203_aba037acdd_o.jpg",
    "id_image": "Warrior_592237",
    "count_view": 0
  },
  {
    "link_thumb": "https://live.staticflickr.com/65535/50039516991_0f5df00873_n.jpg",
    "id_album": "-1964113117",
    "description": "City_905169",
    "title": "City_905169",
    "link_img": "https://live.staticflickr.com/65535/50039516991_0b78d59abd_o.jpg",
    "id_image": "City_905169",
    "count_view": 0
  },
  {
    "link_thumb": "https://live.staticflickr.com/65535/50041814197_dcb751a83d_n.jpg",
    "id_album": "-1126835654",
    "description": "Women_928326",
    "title": "Women_928326",
    "link_img": "https://live.staticflickr.com/65535/50041814197_b21befe9b3_o.jpg",
    "id_image": "Women_928326",
    "count_view": 0
  },
  {
    "link_thumb": "https://live.staticflickr.com/65535/50038938878_a66385b76d_n.jpg",
    "id_album": "-1964113117",
    "description": "City_681248",
    "title": "City_681248",
    "link_img": "https://live.staticflickr.com/65535/50038938878_4b86489e66_o.jpg",
    "id_image": "City_681248",
    "count_view": 0
  },
  {
    "link_thumb": "https://live.staticflickr.com/65535/50039856883_a70363721b_n.jpg",
    "id_album": "779690680",
    "description": "Robot_913021",
    "title": "Robot_913021",
    "link_img": "https://live.staticflickr.com/65535/50039856883_d3fbdbe07c_o.jpg",
    "id_image": "Robot_913021",
    "count_view": 0
  },
  {
    "link_thumb": "https://live.staticflickr.com/65535/50039545642_f679f8fd0c_n.jpg",
    "id_album": "-419633230",
    "description": "Apocalyptic_395490",
    "title": "Apocalyptic_395490",
    "link_img": "https://live.staticflickr.com/65535/50039545642_bfac258277_o.jpg",
    "id_image": "Apocalyptic_395490",
    "count_view": 0
  },
  {
    "link_thumb": "https://live.staticflickr.com/65535/50040063481_a79749ee49_n.jpg",
    "id_album": "-1102314093",
    "description": "Planets_234863",
    "title": "Planets_234863",
    "link_img": "https://live.staticflickr.com/65535/50040063481_a384937cef_o.jpg",
    "id_image": "Planets_234863",
    "count_view": 0
  },
  {
    "link_thumb": "https://live.staticflickr.com/65535/50039152053_8594b8ed6e_n.jpg",
    "id_album": "1402713104",
    "description": "Landscape_703159",
    "title": "Landscape_703159",
    "link_img": "https://live.staticflickr.com/65535/50039152053_9b825678c5_o.jpg",
    "id_image": "Landscape_703159",
    "count_view": 0
  },
  {
    "link_thumb": "https://live.staticflickr.com/65535/50039675871_6c68d89b52_n.jpg",
    "id_album": "1402713104",
    "description": "Landscape_323795",
    "title": "Landscape_323795",
    "link_img": "https://live.staticflickr.com/65535/50039675871_96e5113680_o.jpg",
    "id_image": "Landscape_323795",
    "count_view": 0
  },
  {
    "link_thumb": "https://live.staticflickr.com/65535/50041531442_97e795883c_n.jpg",
    "id_album": "-1587696329",
    "description": "Stars_430134",
    "title": "Stars_430134",
    "link_img": "https://live.staticflickr.com/65535/50041531442_968f59ced6_o.jpg",
    "id_image": "Stars_430134",
    "count_view": 0
  },
  {
    "link_thumb": "https://live.staticflickr.com/65535/50039519708_29d46ae302_n.jpg",
    "id_album": "-1102314093",
    "description": "Planets_271246",
    "title": "Planets_271246",
    "link_img": "https://live.staticflickr.com/65535/50039519708_8050758c2e_o.jpg",
    "id_image": "Planets_271246",
    "count_view": 0
  },
  {
    "link_thumb": "https://live.staticflickr.com/65535/50039256508_79d6285497_n.jpg",
    "id_album": "-1610342324",
    "description": "Nebula_544016",
    "title": "Nebula_544016",
    "link_img": "https://live.staticflickr.com/65535/50039256508_478eae3335_o.jpg",
    "id_image": "Nebula_544016",
    "count_view": 0
  },
  {
    "link_thumb": "https://live.staticflickr.com/65535/50039947541_15316b2af1_n.jpg",
    "id_album": "395161030",
    "description": "Planet_414840",
    "title": "Planet_414840",
    "link_img": "https://live.staticflickr.com/65535/50039947541_b5ecfd58d0_o.jpg",
    "id_image": "Planet_414840",
    "count_view": 0
  },
  {
    "link_thumb": "https://live.staticflickr.com/65535/50040207607_e1ff69a4de_n.jpg",
    "id_album": "395161030",
    "description": "Planet_378316",
    "title": "Planet_378316",
    "link_img": "https://live.staticflickr.com/65535/50040207607_ca00dca91c_o.jpg",
    "id_image": "Planet_378316",
    "count_view": 0
  },
  {
    "link_thumb": "https://live.staticflickr.com/65535/50039882507_92176d490f_n.jpg",
    "id_album": "2104507156",
    "description": "Fantasy_200405",
    "title": "Fantasy_200405",
    "link_img": "https://live.staticflickr.com/65535/50039882507_db38cf739b_o.jpg",
    "id_image": "Fantasy_200405",
    "count_view": 0
  },
  {
    "link_thumb": "https://live.staticflickr.com/65535/50040568672_0fe9b57ab5_n.jpg",
    "id_album": "779690680",
    "description": "Robot_407249",
    "title": "Robot_407249",
    "link_img": "https://live.staticflickr.com/65535/50040568672_c9b9ac0a36_o.jpg",
    "id_image": "Robot_407249",
    "count_view": 0
  },
  {
    "link_thumb": "https://live.staticflickr.com/65535/50039357641_19f6e66e65_n.jpg",
    "id_album": "869545341",
    "description": "Astronaut_557605",
    "title": "Astronaut_557605",
    "link_img": "https://live.staticflickr.com/65535/50039357641_9b0ea19074_o.jpg",
    "id_image": "Astronaut_557605",
    "count_view": 0
  },
  {
    "link_thumb": "https://live.staticflickr.com/65535/50040617028_0056f4f820_n.jpg",
    "id_album": "-1863373220",
    "description": "StarWars_376841",
    "title": "StarWars_376841",
    "link_img": "https://live.staticflickr.com/65535/50040617028_7359cf14de_o.jpg",
    "id_image": "StarWars_376841",
    "count_view": 0
  },
  {
    "link_thumb": "https://live.staticflickr.com/65535/50039876802_4b8271fb3b_n.jpg",
    "id_album": "2104507156",
    "description": "Fantasy_151078",
    "title": "Fantasy_151078",
    "link_img": "https://live.staticflickr.com/65535/50039876802_611573c519_o.jpg",
    "id_image": "Fantasy_151078",
    "count_view": 0
  },
  {
    "link_thumb": "https://live.staticflickr.com/65535/50040496896_84fc42b6bd_n.jpg",
    "id_album": "1613540653",
    "description": "Space_336006",
    "title": "Space_336006",
    "link_img": "https://live.staticflickr.com/65535/50040496896_be76a0552a_o.jpg",
    "id_image": "Space_336006",
    "count_view": 0
  },
  {
    "link_thumb": "https://live.staticflickr.com/65535/50039695318_fd21a1e957_n.jpg",
    "id_album": "779690680",
    "description": "Robot_1004601",
    "title": "Robot_1004601",
    "link_img": "https://live.staticflickr.com/65535/50039695318_0315cba51f_o.jpg",
    "id_image": "Robot_1004601",
    "count_view": 0
  },
  {
    "link_thumb": "https://live.staticflickr.com/65535/50039004368_3443e4f1b0_n.jpg",
    "id_album": "-437872736",
    "description": "Creature_333013",
    "title": "Creature_333013",
    "link_img": "https://live.staticflickr.com/65535/50039004368_2072294283_o.jpg",
    "id_image": "Creature_333013",
    "count_view": 0
  },
  {
    "link_thumb": "https://live.staticflickr.com/65535/50039265556_7f0954df66_n.jpg",
    "id_album": "849020728",
    "description": "Alien_453136",
    "title": "Alien_453136",
    "link_img": "https://live.staticflickr.com/65535/50039265556_39c12751c2_o.jpg",
    "id_image": "Alien_453136",
    "count_view": 0
  },
  {
    "link_thumb": "https://live.staticflickr.com/65535/50038767988_280f8ac4dc_n.jpg",
    "id_album": "523598895",
    "description": "Artistic_218934",
    "title": "Artistic_218934",
    "link_img": "https://live.staticflickr.com/65535/50038767988_0e6ea7f4f9_o.jpg",
    "id_image": "Artistic_218934",
    "count_view": 0
  },
  {
    "link_thumb": "https://live.staticflickr.com/65535/50040176356_8e607036d1_n.jpg",
    "id_album": "376235057",
    "description": "Planetscape_550240",
    "title": "Planetscape_550240",
    "link_img": "https://live.staticflickr.com/65535/50040176356_92f652c82d_o.jpg",
    "id_image": "Planetscape_550240",
    "count_view": 0
  },
  {
    "link_thumb": "https://live.staticflickr.com/65535/50038768593_50cdf47331_n.jpg",
    "id_album": "523598895",
    "description": "Artistic_220877",
    "title": "Artistic_220877",
    "link_img": "https://live.staticflickr.com/65535/50038768593_6a0c574f2f_o.jpg",
    "id_image": "Artistic_220877",
    "count_view": 0
  },
  {
    "link_thumb": "https://live.staticflickr.com/65535/50040309097_fcd5e525b3_n.jpg",
    "id_album": "-1102314093",
    "description": "Planets_109387",
    "title": "Planets_109387",
    "link_img": "https://live.staticflickr.com/65535/50040309097_dc520b5dcc_o.jpg",
    "id_image": "Planets_109387",
    "count_view": 0
  },
  {
    "link_thumb": "https://live.staticflickr.com/65535/50039636721_ec42bbcdbc_n.jpg",
    "id_album": "1204249541",
    "description": "Galaxy_453079",
    "title": "Galaxy_453079",
    "link_img": "https://live.staticflickr.com/65535/50039636721_4fed737b75_o.jpg",
    "id_image": "Galaxy_453079",
    "count_view": 0
  },
  {
    "link_thumb": "https://live.staticflickr.com/65535/50039665897_6885fbc034_n.jpg",
    "id_album": "1187037014",
    "description": "Battle_559693",
    "title": "Battle_559693",
    "link_img": "https://live.staticflickr.com/65535/50039665897_8b0263f727_o.jpg",
    "id_image": "Battle_559693",
    "count_view": 0
  },
  {
    "link_thumb": "https://live.staticflickr.com/65535/50040057617_c1c34d0aaf_n.jpg",
    "id_album": "-1610342324",
    "description": "Nebula_414621",
    "title": "Nebula_414621",
    "link_img": "https://live.staticflickr.com/65535/50040057617_9024850e5a_o.jpg",
    "id_image": "Nebula_414621",
    "count_view": 0
  },
  {
    "link_thumb": "https://live.staticflickr.com/65535/50039777501_8c1ec506f1_n.jpg",
    "id_album": "-1610342324",
    "description": "Nebula_2541",
    "title": "Nebula_2541",
    "link_img": "https://live.staticflickr.com/65535/50039777501_e1218d1ef7_o.jpg",
    "id_image": "Nebula_2541",
    "count_view": 0
  },
  {
    "link_thumb": "https://live.staticflickr.com/65535/50040056932_eaa81c0cc3_n.jpg",
    "id_album": "-1610342324",
    "description": "Nebula_405236",
    "title": "Nebula_405236",
    "link_img": "https://live.staticflickr.com/65535/50040056932_bcdb3c4a1f_o.jpg",
    "id_image": "Nebula_405236",
    "count_view": 0
  },
  {
    "link_thumb": "https://live.staticflickr.com/65535/50041427437_96371fdb94_n.jpg",
    "id_album": "-1863373220",
    "description": "StarWars_315718",
    "title": "StarWars_315718",
    "link_img": "https://live.staticflickr.com/65535/50041427437_a4e3ebb551_o.jpg",
    "id_image": "StarWars_315718",
    "count_view": 0
  },
  {
    "link_thumb": "https://live.staticflickr.com/65535/50040891968_11ef6e2771_n.jpg",
    "id_album": "-1261420436",
    "description": "Warrior_311665",
    "title": "Warrior_311665",
    "link_img": "https://live.staticflickr.com/65535/50040891968_f28156c570_o.jpg",
    "id_image": "Warrior_311665",
    "count_view": 0
  },
  {
    "link_thumb": "https://live.staticflickr.com/65535/50041716882_c3a240f1f1_n.jpg",
    "id_album": "-1261420436",
    "description": "Warrior_377831",
    "title": "Warrior_377831",
    "link_img": "https://live.staticflickr.com/65535/50041716882_db2504c770_o.jpg",
    "id_image": "Warrior_377831",
    "count_view": 0
  },
  {
    "link_thumb": "https://live.staticflickr.com/65535/50039530401_3d03a9e1e7_n.jpg",
    "id_album": "-1964113117",
    "description": "City_975249",
    "title": "City_975249",
    "link_img": "https://live.staticflickr.com/65535/50039530401_9baf5650bf_o.jpg",
    "id_image": "City_975249",
    "count_view": 0
  },
  {
    "link_thumb": "https://live.staticflickr.com/65535/50039511931_f535633b22_n.jpg",
    "id_album": "-1964113117",
    "description": "City_881451",
    "title": "City_881451",
    "link_img": "https://live.staticflickr.com/65535/50039511931_1ecfa77a4e_o.jpg",
    "id_image": "City_881451",
    "count_view": 0
  },
  {
    "link_thumb": "https://live.staticflickr.com/65535/50038934443_0fa63bfcde_n.jpg",
    "id_album": "-1964113117",
    "description": "City_649146",
    "title": "City_649146",
    "link_img": "https://live.staticflickr.com/65535/50038934443_494983d6c7_o.jpg",
    "id_image": "City_649146",
    "count_view": 0
  },
  {
    "link_thumb": "https://live.staticflickr.com/65535/50039077973_ea23f8e747_n.jpg",
    "id_album": "1204249541",
    "description": "Galaxy_223111",
    "title": "Galaxy_223111",
    "link_img": "https://live.staticflickr.com/65535/50039077973_9f2642f458_o.jpg",
    "id_image": "Galaxy_223111",
    "count_view": 0
  },
  {
    "link_thumb": "https://live.staticflickr.com/65535/50039328951_a6f01f1616_n.jpg",
    "id_album": "523598895",
    "description": "Artistic_317312",
    "title": "Artistic_317312",
    "link_img": "https://live.staticflickr.com/65535/50039328951_8b75a191ea_o.jpg",
    "id_image": "Artistic_317312",
    "count_view": 0
  },
  {
    "link_thumb": "https://live.staticflickr.com/65535/50039535842_b777cc8dc1_n.jpg",
    "id_album": "849020728",
    "description": "Alien_715693",
    "title": "Alien_715693",
    "link_img": "https://live.staticflickr.com/65535/50039535842_547c8ee14f_o.jpg",
    "id_image": "Alien_715693",
    "count_view": 0
  },
  {
    "link_thumb": "https://live.staticflickr.com/65535/50041207251_b2df69f473_n.jpg",
    "id_album": "-1863373220",
    "description": "StarWars_667417",
    "title": "StarWars_667417",
    "link_img": "https://live.staticflickr.com/65535/50041207251_1e9b2510e8_o.jpg",
    "id_image": "StarWars_667417",
    "count_view": 0
  },
  {
    "link_thumb": "https://live.staticflickr.com/65535/50040164417_aa351d236f_n.jpg",
    "id_album": "395161030",
    "description": "Planet_10004",
    "title": "Planet_10004",
    "link_img": "https://live.staticflickr.com/65535/50040164417_37dae06533_o.jpg",
    "id_image": "Planet_10004",
    "count_view": 0
  },
  {
    "link_thumb": "https://live.staticflickr.com/65535/50039620276_f77af03c60_n.jpg",
    "id_album": "2104507156",
    "description": "Fantasy_260721",
    "title": "Fantasy_260721",
    "link_img": "https://live.staticflickr.com/65535/50039620276_cca5b1840f_o.jpg",
    "id_image": "Fantasy_260721",
    "count_view": 0
  },
  {
    "link_thumb": "https://live.staticflickr.com/65535/50039287306_4f13052824_n.jpg",
    "id_album": "-419633230",
    "description": "Apocalyptic_728474",
    "title": "Apocalyptic_728474",
    "link_img": "https://live.staticflickr.com/65535/50039287306_62bcae0d77_o.jpg",
    "id_image": "Apocalyptic_728474",
    "count_view": 0
  },
  {
    "link_thumb": "https://live.staticflickr.com/65535/50040670242_66e0a7aeb7_n.jpg",
    "id_album": "779690680",
    "description": "Robot_909550",
    "title": "Robot_909550",
    "link_img": "https://live.staticflickr.com/65535/50040670242_c7183a6df8_o.jpg",
    "id_image": "Robot_909550",
    "count_view": 0
  },
  {
    "link_thumb": "https://live.staticflickr.com/65535/50040808878_569e6cbceb_n.jpg",
    "id_album": "-1177476763",
    "description": "Sunrise_391881",
    "title": "Sunrise_391881",
    "link_img": "https://live.staticflickr.com/65535/50040808878_83ac0613a0_o.jpg",
    "id_image": "Sunrise_391881",
    "count_view": 0
  },
  {
    "link_thumb": "https://live.staticflickr.com/65535/50039540838_b55378709d_n.jpg",
    "id_album": "-1102314093",
    "description": "Planets_349442",
    "title": "Planets_349442",
    "link_img": "https://live.staticflickr.com/65535/50039540838_9824ef2455_o.jpg",
    "id_image": "Planets_349442",
    "count_view": 0
  },
  {
    "link_thumb": "https://live.staticflickr.com/65535/50038902518_74790f21f5_n.jpg",
    "id_album": "-1964113117",
    "description": "City_234063",
    "title": "City_234063",
    "link_img": "https://live.staticflickr.com/65535/50038902518_1001058761_o.jpg",
    "id_image": "City_234063",
    "count_view": 0
  },
  {
    "link_thumb": "https://live.staticflickr.com/65535/50039466761_b9ede49bcc_n.jpg",
    "id_album": "-1964113117",
    "description": "City_379492",
    "title": "City_379492",
    "link_img": "https://live.staticflickr.com/65535/50039466761_3e127b6e97_o.jpg",
    "id_image": "City_379492",
    "count_view": 0
  },
  {
    "link_thumb": "https://live.staticflickr.com/65535/50040819776_43789c86fe_n.jpg",
    "id_album": "-1449720967",
    "description": "StarTrek_279989",
    "title": "StarTrek_279989",
    "link_img": "https://live.staticflickr.com/65535/50040819776_a4112354de_o.jpg",
    "id_image": "StarTrek_279989",
    "count_view": 0
  },
  {
    "link_thumb": "https://live.staticflickr.com/65535/50040099426_f35cf423b2_n.jpg",
    "id_album": "-1102314093",
    "description": "Planets_363098",
    "title": "Planets_363098",
    "link_img": "https://live.staticflickr.com/65535/50040099426_9c743ac83d_o.jpg",
    "id_image": "Planets_363098",
    "count_view": 0
  },
  {
    "link_thumb": "https://live.staticflickr.com/65535/50041486361_0f5c32f121_n.jpg",
    "id_album": "-1261420436",
    "description": "Warrior_778589",
    "title": "Warrior_778589",
    "link_img": "https://live.staticflickr.com/65535/50041486361_04c0a9b187_o.jpg",
    "id_image": "Warrior_778589",
    "count_view": 0
  },
  {
    "link_thumb": "https://live.staticflickr.com/65535/50039782556_aa05965b37_n.jpg",
    "id_album": "-1610342324",
    "description": "Nebula_286807",
    "title": "Nebula_286807",
    "link_img": "https://live.staticflickr.com/65535/50039782556_1e4c596b0c_o.jpg",
    "id_image": "Nebula_286807",
    "count_view": 0
  },
  {
    "link_thumb": "https://live.staticflickr.com/65535/50039826861_f954a09eb6_n.jpg",
    "id_album": "-1610342324",
    "description": "Nebula_728536",
    "title": "Nebula_728536",
    "link_img": "https://live.staticflickr.com/65535/50039826861_b205b03db3_o.jpg",
    "id_image": "Nebula_728536",
    "count_view": 0
  },
  {
    "link_thumb": "https://live.staticflickr.com/65535/50039832496_f88b22c14b_n.jpg",
    "id_album": "-1610342324",
    "description": "Nebula_771258",
    "title": "Nebula_771258",
    "link_img": "https://live.staticflickr.com/65535/50039832496_e4bf8f9cd7_o.jpg",
    "id_image": "Nebula_771258",
    "count_view": 0
  },
  {
    "link_thumb": "https://live.staticflickr.com/65535/50038755193_82d0ca0d3d_n.jpg",
    "id_album": "523598895",
    "description": "Artistic_172712",
    "title": "Artistic_172712",
    "link_img": "https://live.staticflickr.com/65535/50038755193_0d0116a7cd_o.jpg",
    "id_image": "Artistic_172712",
    "count_view": 0
  },
  {
    "link_thumb": "https://live.staticflickr.com/65535/50039255341_5ae11220d5_n.jpg",
    "id_album": "849020728",
    "description": "Alien_234560",
    "title": "Alien_234560",
    "link_img": "https://live.staticflickr.com/65535/50039255341_a236aa9039_o.jpg",
    "id_image": "Alien_234560",
    "count_view": 0
  },
  {
    "link_thumb": "https://live.staticflickr.com/65535/50040627751_1606c3d360_n.jpg",
    "id_album": "2130067313",
    "description": "Spaceship_286775",
    "title": "Spaceship_286775",
    "link_img": "https://live.staticflickr.com/65535/50040627751_b08d5770e7_o.jpg",
    "id_image": "Spaceship_286775",
    "count_view": 0
  },
  {
    "link_thumb": "https://live.staticflickr.com/65535/50041761272_cc23a16fd6_n.jpg",
    "id_album": "-1261420436",
    "description": "Warrior_987335",
    "title": "Warrior_987335",
    "link_img": "https://live.staticflickr.com/65535/50041761272_3241bb6f40_o.jpg",
    "id_image": "Warrior_987335",
    "count_view": 0
  },
  {
    "link_thumb": "https://live.staticflickr.com/65535/50039250181_66e483f09a_n.jpg",
    "id_album": "849020728",
    "description": "Alien_181504",
    "title": "Alien_181504",
    "link_img": "https://live.staticflickr.com/65535/50039250181_d1c59bd2bd_o.jpg",
    "id_image": "Alien_181504",
    "count_view": 0
  },
  {
    "link_thumb": "https://live.staticflickr.com/65535/50039250388_bbde72d9d9_n.jpg",
    "id_album": "-1610342324",
    "description": "Nebula_466777",
    "title": "Nebula_466777",
    "link_img": "https://live.staticflickr.com/65535/50039250388_ca4b043a2b_o.jpg",
    "id_image": "Nebula_466777",
    "count_view": 0
  },
  {
    "link_thumb": "https://live.staticflickr.com/65535/50039770096_6ff4c493e0_n.jpg",
    "id_album": "-1610342324",
    "description": "Nebula_210639",
    "title": "Nebula_210639",
    "link_img": "https://live.staticflickr.com/65535/50039770096_4dd15730c7_o.jpg",
    "id_image": "Nebula_210639",
    "count_view": 0
  },
  {
    "link_thumb": "https://live.staticflickr.com/65535/50041495037_4ed78b72d5_n.jpg",
    "id_album": "-1863373220",
    "description": "StarWars_879747",
    "title": "StarWars_879747",
    "link_img": "https://live.staticflickr.com/65535/50041495037_2a81a3030f_o.jpg",
    "id_image": "StarWars_879747",
    "count_view": 0
  },
  {
    "link_thumb": "https://live.staticflickr.com/65535/50039391641_67c8024444_n.jpg",
    "id_album": "869545341",
    "description": "Astronaut_993600",
    "title": "Astronaut_993600",
    "link_img": "https://live.staticflickr.com/65535/50039391641_04be26a35b_o.jpg",
    "id_image": "Astronaut_993600",
    "count_view": 0
  },
  {
    "link_thumb": "https://live.staticflickr.com/65535/50041246411_f9bc4afb0a_n.jpg",
    "id_album": "-1863373220",
    "description": "StarWars_973298",
    "title": "StarWars_973298",
    "link_img": "https://live.staticflickr.com/65535/50041246411_f5e4dc9de7_o.jpg",
    "id_image": "StarWars_973298",
    "count_view": 0
  },
  {
    "link_thumb": "https://live.staticflickr.com/65535/50039557841_f5c74496ef_n.jpg",
    "id_album": "-437872736",
    "description": "Creature_540785",
    "title": "Creature_540785",
    "link_img": "https://live.staticflickr.com/65535/50039557841_277aaa92e1_o.jpg",
    "id_image": "Creature_540785",
    "count_view": 0
  },
  {
    "link_thumb": "https://live.staticflickr.com/65535/50041585721_bee46edfde_n.jpg",
    "id_album": "-1675918237",
    "description": "WomenWarrior_629985",
    "title": "WomenWarrior_629985",
    "link_img": "https://live.staticflickr.com/65535/50041585721_425c449f0b_o.jpg",
    "id_image": "WomenWarrior_629985",
    "count_view": 0
  },
  {
    "link_thumb": "https://live.staticflickr.com/65535/50038895223_30abec8f0d_n.jpg",
    "id_album": "-1964113117",
    "description": "City_206125",
    "title": "City_206125",
    "link_img": "https://live.staticflickr.com/65535/50038895223_037e147f21_o.jpg",
    "id_image": "City_206125",
    "count_view": 0
  },
  {
    "link_thumb": "https://live.staticflickr.com/65535/50040390571_09254441b8_n.jpg",
    "id_album": "779690680",
    "description": "Robot_881754",
    "title": "Robot_881754",
    "link_img": "https://live.staticflickr.com/65535/50040390571_cf607076ae_o.jpg",
    "id_image": "Robot_881754",
    "count_view": 0
  },
  {
    "link_thumb": "https://live.staticflickr.com/65535/50038716848_e7330b74d1_n.jpg",
    "id_album": "849020728",
    "description": "Alien_41623",
    "title": "Alien_41623",
    "link_img": "https://live.staticflickr.com/65535/50038716848_4ea3f5ec66_o.jpg",
    "id_image": "Alien_41623",
    "count_view": 0
  },
  {
    "link_thumb": "https://live.staticflickr.com/65535/50040348862_f9e5e6c9d4_n.jpg",
    "id_album": "-1102314093",
    "description": "Planets_332255",
    "title": "Planets_332255",
    "link_img": "https://live.staticflickr.com/65535/50040348862_50231145a5_o.jpg",
    "id_image": "Planets_332255",
    "count_view": 0
  },
  {
    "link_thumb": "https://live.staticflickr.com/65535/50040061942_7a99618352_n.jpg",
    "id_album": "-1610342324",
    "description": "Nebula_441070",
    "title": "Nebula_441070",
    "link_img": "https://live.staticflickr.com/65535/50040061942_da0e8b8cfa_o.jpg",
    "id_image": "Nebula_441070",
    "count_view": 0
  },
  {
    "link_thumb": "https://live.staticflickr.com/65535/50039883788_f6a607cb32_n.jpg",
    "id_album": "779690680",
    "description": "Robot_944753",
    "title": "Robot_944753",
    "link_img": "https://live.staticflickr.com/65535/50039883788_c185283332_o.jpg",
    "id_image": "Robot_944753",
    "count_view": 0
  },
  {
    "link_thumb": "https://live.staticflickr.com/65535/50039525182_0ff06057c2_n.jpg",
    "id_album": "849020728",
    "description": "Alien_401528",
    "title": "Alien_401528",
    "link_img": "https://live.staticflickr.com/65535/50039525182_61f53c17b2_o.jpg",
    "id_image": "Alien_401528",
    "count_view": 0
  },
  {
    "link_thumb": "https://live.staticflickr.com/65535/50039402091_41731c8407_n.jpg",
    "id_album": "1187037014",
    "description": "Battle_482221",
    "title": "Battle_482221",
    "link_img": "https://live.staticflickr.com/65535/50039402091_543fd78fe5_o.jpg",
    "id_image": "Battle_482221",
    "count_view": 0
  },
  {
    "link_thumb": "https://live.staticflickr.com/65535/50039609606_1c787aa83e_n.jpg",
    "id_album": "651930207",
    "description": "Explosion_351695",
    "title": "Explosion_351695",
    "link_img": "https://live.staticflickr.com/65535/50039609606_1c48829f8e_o.jpg",
    "id_image": "Explosion_351695",
    "count_view": 0
  },
  {
    "link_thumb": "https://live.staticflickr.com/65535/50039393996_2cc5d2490b_n.jpg",
    "id_album": "1187037014",
    "description": "Battle_152686",
    "title": "Battle_152686",
    "link_img": "https://live.staticflickr.com/65535/50039393996_1d409ebb37_o.jpg",
    "id_image": "Battle_152686",
    "count_view": 0
  },
  {
    "link_thumb": "https://live.staticflickr.com/65535/50041206966_9d06676b2e_n.jpg",
    "id_album": "-1863373220",
    "description": "StarWars_662920",
    "title": "StarWars_662920",
    "link_img": "https://live.staticflickr.com/65535/50041206966_162206a8d3_o.jpg",
    "id_image": "StarWars_662920",
    "count_view": 0
  },
  {
    "link_thumb": "https://live.staticflickr.com/65535/50039689366_a0d996e787_n.jpg",
    "id_album": "1402713104",
    "description": "Landscape_446745",
    "title": "Landscape_446745",
    "link_img": "https://live.staticflickr.com/65535/50039689366_2665b2816d_o.jpg",
    "id_image": "Landscape_446745",
    "count_view": 0
  },
  {
    "link_thumb": "https://live.staticflickr.com/65535/50040171481_6e7637862e_n.jpg",
    "id_album": "376235057",
    "description": "Planetscape_390160",
    "title": "Planetscape_390160",
    "link_img": "https://live.staticflickr.com/65535/50040171481_b2f2dfdbd8_o.jpg",
    "id_image": "Planetscape_390160",
    "count_view": 0
  },
  {
    "link_thumb": "https://live.staticflickr.com/65535/50038894908_9904164de4_n.jpg",
    "id_album": "-1964113117",
    "description": "City_205954",
    "title": "City_205954",
    "link_img": "https://live.staticflickr.com/65535/50038894908_a3cafe46f1_o.jpg",
    "id_image": "City_205954",
    "count_view": 0
  },
  {
    "link_thumb": "https://live.staticflickr.com/65535/50041603982_361d650525_n.jpg",
    "id_album": "-221671103",
    "description": "Sun_193453",
    "title": "Sun_193453",
    "link_img": "https://live.staticflickr.com/65535/50041603982_64188f7524_o.jpg",
    "id_image": "Sun_193453",
    "count_view": 0
  },
  {
    "link_thumb": "https://live.staticflickr.com/65535/50039127048_381594a8e5_n.jpg",
    "id_album": "1402713104",
    "description": "Landscape_324147",
    "title": "Landscape_324147",
    "link_img": "https://live.staticflickr.com/65535/50039127048_be6ae469d2_o.jpg",
    "id_image": "Landscape_324147",
    "count_view": 0
  },
  {
    "link_thumb": "https://live.staticflickr.com/65535/50041593541_37027a1073_n.jpg",
    "id_album": "-1675918237",
    "description": "WomenWarrior_985659",
    "title": "WomenWarrior_985659",
    "link_img": "https://live.staticflickr.com/65535/50041593541_37efdfa449_o.jpg",
    "id_image": "WomenWarrior_985659",
    "count_view": 0
  },
  {
    "link_thumb": "https://live.staticflickr.com/65535/50040471921_487797ff8c_n.jpg",
    "id_album": "1613540653",
    "description": "Space_172125",
    "title": "Space_172125",
    "link_img": "https://live.staticflickr.com/65535/50040471921_7b787a1698_o.jpg",
    "id_image": "Space_172125",
    "count_view": 0
  },
  {
    "link_thumb": "https://live.staticflickr.com/65535/50040282571_49416b28f9_n.jpg",
    "id_album": "779690680",
    "description": "Robot_291074",
    "title": "Robot_291074",
    "link_img": "https://live.staticflickr.com/65535/50040282571_3527398830_o.jpg",
    "id_image": "Robot_291074",
    "count_view": 0
  },
  {
    "link_thumb": "https://live.staticflickr.com/65535/50038747338_06160ef0c9_n.jpg",
    "id_album": "523598895",
    "description": "Artistic_117138",
    "title": "Artistic_117138",
    "link_img": "https://live.staticflickr.com/65535/50038747338_45748feee7_o.jpg",
    "id_image": "Artistic_117138",
    "count_view": 0
  },
  {
    "link_thumb": "https://live.staticflickr.com/65535/50040717536_46e8d5bc09_n.jpg",
    "id_album": "2130067313",
    "description": "Spaceship_563565",
    "title": "Spaceship_563565",
    "link_img": "https://live.staticflickr.com/65535/50040717536_d32ba9ea86_o.jpg",
    "id_image": "Spaceship_563565",
    "count_view": 0
  },
  {
    "link_thumb": "https://live.staticflickr.com/65535/50039142478_b59b1afcb9_n.jpg",
    "id_album": "1402713104",
    "description": "Landscape_522893",
    "title": "Landscape_522893",
    "link_img": "https://live.staticflickr.com/65535/50039142478_c4c74a46ae_o.jpg",
    "id_image": "Landscape_522893",
    "count_view": 0
  },
  {
    "link_thumb": "https://live.staticflickr.com/65535/50040107802_9420c59c77_n.jpg",
    "id_album": "-1610342324",
    "description": "Nebula_843862",
    "title": "Nebula_843862",
    "link_img": "https://live.staticflickr.com/65535/50040107802_f75a34e81f_o.jpg",
    "id_image": "Nebula_843862",
    "count_view": 0
  },
  {
    "link_thumb": "https://live.staticflickr.com/65535/50040117033_4f9cae898b_n.jpg",
    "id_album": "2130067313",
    "description": "Spaceship_377029",
    "title": "Spaceship_377029",
    "link_img": "https://live.staticflickr.com/65535/50040117033_d37dee069b_o.jpg",
    "id_image": "Spaceship_377029",
    "count_view": 0
  },
  {
    "link_thumb": "https://live.staticflickr.com/65535/50040356092_501eec8bf6_n.jpg",
    "id_album": "-1102314093",
    "description": "Planets_350803",
    "title": "Planets_350803",
    "link_img": "https://live.staticflickr.com/65535/50040356092_7f4da54dca_o.jpg",
    "id_image": "Planets_350803",
    "count_view": 0
  },
  {
    "link_thumb": "https://live.staticflickr.com/65535/50040397256_6709c74dec_n.jpg",
    "id_album": "779690680",
    "description": "Robot_894433",
    "title": "Robot_894433",
    "link_img": "https://live.staticflickr.com/65535/50040397256_8c7a4a836a_o.jpg",
    "id_image": "Robot_894433",
    "count_view": 0
  },
  {
    "link_thumb": "https://live.staticflickr.com/65535/50040100707_acface6235_n.jpg",
    "id_album": "-1610342324",
    "description": "Nebula_78849",
    "title": "Nebula_78849",
    "link_img": "https://live.staticflickr.com/65535/50040100707_fb0a85bdd4_o.jpg",
    "id_image": "Nebula_78849",
    "count_view": 0
  },
  {
    "link_thumb": "https://live.staticflickr.com/65535/50040883362_1acbd3ea68_n.jpg",
    "id_album": "2130067313",
    "description": "Spaceship_274051",
    "title": "Spaceship_274051",
    "link_img": "https://live.staticflickr.com/65535/50040883362_c7b5cc7c05_o.jpg",
    "id_image": "Spaceship_274051",
    "count_view": 0
  },
  {
    "link_thumb": "https://live.staticflickr.com/65535/50039397176_db2da79073_n.jpg",
    "id_album": "1187037014",
    "description": "Battle_244227",
    "title": "Battle_244227",
    "link_img": "https://live.staticflickr.com/65535/50039397176_3f2cbdd588_o.jpg",
    "id_image": "Battle_244227",
    "count_view": 0
  },
  {
    "link_thumb": "https://live.staticflickr.com/65535/50038915028_b61b2ae425_n.jpg",
    "id_album": "-1964113117",
    "description": "City_331642",
    "title": "City_331642",
    "link_img": "https://live.staticflickr.com/65535/50038915028_cecd0f16a6_o.jpg",
    "id_image": "City_331642",
    "count_view": 0
  },
  {
    "link_thumb": "https://live.staticflickr.com/65535/50040743793_e6147cb1de_n.jpg",
    "id_album": "1267121215",
    "description": "Steampunk_199576",
    "title": "Steampunk_199576",
    "link_img": "https://live.staticflickr.com/65535/50040743793_223ce8a47c_o.jpg",
    "id_image": "Steampunk_199576",
    "count_view": 0
  },
  {
    "link_thumb": "https://live.staticflickr.com/65535/50038857428_b704cdbe9a_n.jpg",
    "id_album": "1187037014",
    "description": "Battle_658752",
    "title": "Battle_658752",
    "link_img": "https://live.staticflickr.com/65535/50038857428_1f0f689db0_o.jpg",
    "id_image": "Battle_658752",
    "count_view": 0
  },
  {
    "link_thumb": "https://live.staticflickr.com/65535/50038981368_0aff23b644_n.jpg",
    "id_album": "-1964113117",
    "description": "City_972181",
    "title": "City_972181",
    "link_img": "https://live.staticflickr.com/65535/50038981368_362f356578_o.jpg",
    "id_image": "City_972181",
    "count_view": 0
  },
  {
    "link_thumb": "https://live.staticflickr.com/65535/50040853703_2c1c906ace_n.jpg",
    "id_album": "2020068132",
    "description": "Vehicle_616889",
    "title": "Vehicle_616889",
    "link_img": "https://live.staticflickr.com/65535/50040853703_3e3b17d993_o.jpg",
    "id_image": "Vehicle_616889",
    "count_view": 0
  },
  {
    "link_thumb": "https://live.staticflickr.com/65535/50039578642_8ffe44b1af_n.jpg",
    "id_album": "523598895",
    "description": "Artistic_221032",
    "title": "Artistic_221032",
    "link_img": "https://live.staticflickr.com/65535/50039578642_3f4fe0a470_o.jpg",
    "id_image": "Artistic_221032",
    "count_view": 0
  },
  {
    "link_thumb": "https://live.staticflickr.com/65535/50039160673_9981b5bff9_n.jpg",
    "id_album": "1402713104",
    "description": "Landscape_842682",
    "title": "Landscape_842682",
    "link_img": "https://live.staticflickr.com/65535/50039160673_a6c80ca108_o.jpg",
    "id_image": "Landscape_842682",
    "count_view": 0
  },
  {
    "link_thumb": "https://live.staticflickr.com/65535/50041703522_decf9a1324_n.jpg",
    "id_album": "-1261420436",
    "description": "Warrior_269387",
    "title": "Warrior_269387",
    "link_img": "https://live.staticflickr.com/65535/50041703522_aa2296e982_o.jpg",
    "id_image": "Warrior_269387",
    "count_view": 0
  },
  {
    "link_thumb": "https://live.staticflickr.com/65535/50039973138_84683b71a8_n.jpg",
    "id_album": "1613540653",
    "description": "Space_694407",
    "title": "Space_694407",
    "link_img": "https://live.staticflickr.com/65535/50039973138_d8b38fdded_o.jpg",
    "id_image": "Space_694407",
    "count_view": 0
  },
  {
    "link_thumb": "https://live.staticflickr.com/65535/50039687548_e4ddc203c8_n.jpg",
    "id_album": "-839602625",
    "description": "Predator_323988",
    "title": "Predator_323988",
    "link_img": "https://live.staticflickr.com/65535/50039687548_fb588cb08e_o.jpg",
    "id_image": "Predator_323988",
    "count_view": 0
  },
  {
    "link_thumb": "https://live.staticflickr.com/65535/50040113671_d537c478f9_n.jpg",
    "id_album": "-1102314093",
    "description": "Planets_426127",
    "title": "Planets_426127",
    "link_img": "https://live.staticflickr.com/65535/50040113671_d1cdd7fc6d_o.jpg",
    "id_image": "Planets_426127",
    "count_view": 0
  },
  {
    "link_thumb": "https://live.staticflickr.com/65535/50040442962_4ca930429e_n.jpg",
    "id_album": "376235057",
    "description": "Planetscape_614568",
    "title": "Planetscape_614568",
    "link_img": "https://live.staticflickr.com/65535/50040442962_27d9521b03_o.jpg",
    "id_image": "Planetscape_614568",
    "count_view": 0
  },
  {
    "link_thumb": "https://live.staticflickr.com/65535/50039985672_d4cfcf9e48_n.jpg",
    "id_album": "1402713104",
    "description": "Landscape_912943",
    "title": "Landscape_912943",
    "link_img": "https://live.staticflickr.com/65535/50039985672_5ed42d225e_o.jpg",
    "id_image": "Landscape_912943",
    "count_view": 0
  },
  {
    "link_thumb": "https://live.staticflickr.com/65535/50038958353_982575732e_n.jpg",
    "id_album": "-1964113117",
    "description": "City_864521",
    "title": "City_864521",
    "link_img": "https://live.staticflickr.com/65535/50038958353_d48e1e4bc3_o.jpg",
    "id_image": "City_864521",
    "count_view": 0
  },
  {
    "link_thumb": "https://live.staticflickr.com/65535/50039686906_bf14e49223_n.jpg",
    "id_album": "1402713104",
    "description": "Landscape_409690",
    "title": "Landscape_409690",
    "link_img": "https://live.staticflickr.com/65535/50039686906_f2c3b0c0f9_o.jpg",
    "id_image": "Landscape_409690",
    "count_view": 0
  },
  {
    "link_thumb": "https://live.staticflickr.com/65535/50040912168_321b4152fa_n.jpg",
    "id_album": "-1261420436",
    "description": "Warrior_507416",
    "title": "Warrior_507416",
    "link_img": "https://live.staticflickr.com/65535/50040912168_cd79a7dffc_o.jpg",
    "id_image": "Warrior_507416",
    "count_view": 0
  },
  {
    "link_thumb": "https://live.staticflickr.com/65535/50039541202_2cb33c409d_n.jpg",
    "id_album": "-419633230",
    "description": "Apocalyptic_157349",
    "title": "Apocalyptic_157349",
    "link_img": "https://live.staticflickr.com/65535/50039541202_ccbf05586e_o.jpg",
    "id_image": "Apocalyptic_157349",
    "count_view": 0
  },
  {
    "link_thumb": "https://live.staticflickr.com/65535/50039976428_d5643f899c_n.jpg",
    "id_album": "1613540653",
    "description": "Space_694472",
    "title": "Space_694472",
    "link_img": "https://live.staticflickr.com/65535/50039976428_6f020a2710_o.jpg",
    "id_image": "Space_694472",
    "count_view": 0
  },
  {
    "link_thumb": "https://live.staticflickr.com/65535/50041070682_63e73cdb70_n.jpg",
    "id_album": "-1449720967",
    "description": "StarTrek_207165",
    "title": "StarTrek_207165",
    "link_img": "https://live.staticflickr.com/65535/50041070682_d54226864f_o.jpg",
    "id_image": "StarTrek_207165",
    "count_view": 0
  },
  {
    "link_thumb": "https://live.staticflickr.com/65535/50039733941_47c389e95c_n.jpg",
    "id_album": "-1388385651",
    "description": "MilkyWay_555696",
    "title": "MilkyWay_555696",
    "link_img": "https://live.staticflickr.com/65535/50039733941_eb09d7329b_o.jpg",
    "id_image": "MilkyWay_555696",
    "count_view": 0
  },
  {
    "link_thumb": "https://live.staticflickr.com/65535/50039130268_08d946947b_n.jpg",
    "id_album": "1402713104",
    "description": "Landscape_335535",
    "title": "Landscape_335535",
    "link_img": "https://live.staticflickr.com/65535/50039130268_32b0b07567_o.jpg",
    "id_image": "Landscape_335535",
    "count_view": 0
  },
  {
    "link_thumb": "https://live.staticflickr.com/65535/50040454242_71ed43fb5b_n.jpg",
    "id_album": "-482547208",
    "description": "PostApocalyptic_118751",
    "title": "PostApocalyptic_118751",
    "link_img": "https://live.staticflickr.com/65535/50040454242_01c9c5432b_o.jpg",
    "id_image": "PostApocalyptic_118751",
    "count_view": 0
  },
  {
    "link_thumb": "https://live.staticflickr.com/65535/50039380666_98690961d5_n.jpg",
    "id_album": "869545341",
    "description": "Astronaut_924284",
    "title": "Astronaut_924284",
    "link_img": "https://live.staticflickr.com/65535/50039380666_bfd2af50bd_o.jpg",
    "id_image": "Astronaut_924284",
    "count_view": 0
  },
  {
    "link_thumb": "https://live.staticflickr.com/65535/50039844313_452374ce22_n.jpg",
    "id_album": "779690680",
    "description": "Robot_894436",
    "title": "Robot_894436",
    "link_img": "https://live.staticflickr.com/65535/50039844313_5cdd645ff1_o.jpg",
    "id_image": "Robot_894436",
    "count_view": 0
  },
  {
    "link_thumb": "https://live.staticflickr.com/65535/50039869987_d6190761a5_n.jpg",
    "id_album": "651930207",
    "description": "Explosion_163941",
    "title": "Explosion_163941",
    "link_img": "https://live.staticflickr.com/65535/50039869987_ea9899d80f_o.jpg",
    "id_image": "Explosion_163941",
    "count_view": 0
  },
  {
    "link_thumb": "https://live.staticflickr.com/65535/50040210416_44cc55272c_n.jpg",
    "id_album": "-482547208",
    "description": "PostApocalyptic_44251",
    "title": "PostApocalyptic_44251",
    "link_img": "https://live.staticflickr.com/65535/50040210416_c5e8b2c7ac_o.jpg",
    "id_image": "PostApocalyptic_44251",
    "count_view": 0
  },
  {
    "link_thumb": "https://live.staticflickr.com/65535/50039880307_5eb75febf4_n.jpg",
    "id_album": "2104507156",
    "description": "Fantasy_176577",
    "title": "Fantasy_176577",
    "link_img": "https://live.staticflickr.com/65535/50039880307_884c509da7_o.jpg",
    "id_image": "Fantasy_176577",
    "count_view": 0
  },
  {
    "link_thumb": "https://live.staticflickr.com/65535/50039864207_4a21a66f08_n.jpg",
    "id_album": "829169633",
    "description": "Cyborg_753464",
    "title": "Cyborg_753464",
    "link_img": "https://live.staticflickr.com/65535/50039864207_ebfb57f9a2_o.jpg",
    "id_image": "Cyborg_753464",
    "count_view": 0
  },
  {
    "link_thumb": "https://live.staticflickr.com/65535/50039759181_ba490e2ebe_n.jpg",
    "id_album": "416351698",
    "description": "Moon_938354",
    "title": "Moon_938354",
    "link_img": "https://live.staticflickr.com/65535/50039759181_8bbdc3f4f1_o.jpg",
    "id_image": "Moon_938354",
    "count_view": 0
  },
  {
    "link_thumb": "https://live.staticflickr.com/65535/50039620361_65a4704f27_n.jpg",
    "id_album": "2104507156",
    "description": "Fantasy_284941",
    "title": "Fantasy_284941",
    "link_img": "https://live.staticflickr.com/65535/50039620361_216155a632_o.jpg",
    "id_image": "Fantasy_284941",
    "count_view": 0
  },
  {
    "link_thumb": "https://live.staticflickr.com/65535/50039788876_2dafc3c8c4_n.jpg",
    "id_album": "-1610342324",
    "description": "Nebula_375092",
    "title": "Nebula_375092",
    "link_img": "https://live.staticflickr.com/65535/50039788876_4fdaf184d7_o.jpg",
    "id_image": "Nebula_375092",
    "count_view": 0
  },
  {
    "link_thumb": "https://live.staticflickr.com/65535/50040044597_b546b030c6_n.jpg",
    "id_album": "-1610342324",
    "description": "Nebula_283288",
    "title": "Nebula_283288",
    "link_img": "https://live.staticflickr.com/65535/50040044597_77bf53ddea_o.jpg",
    "id_image": "Nebula_283288",
    "count_view": 0
  },
  {
    "link_thumb": "https://live.staticflickr.com/65535/50039411781_d46fc7b568_n.jpg",
    "id_album": "-1780971522",
    "description": "Biohazard_300087",
    "title": "Biohazard_300087",
    "link_img": "https://live.staticflickr.com/65535/50039411781_42fb0e37ca_o.jpg",
    "id_image": "Biohazard_300087",
    "count_view": 0
  },
  {
    "link_thumb": "https://live.staticflickr.com/65535/50040625123_f3b8035da6_n.jpg",
    "id_album": "-1863373220",
    "description": "StarWars_412935",
    "title": "StarWars_412935",
    "link_img": "https://live.staticflickr.com/65535/50040625123_e9d0a0485b_o.jpg",
    "id_image": "StarWars_412935",
    "count_view": 0
  },
  {
    "link_thumb": "https://live.staticflickr.com/65535/50040672268_07bae52741_n.jpg",
    "id_album": "-1863373220",
    "description": "StarWars_811462",
    "title": "StarWars_811462",
    "link_img": "https://live.staticflickr.com/65535/50040672268_946d6588b7_o.jpg",
    "id_image": "StarWars_811462",
    "count_view": 0
  },
  {
    "link_thumb": "https://live.staticflickr.com/65535/50039213588_7936e91ede_n.jpg",
    "id_album": "-1610342324",
    "description": "Nebula_149656",
    "title": "Nebula_149656",
    "link_img": "https://live.staticflickr.com/65535/50039213588_79357aae6c_o.jpg",
    "id_image": "Nebula_149656",
    "count_view": 0
  },
  {
    "link_thumb": "https://live.staticflickr.com/65535/50039837506_b04f773966_n.jpg",
    "id_album": "-1610342324",
    "description": "Nebula_792646",
    "title": "Nebula_792646",
    "link_img": "https://live.staticflickr.com/65535/50039837506_63d4131d9d_o.jpg",
    "id_image": "Nebula_792646",
    "count_view": 0
  },
  {
    "link_thumb": "https://live.staticflickr.com/65535/50039667357_1b291c16c8_n.jpg",
    "id_album": "1187037014",
    "description": "Battle_615954",
    "title": "Battle_615954",
    "link_img": "https://live.staticflickr.com/65535/50039667357_d77a41ae63_o.jpg",
    "id_image": "Battle_615954",
    "count_view": 0
  },
  {
    "link_thumb": "https://live.staticflickr.com/65535/50041218681_8e7295e89e_n.jpg",
    "id_album": "-1863373220",
    "description": "StarWars_714561",
    "title": "StarWars_714561",
    "link_img": "https://live.staticflickr.com/65535/50041218681_2131b43da0_o.jpg",
    "id_image": "StarWars_714561",
    "count_view": 0
  },
  {
    "link_thumb": "https://live.staticflickr.com/65535/50039312196_3dfb1382bc_n.jpg",
    "id_album": "523598895",
    "description": "Artistic_206027",
    "title": "Artistic_206027",
    "link_img": "https://live.staticflickr.com/65535/50039312196_3fa1df6574_o.jpg",
    "id_image": "Artistic_206027",
    "count_view": 0
  },
  {
    "link_thumb": "https://live.staticflickr.com/65535/50039749617_b57e1ddccf_n.jpg",
    "id_album": "-1964113117",
    "description": "City_681245",
    "title": "City_681245",
    "link_img": "https://live.staticflickr.com/65535/50039749617_536c1cede9_o.jpg",
    "id_image": "City_681245",
    "count_view": 0
  },
  {
    "link_thumb": "https://live.staticflickr.com/65535/50039727131_a5596e3193_n.jpg",
    "id_album": "1402713104",
    "description": "Landscape_955684",
    "title": "Landscape_955684",
    "link_img": "https://live.staticflickr.com/65535/50039727131_ef23286909_o.jpg",
    "id_image": "Landscape_955684",
    "count_view": 0
  },
  {
    "link_thumb": "https://live.staticflickr.com/65535/50040323891_0f76d1fb06_n.jpg",
    "id_album": "779690680",
    "description": "Robot_464984",
    "title": "Robot_464984",
    "link_img": "https://live.staticflickr.com/65535/50040323891_4bf700e62b_o.jpg",
    "id_image": "Robot_464984",
    "count_view": 0
  },
  {
    "link_thumb": "https://live.staticflickr.com/65535/50040429081_e06002b649_n.jpg",
    "id_album": "779690680",
    "description": "Robot_931802",
    "title": "Robot_931802",
    "link_img": "https://live.staticflickr.com/65535/50040429081_40043d07b0_o.jpg",
    "id_image": "Robot_931802",
    "count_view": 0
  },
  {
    "link_thumb": "https://live.staticflickr.com/65535/50039556016_0d6426cbd6_n.jpg",
    "id_album": "-437872736",
    "description": "Creature_401981",
    "title": "Creature_401981",
    "link_img": "https://live.staticflickr.com/65535/50039556016_2679f226f2_o.jpg",
    "id_image": "Creature_401981",
    "count_view": 0
  },
  {
    "link_thumb": "https://live.staticflickr.com/65535/50040545467_9f3fe0a46e_n.jpg",
    "id_album": "779690680",
    "description": "Robot_283424",
    "title": "Robot_283424",
    "link_img": "https://live.staticflickr.com/65535/50040545467_6d66a0518f_o.jpg",
    "id_image": "Robot_283424",
    "count_view": 0
  },
  {
    "link_thumb": "https://live.staticflickr.com/65535/50040432711_07aa4f1ae8_n.jpg",
    "id_album": "779690680",
    "description": "Robot_936222",
    "title": "Robot_936222",
    "link_img": "https://live.staticflickr.com/65535/50040432711_b017466011_o.jpg",
    "id_image": "Robot_936222",
    "count_view": 0
  },
  {
    "link_thumb": "https://live.staticflickr.com/65535/50040554947_05015d646b_n.jpg",
    "id_album": "779690680",
    "description": "Robot_328761",
    "title": "Robot_328761",
    "link_img": "https://live.staticflickr.com/65535/50040554947_54505e737b_o.jpg",
    "id_image": "Robot_328761",
    "count_view": 0
  },
  {
    "link_thumb": "https://live.staticflickr.com/65535/50039245426_0d752812e5_n.jpg",
    "id_album": "849020728",
    "description": "Alien_133339",
    "title": "Alien_133339",
    "link_img": "https://live.staticflickr.com/65535/50039245426_831d62c485_o.jpg",
    "id_image": "Alien_133339",
    "count_view": 0
  },
  {
    "link_thumb": "https://live.staticflickr.com/65535/50039643182_287fdbc577_n.jpg",
    "id_album": "869545341",
    "description": "Astronaut_923969",
    "title": "Astronaut_923969",
    "link_img": "https://live.staticflickr.com/65535/50039643182_36169e3746_o.jpg",
    "id_image": "Astronaut_923969",
    "count_view": 0
  },
  {
    "link_thumb": "https://live.staticflickr.com/65535/50039689447_05e58c3ced_n.jpg",
    "id_album": "406431601",
    "description": "Building_918215",
    "title": "Building_918215",
    "link_img": "https://live.staticflickr.com/65535/50039689447_bd608cdf1b_o.jpg",
    "id_image": "Building_918215",
    "count_view": 0
  },
  {
    "link_thumb": "https://live.staticflickr.com/65535/50038745113_1e5e1d9863_n.jpg",
    "id_album": "523598895",
    "description": "Artistic_109105",
    "title": "Artistic_109105",
    "link_img": "https://live.staticflickr.com/65535/50038745113_c7b2f95a2e_o.jpg",
    "id_image": "Artistic_109105",
    "count_view": 0
  },
  {
    "link_thumb": "https://live.staticflickr.com/65535/50038935373_e1da1aa759_n.jpg",
    "id_album": "-1964113117",
    "description": "City_649506",
    "title": "City_649506",
    "link_img": "https://live.staticflickr.com/65535/50038935373_e2b4950c31_o.jpg",
    "id_image": "City_649506",
    "count_view": 0
  },
  {
    "link_thumb": "https://live.staticflickr.com/65535/50040002151_4a15fd6d51_n.jpg",
    "id_album": "1443611160",
    "description": "PlanetRise_337274",
    "title": "PlanetRise_337274",
    "link_img": "https://live.staticflickr.com/65535/50040002151_792d5328b3_o.jpg",
    "id_image": "PlanetRise_337274",
    "count_view": 0
  },
  {
    "link_thumb": "https://live.staticflickr.com/65535/50038788533_f233b38995_n.jpg",
    "id_album": "523598895",
    "description": "Artistic_455665",
    "title": "Artistic_455665",
    "link_img": "https://live.staticflickr.com/65535/50038788533_d5563121e4_o.jpg",
    "id_image": "Artistic_455665",
    "count_view": 0
  },
  {
    "link_thumb": "https://live.staticflickr.com/65535/50040886897_3dc03c6811_n.jpg",
    "id_album": "2130067313",
    "description": "Spaceship_280885",
    "title": "Spaceship_280885",
    "link_img": "https://live.staticflickr.com/65535/50040886897_3a3d7be410_o.jpg",
    "id_image": "Spaceship_280885",
    "count_view": 0
  },
  {
    "link_thumb": "https://live.staticflickr.com/65535/50038985263_fb9a017570_n.jpg",
    "id_album": "-1964113117",
    "description": "City_996545",
    "title": "City_996545",
    "link_img": "https://live.staticflickr.com/65535/50038985263_7a1f2cdfd0_o.jpg",
    "id_image": "City_996545",
    "count_view": 0
  },
  {
    "link_thumb": "https://live.staticflickr.com/65535/50039737907_ae449e1c78_n.jpg",
    "id_album": "-1964113117",
    "description": "City_527919",
    "title": "City_527919",
    "link_img": "https://live.staticflickr.com/65535/50039737907_7842915ba9_o.jpg",
    "id_image": "City_527919",
    "count_view": 0
  },
  {
    "link_thumb": "https://live.staticflickr.com/65535/50041509027_9d3e55fc83_n.jpg",
    "id_album": "-1863373220",
    "description": "StarWars_969634",
    "title": "StarWars_969634",
    "link_img": "https://live.staticflickr.com/65535/50041509027_a8b123f895_o.jpg",
    "id_image": "StarWars_969634",
    "count_view": 0
  },
  {
    "link_thumb": "https://live.staticflickr.com/65535/50040657162_3800ae30c4_n.jpg",
    "id_album": "779690680",
    "description": "Robot_884809",
    "title": "Robot_884809",
    "link_img": "https://live.staticflickr.com/65535/50040657162_79cb073feb_o.jpg",
    "id_image": "Robot_884809",
    "count_view": 0
  },
  {
    "link_thumb": "https://live.staticflickr.com/65535/50040666047_4dc4fff5ec_n.jpg",
    "id_album": "779690680",
    "description": "Robot_903931",
    "title": "Robot_903931",
    "link_img": "https://live.staticflickr.com/65535/50040666047_c0c1187224_o.jpg",
    "id_image": "Robot_903931",
    "count_view": 0
  },
  {
    "link_thumb": "https://live.staticflickr.com/65535/50040169257_8efe9a23ef_n.jpg",
    "id_album": "395161030",
    "description": "Planet_148654",
    "title": "Planet_148654",
    "link_img": "https://live.staticflickr.com/65535/50040169257_8be145677d_o.jpg",
    "id_image": "Planet_148654",
    "count_view": 0
  },
  {
    "link_thumb": "https://live.staticflickr.com/65535/50040561461_aa2a10c7ae_n.jpg",
    "id_album": "-1532370292",
    "description": "SpaceStation_669418",
    "title": "SpaceStation_669418",
    "link_img": "https://live.staticflickr.com/65535/50040561461_4d68259b2e_o.jpg",
    "id_image": "SpaceStation_669418",
    "count_view": 0
  },
  {
    "link_thumb": "https://live.staticflickr.com/65535/50040760957_6304788c9a_n.jpg",
    "id_album": "1613540653",
    "description": "Space_335428",
    "title": "Space_335428",
    "link_img": "https://live.staticflickr.com/65535/50040760957_bd1ba9a476_o.jpg",
    "id_image": "Space_335428",
    "count_view": 0
  },
  {
    "link_thumb": "https://live.staticflickr.com/65535/50039352843_52494b4a59_n.jpg",
    "id_album": "395161030",
    "description": "Planet_1010650",
    "title": "Planet_1010650",
    "link_img": "https://live.staticflickr.com/65535/50039352843_fa78a6de02_o.jpg",
    "id_image": "Planet_1010650",
    "count_view": 0
  },
  {
    "link_thumb": "https://live.staticflickr.com/65535/50039424846_0181c86c19_n.jpg",
    "id_album": "406431601",
    "description": "Building_872518",
    "title": "Building_872518",
    "link_img": "https://live.staticflickr.com/65535/50039424846_7a672d67ed_o.jpg",
    "id_image": "Building_872518",
    "count_view": 0
  },
  {
    "link_thumb": "https://live.staticflickr.com/65535/50039652952_4d8fb09989_n.jpg",
    "id_album": "869545341",
    "description": "Astronaut_987715",
    "title": "Astronaut_987715",
    "link_img": "https://live.staticflickr.com/65535/50039652952_4d8426db51_o.jpg",
    "id_image": "Astronaut_987715",
    "count_view": 0
  },
  {
    "link_thumb": "https://live.staticflickr.com/65535/50039446256_cb1e9f3bb5_n.jpg",
    "id_album": "-1964113117",
    "description": "City_211679",
    "title": "City_211679",
    "link_img": "https://live.staticflickr.com/65535/50039446256_865b8825b9_o.jpg",
    "id_image": "City_211679",
    "count_view": 0
  },
  {
    "link_thumb": "https://live.staticflickr.com/65535/50039782291_0d57b419ff_n.jpg",
    "id_album": "-1610342324",
    "description": "Nebula_286785",
    "title": "Nebula_286785",
    "link_img": "https://live.staticflickr.com/65535/50039782291_17b266d001_o.jpg",
    "id_image": "Nebula_286785",
    "count_view": 0
  },
  {
    "link_thumb": "https://live.staticflickr.com/65535/50039828702_dbc34a72e4_n.jpg",
    "id_album": "-1372247677",
    "description": "Cyberpunk_920538",
    "title": "Cyberpunk_920538",
    "link_img": "https://live.staticflickr.com/65535/50039828702_29dd054236_o.jpg",
    "id_image": "Cyberpunk_920538",
    "count_view": 0
  },
  {
    "link_thumb": "https://live.staticflickr.com/65535/50040140682_84320e6169_n.jpg",
    "id_album": "869545341",
    "description": "Astronaut_712774",
    "title": "Astronaut_712774",
    "link_img": "https://live.staticflickr.com/65535/50040140682_b1abcfea14_o.jpg",
    "id_image": "Astronaut_712774",
    "count_view": 0
  },
  {
    "link_thumb": "https://live.staticflickr.com/65535/50039669196_c3b5fda5eb_n.jpg",
    "id_album": "1402713104",
    "description": "Landscape_281452",
    "title": "Landscape_281452",
    "link_img": "https://live.staticflickr.com/65535/50039669196_b6edef9653_o.jpg",
    "id_image": "Landscape_281452",
    "count_view": 0
  },
  {
    "link_thumb": "https://live.staticflickr.com/65535/50039391771_23c24e9842_n.jpg",
    "id_album": "869545341",
    "description": "Astronaut_994629",
    "title": "Astronaut_994629",
    "link_img": "https://live.staticflickr.com/65535/50039391771_f57cf1fa06_o.jpg",
    "id_image": "Astronaut_994629",
    "count_view": 0
  },
  {
    "link_thumb": "https://live.staticflickr.com/65535/50039087083_5911ec77a5_n.jpg",
    "id_album": "1204249541",
    "description": "Galaxy_450494",
    "title": "Galaxy_450494",
    "link_img": "https://live.staticflickr.com/65535/50039087083_b25c7d31f3_o.jpg",
    "id_image": "Galaxy_450494",
    "count_view": 0
  },
  {
    "link_thumb": "https://live.staticflickr.com/65535/50040668927_b95183e9f6_n.jpg",
    "id_album": "779690680",
    "description": "Robot_907939",
    "title": "Robot_907939",
    "link_img": "https://live.staticflickr.com/65535/50040668927_4beac9e5c3_o.jpg",
    "id_image": "Robot_907939",
    "count_view": 0
  },
  {
    "link_thumb": "https://live.staticflickr.com/65535/50040027742_e08a35d5ff_n.jpg",
    "id_album": "-1610342324",
    "description": "Nebula_173018",
    "title": "Nebula_173018",
    "link_img": "https://live.staticflickr.com/65535/50040027742_0a5b996ab6_o.jpg",
    "id_image": "Nebula_173018",
    "count_view": 0
  },
  {
    "link_thumb": "https://live.staticflickr.com/65535/50041035703_fa80d66784_n.jpg",
    "id_album": "-1675918237",
    "description": "WomenWarrior_882597",
    "title": "WomenWarrior_882597",
    "link_img": "https://live.staticflickr.com/65535/50041035703_5d286c510d_o.jpg",
    "id_image": "WomenWarrior_882597",
    "count_view": 0
  },
  {
    "link_thumb": "https://live.staticflickr.com/65535/50039894793_0f4c06a501_n.jpg",
    "id_album": "779690680",
    "description": "Robot_959318",
    "title": "Robot_959318",
    "link_img": "https://live.staticflickr.com/65535/50039894793_d1e579d2cd_o.jpg",
    "id_image": "Robot_959318",
    "count_view": 0
  },
  {
    "link_thumb": "https://live.staticflickr.com/65535/50039510317_83bcbe2d27_n.jpg",
    "id_album": "849020728",
    "description": "Alien_170327",
    "title": "Alien_170327",
    "link_img": "https://live.staticflickr.com/65535/50039510317_ce121a8a62_o.jpg",
    "id_image": "Alien_170327",
    "count_view": 0
  },
  {
    "link_thumb": "https://live.staticflickr.com/65535/50040079132_9157a4d09c_n.jpg",
    "id_album": "-1610342324",
    "description": "Nebula_594998",
    "title": "Nebula_594998",
    "link_img": "https://live.staticflickr.com/65535/50040079132_8598831e71_o.jpg",
    "id_image": "Nebula_594998",
    "count_view": 0
  },
  {
    "link_thumb": "https://live.staticflickr.com/65535/50040024307_5029efbd26_n.jpg",
    "id_album": "-1610342324",
    "description": "Nebula_103054",
    "title": "Nebula_103054",
    "link_img": "https://live.staticflickr.com/65535/50040024307_62cf128729_o.jpg",
    "id_image": "Nebula_103054",
    "count_view": 0
  },
  {
    "link_thumb": "https://live.staticflickr.com/65535/50040390787_b07ceb235c_n.jpg",
    "id_album": "-1102314093",
    "description": "Planets_609313",
    "title": "Planets_609313",
    "link_img": "https://live.staticflickr.com/65535/50040390787_9928fa040b_o.jpg",
    "id_image": "Planets_609313",
    "count_view": 0
  },
  {
    "link_thumb": "https://live.staticflickr.com/65535/50039965086_de9272243d_n.jpg",
    "id_album": "395161030",
    "description": "Planet_573212",
    "title": "Planet_573212",
    "link_img": "https://live.staticflickr.com/65535/50039965086_38217af4c0_o.jpg",
    "id_image": "Planet_573212",
    "count_view": 0
  },
  {
    "link_thumb": "https://live.staticflickr.com/65535/50040218071_7571b0c5f5_n.jpg",
    "id_album": "-482547208",
    "description": "PostApocalyptic_676803",
    "title": "PostApocalyptic_676803",
    "link_img": "https://live.staticflickr.com/65535/50040218071_27d329b9ea_o.jpg",
    "id_image": "PostApocalyptic_676803",
    "count_view": 0
  },
  {
    "link_thumb": "https://live.staticflickr.com/65535/50039461011_e01bf1c217_n.jpg",
    "id_album": "-1964113117",
    "description": "City_301681",
    "title": "City_301681",
    "link_img": "https://live.staticflickr.com/65535/50039461011_a64ced3f84_o.jpg",
    "id_image": "City_301681",
    "count_view": 0
  },
  {
    "link_thumb": "https://live.staticflickr.com/65535/50040265042_72f11fabf2_n.jpg",
    "id_album": "1443611160",
    "description": "PlanetRise_329591",
    "title": "PlanetRise_329591",
    "link_img": "https://live.staticflickr.com/65535/50040265042_36f7ff6843_o.jpg",
    "id_image": "PlanetRise_329591",
    "count_view": 0
  },
  {
    "link_thumb": "https://live.staticflickr.com/65535/50039318521_7a127f93c4_n.jpg",
    "id_album": "523598895",
    "description": "Artistic_222544",
    "title": "Artistic_222544",
    "link_img": "https://live.staticflickr.com/65535/50039318521_61cf585c72_o.jpg",
    "id_image": "Artistic_222544",
    "count_view": 0
  },
  {
    "link_thumb": "https://live.staticflickr.com/65535/50038842008_b22ccc7928_n.jpg",
    "id_album": "869545341",
    "description": "Astronaut_985948",
    "title": "Astronaut_985948",
    "link_img": "https://live.staticflickr.com/65535/50038842008_47ee383acf_o.jpg",
    "id_image": "Astronaut_985948",
    "count_view": 0
  },
  {
    "link_thumb": "https://live.staticflickr.com/65535/50039372561_8545cea783_n.jpg",
    "id_album": "869545341",
    "description": "Astronaut_857747",
    "title": "Astronaut_857747",
    "link_img": "https://live.staticflickr.com/65535/50039372561_5d3e19c018_o.jpg",
    "id_image": "Astronaut_857747",
    "count_view": 0
  },
  {
    "link_thumb": "https://live.staticflickr.com/65535/50040324017_579f4b6038_n.jpg",
    "id_album": "-1102314093",
    "description": "Planets_218404",
    "title": "Planets_218404",
    "link_img": "https://live.staticflickr.com/65535/50040324017_5f5a4d24ec_o.jpg",
    "id_image": "Planets_218404",
    "count_view": 0
  },
  {
    "link_thumb": "https://live.staticflickr.com/65535/50040597361_204ae7faab_n.jpg",
    "id_album": "2130067313",
    "description": "Spaceship_204513",
    "title": "Spaceship_204513",
    "link_img": "https://live.staticflickr.com/65535/50040597361_14dc183c05_o.jpg",
    "id_image": "Spaceship_204513",
    "count_view": 0
  },
  {
    "link_thumb": "https://live.staticflickr.com/65535/50038894148_df09026d8e_n.jpg",
    "id_album": "-1964113117",
    "description": "City_204567",
    "title": "City_204567",
    "link_img": "https://live.staticflickr.com/65535/50038894148_690deafb32_o.jpg",
    "id_image": "City_204567",
    "count_view": 0
  },
  {
    "link_thumb": "https://live.staticflickr.com/65535/50040240766_c45f7f363e_n.jpg",
    "id_album": "-839602625",
    "description": "Predator_333755",
    "title": "Predator_333755",
    "link_img": "https://live.staticflickr.com/65535/50040240766_50eec543dc_o.jpg",
    "id_image": "Predator_333755",
    "count_view": 0
  },
  {
    "link_thumb": "https://live.staticflickr.com/65535/50039071333_d017f84a0e_n.jpg",
    "id_album": "2104507156",
    "description": "Fantasy_316509",
    "title": "Fantasy_316509",
    "link_img": "https://live.staticflickr.com/65535/50039071333_d23a805d76_o.jpg",
    "id_image": "Fantasy_316509",
    "count_view": 0
  },
  {
    "link_thumb": "https://live.staticflickr.com/65535/50039085033_dcb319cbe4_n.jpg",
    "id_album": "1204249541",
    "description": "Galaxy_437551",
    "title": "Galaxy_437551",
    "link_img": "https://live.staticflickr.com/65535/50039085033_8d7c8d82fa_o.jpg",
    "id_image": "Galaxy_437551",
    "count_view": 0
  },
  {
    "link_thumb": "https://live.staticflickr.com/65535/50039079298_490f83c48b_n.jpg",
    "id_album": "1204249541",
    "description": "Galaxy_264715",
    "title": "Galaxy_264715",
    "link_img": "https://live.staticflickr.com/65535/50039079298_aa7389ec7f_o.jpg",
    "id_image": "Galaxy_264715",
    "count_view": 0
  },
  {
    "link_thumb": "https://live.staticflickr.com/65535/50039914722_19d5088bd7_n.jpg",
    "id_album": "1204249541",
    "description": "Galaxy_691001",
    "title": "Galaxy_691001",
    "link_img": "https://live.staticflickr.com/65535/50039914722_a5e4f0cafd_o.jpg",
    "id_image": "Galaxy_691001",
    "count_view": 0
  },
  {
    "link_thumb": "https://live.staticflickr.com/65535/50039871573_2eb8e0f53e_n.jpg",
    "id_album": "779690680",
    "description": "Robot_928640",
    "title": "Robot_928640",
    "link_img": "https://live.staticflickr.com/65535/50039871573_0d3b7599e7_o.jpg",
    "id_image": "Robot_928640",
    "count_view": 0
  },
  {
    "link_thumb": "https://live.staticflickr.com/65535/50040502442_4441c6e5ff_n.jpg",
    "id_album": "-839602625",
    "description": "Predator_196972",
    "title": "Predator_196972",
    "link_img": "https://live.staticflickr.com/65535/50040502442_50004744d3_o.jpg",
    "id_image": "Predator_196972",
    "count_view": 0
  },
  {
    "link_thumb": "https://live.staticflickr.com/65535/50040027082_2b1cf932b9_n.jpg",
    "id_album": "-1610342324",
    "description": "Nebula_15778",
    "title": "Nebula_15778",
    "link_img": "https://live.staticflickr.com/65535/50040027082_4a33495875_o.jpg",
    "id_image": "Nebula_15778",
    "count_view": 0
  },
  {
    "link_thumb": "https://live.staticflickr.com/65535/50040890022_e09b7845a6_n.jpg",
    "id_album": "2130067313",
    "description": "Spaceship_284576",
    "title": "Spaceship_284576",
    "link_img": "https://live.staticflickr.com/65535/50040890022_31c67c1b8d_o.jpg",
    "id_image": "Spaceship_284576",
    "count_view": 0
  },
  {
    "link_thumb": "https://live.staticflickr.com/65535/50038756353_65d0221b50_n.jpg",
    "id_album": "523598895",
    "description": "Artistic_175402",
    "title": "Artistic_175402",
    "link_img": "https://live.staticflickr.com/65535/50038756353_d373bc7fcd_o.jpg",
    "id_image": "Artistic_175402",
    "count_view": 0
  },
  {
    "link_thumb": "https://live.staticflickr.com/65535/50039583612_8bc93bf265_n.jpg",
    "id_album": "523598895",
    "description": "Artistic_236615",
    "title": "Artistic_236615",
    "link_img": "https://live.staticflickr.com/65535/50039583612_c20bcb0960_o.jpg",
    "id_image": "Artistic_236615",
    "count_view": 0
  },
  {
    "link_thumb": "https://live.staticflickr.com/65535/50041716207_2a5d85db84_n.jpg",
    "id_album": "-1261420436",
    "description": "Warrior_373914",
    "title": "Warrior_373914",
    "link_img": "https://live.staticflickr.com/65535/50041716207_426664449c_o.jpg",
    "id_image": "Warrior_373914",
    "count_view": 0
  },
  {
    "link_thumb": "https://live.staticflickr.com/65535/50040116002_eace02ddda_n.jpg",
    "id_album": "-1610342324",
    "description": "Nebula_916210",
    "title": "Nebula_916210",
    "link_img": "https://live.staticflickr.com/65535/50040116002_c0e18612c0_o.jpg",
    "id_image": "Nebula_916210",
    "count_view": 0
  },
  {
    "link_thumb": "https://live.staticflickr.com/65535/50040508637_d01911c1d5_n.jpg",
    "id_album": "-839602625",
    "description": "Predator_489946",
    "title": "Predator_489946",
    "link_img": "https://live.staticflickr.com/65535/50040508637_35e6920c8f_o.jpg",
    "id_image": "Predator_489946",
    "count_view": 0
  },
  {
    "link_thumb": "https://live.staticflickr.com/65535/50039216993_e3ac10c105_n.jpg",
    "id_album": "-1610342324",
    "description": "Nebula_192923",
    "title": "Nebula_192923",
    "link_img": "https://live.staticflickr.com/65535/50039216993_e442ddeecb_o.jpg",
    "id_image": "Nebula_192923",
    "count_view": 0
  },
  {
    "link_thumb": "https://live.staticflickr.com/65535/50039996866_66fcc9034b_n.jpg",
    "id_album": "1443611160",
    "description": "PlanetRise_159971",
    "title": "PlanetRise_159971",
    "link_img": "https://live.staticflickr.com/65535/50039996866_c98198d41b_o.jpg",
    "id_image": "PlanetRise_159971",
    "count_view": 0
  },
  {
    "link_thumb": "https://live.staticflickr.com/65535/50041246281_a67b101dd3_n.jpg",
    "id_album": "-1863373220",
    "description": "StarWars_972995",
    "title": "StarWars_972995",
    "link_img": "https://live.staticflickr.com/65535/50041246281_c426289fab_o.jpg",
    "id_image": "StarWars_972995",
    "count_view": 0
  },
  {
    "link_thumb": "https://live.staticflickr.com/65535/50039505486_417670b1cf_n.jpg",
    "id_album": "-1964113117",
    "description": "City_862704",
    "title": "City_862704",
    "link_img": "https://live.staticflickr.com/65535/50039505486_9ca3973435_o.jpg",
    "id_image": "City_862704",
    "count_view": 0
  },
  {
    "link_thumb": "https://live.staticflickr.com/65535/50039385053_c46ea66163_n.jpg",
    "id_album": "395161030",
    "description": "Planet_350452",
    "title": "Planet_350452",
    "link_img": "https://live.staticflickr.com/65535/50039385053_f2d40b96bf_o.jpg",
    "id_image": "Planet_350452",
    "count_view": 0
  },
  {
    "link_thumb": "https://live.staticflickr.com/65535/50039907468_a9cee9c566_n.jpg",
    "id_album": "1613540653",
    "description": "Space_106826",
    "title": "Space_106826",
    "link_img": "https://live.staticflickr.com/65535/50039907468_de3bc5c831_o.jpg",
    "id_image": "Space_106826",
    "count_view": 0
  }
]