[
  {
    "link_thumb": "https://live.staticflickr.com/65535/50040656482_b88b06ec3b_n.jpg",
    "id_album": "779690680",
    "description": "Robot_883165",
    "title": "Robot_883165",
    "link_img": "https://live.staticflickr.com/65535/50040656482_161b5b015b_o.jpg",
    "id_image": "Robot_883165",
    "count_view": 0
  },
  {
    "link_thumb": "https://live.staticflickr.com/65535/50040187356_0aa9aea747_n.jpg",
    "id_album": "-482547208",
    "description": "PostApocalyptic_1001692",
    "title": "PostApocalyptic_1001692",
    "link_img": "https://live.staticflickr.com/65535/50040187356_8a3483b44c_o.jpg",
    "id_image": "PostApocalyptic_1001692",
    "count_view": 0
  },
  {
    "link_thumb": "https://live.staticflickr.com/65535/50039568902_aff0566590_n.jpg",
    "id_album": "523598895",
    "description": "Artistic_184641",
    "title": "Artistic_184641",
    "link_img": "https://live.staticflickr.com/65535/50039568902_6b3dcbc222_o.jpg",
    "id_image": "Artistic_184641",
    "count_view": 0
  },
  {
    "link_thumb": "https://live.staticflickr.com/65535/50039497947_6116e7ddd0_n.jpg",
    "id_album": "-406145265",
    "description": "Aircraft_269232",
    "title": "Aircraft_269232",
    "link_img": "https://live.staticflickr.com/65535/50039497947_10750e8705_o.jpg",
    "id_image": "Aircraft_269232",
    "count_view": 0
  },
  {
    "link_thumb": "https://live.staticflickr.com/65535/50039516732_b85e06fdee_n.jpg",
    "id_album": "849020728",
    "description": "Alien_213653",
    "title": "Alien_213653",
    "link_img": "https://live.staticflickr.com/65535/50039516732_07513ccacb_o.jpg",
    "id_image": "Alien_213653",
    "count_view": 0
  },
  {
    "link_thumb": "https://live.staticflickr.com/65535/50039723868_dd4d7f61e0_n.jpg",
    "id_album": "779690680",
    "description": "Robot_262877",
    "title": "Robot_262877",
    "link_img": "https://live.staticflickr.com/65535/50039723868_46e35aca96_o.jpg",
    "id_image": "Robot_262877",
    "count_view": 0
  },
  {
    "link_thumb": "https://live.staticflickr.com/65535/50039851273_f55b51a7b6_n.jpg",
    "id_album": "779690680",
    "description": "Robot_907940",
    "title": "Robot_907940",
    "link_img": "https://live.staticflickr.com/65535/50039851273_248483de52_o.jpg",
    "id_image": "Robot_907940",
    "count_view": 0
  },
  {
    "link_thumb": "https://live.staticflickr.com/65535/50040653517_73ebf2beae_n.jpg",
    "id_album": "779690680",
    "description": "Robot_879757",
    "title": "Robot_879757",
    "link_img": "https://live.staticflickr.com/65535/50040653517_c7b5a7d349_o.jpg",
    "id_image": "Robot_879757",
    "count_view": 0
  },
  {
    "link_thumb": "https://live.staticflickr.com/65535/50041410742_94bdd69f48_n.jpg",
    "id_album": "-1863373220",
    "description": "StarWars_234667",
    "title": "StarWars_234667",
    "link_img": "https://live.staticflickr.com/65535/50041410742_01a90b1679_o.jpg",
    "id_image": "StarWars_234667",
    "count_view": 0
  },
  {
    "link_thumb": "https://live.staticflickr.com/65535/50040097252_711012a9c8_n.jpg",
    "id_album": "-1610342324",
    "description": "Nebula_77204",
    "title": "Nebula_77204",
    "link_img": "https://live.staticflickr.com/65535/50040097252_702811d354_o.jpg",
    "id_image": "Nebula_77204",
    "count_view": 0
  },
  {
    "link_thumb": "https://live.staticflickr.com/65535/50039445301_2c2b38c486_n.jpg",
    "id_album": "-1964113117",
    "description": "City_208677",
    "title": "City_208677",
    "link_img": "https://live.staticflickr.com/65535/50039445301_150035a513_o.jpg",
    "id_image": "City_208677",
    "count_view": 0
  },
  {
    "link_thumb": "https://live.staticflickr.com/65535/50040660178_cb7d490940_n.jpg",
    "id_album": "-1863373220",
    "description": "StarWars_670890",
    "title": "StarWars_670890",
    "link_img": "https://live.staticflickr.com/65535/50040660178_e4931bb587_o.jpg",
    "id_image": "StarWars_670890",
    "count_view": 0
  },
  {
    "link_thumb": "https://live.staticflickr.com/65535/50040465761_4b56e85575_n.jpg",
    "id_album": "1613540653",
    "description": "Space_118033",
    "title": "Space_118033",
    "link_img": "https://live.staticflickr.com/65535/50040465761_7b0a8449da_o.jpg",
    "id_image": "Space_118033",
    "count_view": 0
  },
  {
    "link_thumb": "https://live.staticflickr.com/65535/50039931833_0583e28360_n.jpg",
    "id_album": "1613540653",
    "description": "Space_286915",
    "title": "Space_286915",
    "link_img": "https://live.staticflickr.com/65535/50039931833_b924b676e3_o.jpg",
    "id_image": "Space_286915",
    "count_view": 0
  },
  {
    "link_thumb": "https://live.staticflickr.com/65535/50040178883_0693de2f47_n.jpg",
    "id_album": "2130067313",
    "description": "Spaceship_676807",
    "title": "Spaceship_676807",
    "link_img": "https://live.staticflickr.com/65535/50040178883_eb6c9a9001_o.jpg",
    "id_image": "Spaceship_676807",
    "count_view": 0
  },
  {
    "link_thumb": "https://live.staticflickr.com/65535/50039258993_1673b08626_n.jpg",
    "id_album": "-1610342324",
    "description": "Nebula_551112",
    "title": "Nebula_551112",
    "link_img": "https://live.staticflickr.com/65535/50039258993_1f9721ccf8_o.jpg",
    "id_image": "Nebula_551112",
    "count_view": 0
  },
  {
    "link_thumb": "https://live.staticflickr.com/65535/50038681068_4227c26570_n.jpg",
    "id_album": "280884763",
    "description": "Abstract_229063",
    "title": "Abstract_229063",
    "link_img": "https://live.staticflickr.com/65535/50038681068_4141d04e60_o.jpg",
    "id_image": "Abstract_229063",
    "count_view": 0
  },
  {
    "link_thumb": "https://live.staticflickr.com/65535/50040057042_e13531789a_n.jpg",
    "id_album": "-1610342324",
    "description": "Nebula_408841",
    "title": "Nebula_408841",
    "link_img": "https://live.staticflickr.com/65535/50040057042_cc4c2efdd0_o.jpg",
    "id_image": "Nebula_408841",
    "count_view": 0
  },
  {
    "link_thumb": "https://live.staticflickr.com/65535/50041375016_07acdb7ca5_n.jpg",
    "id_album": "2020068132",
    "description": "Vehicle_178452",
    "title": "Vehicle_178452",
    "link_img": "https://live.staticflickr.com/65535/50041375016_113e6d5951_o.jpg",
    "id_image": "Vehicle_178452",
    "count_view": 0
  },
  {
    "link_thumb": "https://live.staticflickr.com/65535/50039263683_c4254d0cd9_n.jpg",
    "id_album": "-1610342324",
    "description": "Nebula_585161",
    "title": "Nebula_585161",
    "link_img": "https://live.staticflickr.com/65535/50039263683_eed89b839b_o.jpg",
    "id_image": "Nebula_585161",
    "count_view": 0
  },
  {
    "link_thumb": "https://live.staticflickr.com/65535/50040170956_feb4bea691_n.jpg",
    "id_album": "376235057",
    "description": "Planetscape_384301",
    "title": "Planetscape_384301",
    "link_img": "https://live.staticflickr.com/65535/50040170956_be66a43688_o.jpg",
    "id_image": "Planetscape_384301",
    "count_view": 0
  },
  {
    "link_thumb": "https://live.staticflickr.com/65535/50039780046_ce81319363_n.jpg",
    "id_album": "-1610342324",
    "description": "Nebula_269799",
    "title": "Nebula_269799",
    "link_img": "https://live.staticflickr.com/65535/50039780046_0ba0bc53f2_o.jpg",
    "id_image": "Nebula_269799",
    "count_view": 0
  },
  {
    "link_thumb": "https://live.staticflickr.com/65535/50040214857_a7d3409e4b_n.jpg",
    "id_album": "395161030",
    "description": "Planet_450504",
    "title": "Planet_450504",
    "link_img": "https://live.staticflickr.com/65535/50040214857_0089e54cd0_o.jpg",
    "id_image": "Planet_450504",
    "count_view": 0
  },
  {
    "link_thumb": "https://live.staticflickr.com/65535/50039248726_17ab597e17_n.jpg",
    "id_album": "849020728",
    "description": "Alien_178710",
    "title": "Alien_178710",
    "link_img": "https://live.staticflickr.com/65535/50039248726_51fc613551_o.jpg",
    "id_image": "Alien_178710",
    "count_view": 0
  },
  {
    "link_thumb": "https://live.staticflickr.com/65535/50040662906_c0c261aa88_n.jpg",
    "id_album": "2130067313",
    "description": "Spaceship_354523",
    "title": "Spaceship_354523",
    "link_img": "https://live.staticflickr.com/65535/50040662906_a30b01f27d_o.jpg",
    "id_image": "Spaceship_354523",
    "count_view": 0
  },
  {
    "link_thumb": "https://live.staticflickr.com/65535/50041761272_cc23a16fd6_n.jpg",
    "id_album": "-1261420436",
    "description": "Warrior_987335",
    "title": "Warrior_987335",
    "link_img": "https://live.staticflickr.com/65535/50041761272_3241bb6f40_o.jpg",
    "id_image": "Warrior_987335",
    "count_view": 0
  },
  {
    "link_thumb": "https://live.staticflickr.com/65535/50040743628_fefefee7d3_n.jpg",
    "id_album": "1267121215",
    "description": "Steampunk_199575",
    "title": "Steampunk_199575",
    "link_img": "https://live.staticflickr.com/65535/50040743628_3fb4bcb757_o.jpg",
    "id_image": "Steampunk_199575",
    "count_view": 0
  },
  {
    "link_thumb": "https://live.staticflickr.com/65535/50039701372_e9878ddb9d_n.jpg",
    "id_album": "-1964113117",
    "description": "City_166533",
    "title": "City_166533",
    "link_img": "https://live.staticflickr.com/65535/50039701372_73ed006f4a_o.jpg",
    "id_image": "City_166533",
    "count_view": 0
  },
  {
    "link_thumb": "https://live.staticflickr.com/65535/50040039368_50c7315103_n.jpg",
    "id_album": "2130067313",
    "description": "Spaceship_191663",
    "title": "Spaceship_191663",
    "link_img": "https://live.staticflickr.com/65535/50040039368_39f76fae06_o.jpg",
    "id_image": "Spaceship_191663",
    "count_view": 0
  },
  {
    "link_thumb": "https://live.staticflickr.com/65535/50039898297_d5da53a109_n.jpg",
    "id_album": "1204249541",
    "description": "Galaxy_441411",
    "title": "Galaxy_441411",
    "link_img": "https://live.staticflickr.com/65535/50039898297_519396b9e7_o.jpg",
    "id_image": "Galaxy_441411",
    "count_view": 0
  },
  {
    "link_thumb": "https://live.staticflickr.com/65535/50040530942_b184a2180f_n.jpg",
    "id_album": "779690680",
    "description": "Robot_220391",
    "title": "Robot_220391",
    "link_img": "https://live.staticflickr.com/65535/50040530942_8de1667d3d_o.jpg",
    "id_image": "Robot_220391",
    "count_view": 0
  },
  {
    "link_thumb": "https://live.staticflickr.com/65535/50040652052_ffdf349d86_n.jpg",
    "id_album": "779690680",
    "description": "Robot_877462",
    "title": "Robot_877462",
    "link_img": "https://live.staticflickr.com/65535/50040652052_35f24d94f9_o.jpg",
    "id_image": "Robot_877462",
    "count_view": 0
  },
  {
    "link_thumb": "https://live.staticflickr.com/65535/50039479448_fc3df06820_n.jpg",
    "id_album": "814701616",
    "description": "PlanetaryRing_355071",
    "title": "PlanetaryRing_355071",
    "link_img": "https://live.staticflickr.com/65535/50039479448_36d6908422_o.jpg",
    "id_image": "PlanetaryRing_355071",
    "count_view": 0
  },
  {
    "link_thumb": "https://live.staticflickr.com/65535/50040507156_1cd05fd48a_n.jpg",
    "id_album": "1613540653",
    "description": "Space_438211",
    "title": "Space_438211",
    "link_img": "https://live.staticflickr.com/65535/50040507156_723a4a265c_o.jpg",
    "id_image": "Space_438211",
    "count_view": 0
  },
  {
    "link_thumb": "https://live.staticflickr.com/65535/50040056677_79199d270f_n.jpg",
    "id_album": "-1610342324",
    "description": "Nebula_401364",
    "title": "Nebula_401364",
    "link_img": "https://live.staticflickr.com/65535/50040056677_c600436aa1_o.jpg",
    "id_image": "Nebula_401364",
    "count_view": 0
  },
  {
    "link_thumb": "https://live.staticflickr.com/65535/50038916423_3743de74bb_n.jpg",
    "id_album": "-1964113117",
    "description": "City_345696",
    "title": "City_345696",
    "link_img": "https://live.staticflickr.com/65535/50038916423_e509f31ba1_o.jpg",
    "id_image": "City_345696",
    "count_view": 0
  },
  {
    "link_thumb": "https://live.staticflickr.com/65535/50041433671_aaab140aa1_n.jpg",
    "id_album": "-1261420436",
    "description": "Warrior_180932",
    "title": "Warrior_180932",
    "link_img": "https://live.staticflickr.com/65535/50041433671_8b6fd78516_o.jpg",
    "id_image": "Warrior_180932",
    "count_view": 0
  },
  {
    "link_thumb": "https://live.staticflickr.com/65535/50039114628_3a5f03e325_n.jpg",
    "id_album": "1402713104",
    "description": "Landscape_186055",
    "title": "Landscape_186055",
    "link_img": "https://live.staticflickr.com/65535/50039114628_5ae1ee65a5_o.jpg",
    "id_image": "Landscape_186055",
    "count_view": 0
  },
  {
    "link_thumb": "https://live.staticflickr.com/65535/50040516437_6a0488d52c_n.jpg",
    "id_album": "779690680",
    "description": "Robot_112627",
    "title": "Robot_112627",
    "link_img": "https://live.staticflickr.com/65535/50040516437_cd7725eaf2_o.jpg",
    "id_image": "Robot_112627",
    "count_view": 0
  },
  {
    "link_thumb": "https://live.staticflickr.com/65535/50038898673_b165cf8c4d_n.jpg",
    "id_album": "-1964113117",
    "description": "City_214563",
    "title": "City_214563",
    "link_img": "https://live.staticflickr.com/65535/50038898673_62ef458200_o.jpg",
    "id_image": "City_214563",
    "count_view": 0
  },
  {
    "link_thumb": "https://live.staticflickr.com/65535/50040545467_9f3fe0a46e_n.jpg",
    "id_album": "779690680",
    "description": "Robot_283424",
    "title": "Robot_283424",
    "link_img": "https://live.staticflickr.com/65535/50040545467_6d66a0518f_o.jpg",
    "id_image": "Robot_283424",
    "count_view": 0
  },
  {
    "link_thumb": "https://live.staticflickr.com/65535/50039549957_7dbc76ba19_n.jpg",
    "id_album": "-419633230",
    "description": "Apocalyptic_938299",
    "title": "Apocalyptic_938299",
    "link_img": "https://live.staticflickr.com/65535/50039549957_8a3488035a_o.jpg",
    "id_image": "Apocalyptic_938299",
    "count_view": 0
  },
  {
    "link_thumb": "https://live.staticflickr.com/65535/50040399191_55d61f7830_n.jpg",
    "id_album": "779690680",
    "description": "Robot_900261",
    "title": "Robot_900261",
    "link_img": "https://live.staticflickr.com/65535/50040399191_43e87dfa97_o.jpg",
    "id_image": "Robot_900261",
    "count_view": 0
  },
  {
    "link_thumb": "https://live.staticflickr.com/65535/50038926378_9c8e9c282e_n.jpg",
    "id_album": "-1964113117",
    "description": "City_527907",
    "title": "City_527907",
    "link_img": "https://live.staticflickr.com/65535/50038926378_ba02af5fac_o.jpg",
    "id_image": "City_527907",
    "count_view": 0
  },
  {
    "link_thumb": "https://live.staticflickr.com/65535/50040185647_e42b8c1f6a_n.jpg",
    "id_album": "395161030",
    "description": "Planet_275966",
    "title": "Planet_275966",
    "link_img": "https://live.staticflickr.com/65535/50040185647_156bedb0f6_o.jpg",
    "id_image": "Planet_275966",
    "count_view": 0
  },
  {
    "link_thumb": "https://live.staticflickr.com/65535/50040027082_2b1cf932b9_n.jpg",
    "id_album": "-1610342324",
    "description": "Nebula_15778",
    "title": "Nebula_15778",
    "link_img": "https://live.staticflickr.com/65535/50040027082_4a33495875_o.jpg",
    "id_image": "Nebula_15778",
    "count_view": 0
  },
  {
    "link_thumb": "https://live.staticflickr.com/65535/50040674467_4b97d5fb52_n.jpg",
    "id_album": "779690680",
    "description": "Robot_913018",
    "title": "Robot_913018",
    "link_img": "https://live.staticflickr.com/65535/50040674467_bba9b163a0_o.jpg",
    "id_image": "Robot_913018",
    "count_view": 0
  },
  {
    "link_thumb": "https://live.staticflickr.com/65535/50040187912_2f050760c0_n.jpg",
    "id_album": "395161030",
    "description": "Planet_286942",
    "title": "Planet_286942",
    "link_img": "https://live.staticflickr.com/65535/50040187912_3cb5e6f954_o.jpg",
    "id_image": "Planet_286942",
    "count_view": 0
  },
  {
    "link_thumb": "https://live.staticflickr.com/65535/50039502131_c93848c896_n.jpg",
    "id_album": "-1964113117",
    "description": "City_855864",
    "title": "City_855864",
    "link_img": "https://live.staticflickr.com/65535/50039502131_30c64a5b3f_o.jpg",
    "id_image": "City_855864",
    "count_view": 0
  },
  {
    "link_thumb": "https://live.staticflickr.com/65535/50040912373_73670ffd7d_n.jpg",
    "id_album": "-1261420436",
    "description": "Warrior_514705",
    "title": "Warrior_514705",
    "link_img": "https://live.staticflickr.com/65535/50040912373_a92c420ab1_o.jpg",
    "id_image": "Warrior_514705",
    "count_view": 0
  },
  {
    "link_thumb": "https://live.staticflickr.com/65535/50040571567_37c3b9d85e_n.jpg",
    "id_album": "779690680",
    "description": "Robot_423178",
    "title": "Robot_423178",
    "link_img": "https://live.staticflickr.com/65535/50040571567_4714004f1c_o.jpg",
    "id_image": "Robot_423178",
    "count_view": 0
  },
  {
    "link_thumb": "https://live.staticflickr.com/65535/50039895287_d398bf1d5d_n.jpg",
    "id_album": "1204249541",
    "description": "Galaxy_400007",
    "title": "Galaxy_400007",
    "link_img": "https://live.staticflickr.com/65535/50039895287_b9f22211a4_o.jpg",
    "id_image": "Galaxy_400007",
    "count_view": 0
  },
  {
    "link_thumb": "https://live.staticflickr.com/65535/50040502342_faeb0d4da3_n.jpg",
    "id_album": "-839602625",
    "description": "Predator_180678",
    "title": "Predator_180678",
    "link_img": "https://live.staticflickr.com/65535/50040502342_d7d478f487_o.jpg",
    "id_image": "Predator_180678",
    "count_view": 0
  },
  {
    "link_thumb": "https://live.staticflickr.com/65535/50038934333_b245296864_n.jpg",
    "id_album": "-1964113117",
    "description": "City_649131",
    "title": "City_649131",
    "link_img": "https://live.staticflickr.com/65535/50038934333_16c5d3c7c4_o.jpg",
    "id_image": "City_649131",
    "count_view": 0
  },
  {
    "link_thumb": "https://live.staticflickr.com/65535/50038863058_74f234ff1d_n.jpg",
    "id_album": "-1780971522",
    "description": "Biohazard_274059",
    "title": "Biohazard_274059",
    "link_img": "https://live.staticflickr.com/65535/50038863058_08c7c56404_o.jpg",
    "id_image": "Biohazard_274059",
    "count_view": 0
  },
  {
    "link_thumb": "https://live.staticflickr.com/65535/50040453317_c91a88cb6c_n.jpg",
    "id_album": "-482547208",
    "description": "PostApocalyptic_112258",
    "title": "PostApocalyptic_112258",
    "link_img": "https://live.staticflickr.com/65535/50040453317_587d1fc75b_o.jpg",
    "id_image": "PostApocalyptic_112258",
    "count_view": 0
  },
  {
    "link_thumb": "https://live.staticflickr.com/65535/50039160573_47a5c5f2ff_n.jpg",
    "id_album": "1402713104",
    "description": "Landscape_84115",
    "title": "Landscape_84115",
    "link_img": "https://live.staticflickr.com/65535/50039160573_9f67191400_o.jpg",
    "id_image": "Landscape_84115",
    "count_view": 0
  },
  {
    "link_thumb": "https://live.staticflickr.com/65535/50040155801_ff4dba981a_n.jpg",
    "id_album": "376235057",
    "description": "Planetscape_286376",
    "title": "Planetscape_286376",
    "link_img": "https://live.staticflickr.com/65535/50040155801_a2f21a4e10_o.jpg",
    "id_image": "Planetscape_286376",
    "count_view": 0
  },
  {
    "link_thumb": "https://live.staticflickr.com/65535/50039372793_78dd178761_n.jpg",
    "id_album": "395161030",
    "description": "Planet_282797",
    "title": "Planet_282797",
    "link_img": "https://live.staticflickr.com/65535/50039372793_1f8fd63ab4_o.jpg",
    "id_image": "Planet_282797",
    "count_view": 0
  },
  {
    "link_thumb": "https://live.staticflickr.com/65535/50040454017_51cfca1589_n.jpg",
    "id_album": "-482547208",
    "description": "PostApocalyptic_115275",
    "title": "PostApocalyptic_115275",
    "link_img": "https://live.staticflickr.com/65535/50040454017_060a67d484_o.jpg",
    "id_image": "PostApocalyptic_115275",
    "count_view": 0
  },
  {
    "link_thumb": "https://live.staticflickr.com/65535/50040250261_09cb07f4e4_n.jpg",
    "id_album": "779690680",
    "description": "Robot_105332",
    "title": "Robot_105332",
    "link_img": "https://live.staticflickr.com/65535/50040250261_a35cca4f75_o.jpg",
    "id_image": "Robot_105332",
    "count_view": 0
  },
  {
    "link_thumb": "https://live.staticflickr.com/65535/50040377632_b6b2c45f16_n.jpg",
    "id_album": "-1102314093",
    "description": "Planets_425734",
    "title": "Planets_425734",
    "link_img": "https://live.staticflickr.com/65535/50040377632_01c2fff44e_o.jpg",
    "id_image": "Planets_425734",
    "count_view": 0
  },
  {
    "link_thumb": "https://live.staticflickr.com/65535/50041534947_fe70e54667_n.jpg",
    "id_album": "-1587696329",
    "description": "Stars_477456",
    "title": "Stars_477456",
    "link_img": "https://live.staticflickr.com/65535/50041534947_9b29b35ecd_o.jpg",
    "id_image": "Stars_477456",
    "count_view": 0
  },
  {
    "link_thumb": "https://live.staticflickr.com/65535/50039293823_dc167aa41d_n.jpg",
    "id_album": "-1610342324",
    "description": "Nebula_84045",
    "title": "Nebula_84045",
    "link_img": "https://live.staticflickr.com/65535/50039293823_ff1d9b3707_o.jpg",
    "id_image": "Nebula_84045",
    "count_view": 0
  },
  {
    "link_thumb": "https://live.staticflickr.com/65535/50040023862_8a0dde825f_n.jpg",
    "id_album": "-1610342324",
    "description": "Nebula_1009890",
    "title": "Nebula_1009890",
    "link_img": "https://live.staticflickr.com/65535/50040023862_70e21ca365_o.jpg",
    "id_image": "Nebula_1009890",
    "count_view": 0
  },
  {
    "link_thumb": "https://live.staticflickr.com/65535/50039738087_c1a0c07544_n.jpg",
    "id_album": "-1964113117",
    "description": "City_527920",
    "title": "City_527920",
    "link_img": "https://live.staticflickr.com/65535/50039738087_58be55d3f6_o.jpg",
    "id_image": "City_527920",
    "count_view": 0
  },
  {
    "link_thumb": "https://live.staticflickr.com/65535/50040465951_f31854b5e1_n.jpg",
    "id_album": "1613540653",
    "description": "Space_121041",
    "title": "Space_121041",
    "link_img": "https://live.staticflickr.com/65535/50040465951_3fb47c76dc_o.jpg",
    "id_image": "Space_121041",
    "count_view": 0
  },
  {
    "link_thumb": "https://live.staticflickr.com/65535/50040972882_cf1a89ab2b_n.jpg",
    "id_album": "2130067313",
    "description": "Spaceship_530267",
    "title": "Spaceship_530267",
    "link_img": "https://live.staticflickr.com/65535/50040972882_7e61524343_o.jpg",
    "id_image": "Spaceship_530267",
    "count_view": 0
  },
  {
    "link_thumb": "https://live.staticflickr.com/65535/50038895013_f0be286115_n.jpg",
    "id_album": "-1964113117",
    "description": "City_205966",
    "title": "City_205966",
    "link_img": "https://live.staticflickr.com/65535/50038895013_b836af654a_o.jpg",
    "id_image": "City_205966",
    "count_view": 0
  },
  {
    "link_thumb": "https://live.staticflickr.com/65535/50041590377_79ca5c6569_n.jpg",
    "id_album": "1267121215",
    "description": "Steampunk_711576",
    "title": "Steampunk_711576",
    "link_img": "https://live.staticflickr.com/65535/50041590377_627e9a7acc_o.jpg",
    "id_image": "Steampunk_711576",
    "count_view": 0
  },
  {
    "link_thumb": "https://live.staticflickr.com/65535/50040179061_be2d805ee8_n.jpg",
    "id_album": "376235057",
    "description": "Planetscape_648878",
    "title": "Planetscape_648878",
    "link_img": "https://live.staticflickr.com/65535/50040179061_498927521c_o.jpg",
    "id_image": "Planetscape_648878",
    "count_view": 0
  },
  {
    "link_thumb": "https://live.staticflickr.com/65535/50040395776_6770f91f91_n.jpg",
    "id_album": "779690680",
    "description": "Robot_889655",
    "title": "Robot_889655",
    "link_img": "https://live.staticflickr.com/65535/50040395776_2b220b068e_o.jpg",
    "id_image": "Robot_889655",
    "count_view": 0
  },
  {
    "link_thumb": "https://live.staticflickr.com/65535/50039916776_055c509689_n.jpg",
    "id_album": "395161030",
    "description": "Planet_193395",
    "title": "Planet_193395",
    "link_img": "https://live.staticflickr.com/65535/50039916776_4927aaf8b8_o.jpg",
    "id_image": "Planet_193395",
    "count_view": 0
  },
  {
    "link_thumb": "https://live.staticflickr.com/65535/50038747338_06160ef0c9_n.jpg",
    "id_album": "523598895",
    "description": "Artistic_117138",
    "title": "Artistic_117138",
    "link_img": "https://live.staticflickr.com/65535/50038747338_45748feee7_o.jpg",
    "id_image": "Artistic_117138",
    "count_view": 0
  },
  {
    "link_thumb": "https://live.staticflickr.com/65535/50040808677_66644ab384_n.jpg",
    "id_album": "1613540653",
    "description": "Space_822479",
    "title": "Space_822479",
    "link_img": "https://live.staticflickr.com/65535/50040808677_42616a0128_o.jpg",
    "id_image": "Space_822479",
    "count_view": 0
  },
  {
    "link_thumb": "https://live.staticflickr.com/65535/50039895547_c89cdc4339_n.jpg",
    "id_album": "1204249541",
    "description": "Galaxy_413607",
    "title": "Galaxy_413607",
    "link_img": "https://live.staticflickr.com/65535/50039895547_2a37c2d209_o.jpg",
    "id_image": "Galaxy_413607",
    "count_view": 0
  },
  {
    "link_thumb": "https://live.staticflickr.com/65535/50039701478_fda7a25c1b_n.jpg",
    "id_album": "779690680",
    "description": "Robot_129802",
    "title": "Robot_129802",
    "link_img": "https://live.staticflickr.com/65535/50039701478_20fb770e45_o.jpg",
    "id_image": "Robot_129802",
    "count_view": 0
  },
  {
    "link_thumb": "https://live.staticflickr.com/65535/50039879788_2313c2a6ce_n.jpg",
    "id_album": "779690680",
    "description": "Robot_937813",
    "title": "Robot_937813",
    "link_img": "https://live.staticflickr.com/65535/50039879788_08f557951f_o.jpg",
    "id_image": "Robot_937813",
    "count_view": 0
  },
  {
    "link_thumb": "https://live.staticflickr.com/65535/50039495217_7bb197e7aa_n.jpg",
    "id_album": "280884763",
    "description": "Abstract_446851",
    "title": "Abstract_446851",
    "link_img": "https://live.staticflickr.com/65535/50039495217_0c5641da30_o.jpg",
    "id_image": "Abstract_446851",
    "count_view": 0
  },
  {
    "link_thumb": "https://live.staticflickr.com/65535/50040657162_3800ae30c4_n.jpg",
    "id_album": "779690680",
    "description": "Robot_884809",
    "title": "Robot_884809",
    "link_img": "https://live.staticflickr.com/65535/50040657162_79cb073feb_o.jpg",
    "id_image": "Robot_884809",
    "count_view": 0
  },
  {
    "link_thumb": "https://live.staticflickr.com/65535/50039516246_bd0d7e3b73_n.jpg",
    "id_album": "-1964113117",
    "description": "City_902774",
    "title": "City_902774",
    "link_img": "https://live.staticflickr.com/65535/50039516246_73a44948df_o.jpg",
    "id_image": "City_902774",
    "count_view": 0
  },
  {
    "link_thumb": "https://live.staticflickr.com/65535/50041337606_67241e2bc4_n.jpg",
    "id_album": "-221671103",
    "description": "Sun_1009888",
    "title": "Sun_1009888",
    "link_img": "https://live.staticflickr.com/65535/50041337606_9c02e905c3_o.jpg",
    "id_image": "Sun_1009888",
    "count_view": 0
  },
  {
    "link_thumb": "https://live.staticflickr.com/65535/50039583612_8bc93bf265_n.jpg",
    "id_album": "523598895",
    "description": "Artistic_236615",
    "title": "Artistic_236615",
    "link_img": "https://live.staticflickr.com/65535/50039583612_c20bcb0960_o.jpg",
    "id_image": "Artistic_236615",
    "count_view": 0
  },
  {
    "link_thumb": "https://live.staticflickr.com/65535/50038803568_44afcee964_n.jpg",
    "id_album": "869545341",
    "description": "Astronaut_237217",
    "title": "Astronaut_237217",
    "link_img": "https://live.staticflickr.com/65535/50038803568_6108c7fabb_o.jpg",
    "id_image": "Astronaut_237217",
    "count_view": 0
  },
  {
    "link_thumb": "https://live.staticflickr.com/65535/50039074673_79fa0c2f63_n.jpg",
    "id_album": "1204249541",
    "description": "Galaxy_101692",
    "title": "Galaxy_101692",
    "link_img": "https://live.staticflickr.com/65535/50039074673_fd69118caf_o.jpg",
    "id_image": "Galaxy_101692",
    "count_view": 0
  },
  {
    "link_thumb": "https://live.staticflickr.com/65535/50039886927_db42a99c16_n.jpg",
    "id_album": "1204249541",
    "description": "Galaxy_110263",
    "title": "Galaxy_110263",
    "link_img": "https://live.staticflickr.com/65535/50039886927_9e288ca1d7_o.jpg",
    "id_image": "Galaxy_110263",
    "count_view": 0
  },
  {
    "link_thumb": "https://live.staticflickr.com/65535/50039638646_f05385b8b6_n.jpg",
    "id_album": "1204249541",
    "description": "Galaxy_506593",
    "title": "Galaxy_506593",
    "link_img": "https://live.staticflickr.com/65535/50039638646_67c6b16e53_o.jpg",
    "id_image": "Galaxy_506593",
    "count_view": 0
  },
  {
    "link_thumb": "https://live.staticflickr.com/65535/50040751692_7dae9f6ebb_n.jpg",
    "id_album": "1613540653",
    "description": "Space_286970",
    "title": "Space_286970",
    "link_img": "https://live.staticflickr.com/65535/50040751692_2520a66db9_o.jpg",
    "id_image": "Space_286970",
    "count_view": 0
  },
  {
    "link_thumb": "https://live.staticflickr.com/65535/50039799902_abcc939dea_n.jpg",
    "id_album": "894679094",
    "description": "Collision_2867",
    "title": "Collision_2867",
    "link_img": "https://live.staticflickr.com/65535/50039799902_cff2464fa9_o.jpg",
    "id_image": "Collision_2867",
    "count_view": 0
  },
  {
    "link_thumb": "https://live.staticflickr.com/65535/50041555042_4f9792f3b7_n.jpg",
    "id_album": "1267121215",
    "description": "Steampunk_190375",
    "title": "Steampunk_190375",
    "link_img": "https://live.staticflickr.com/65535/50041555042_10216c7a9b_o.jpg",
    "id_image": "Steampunk_190375",
    "count_view": 0
  },
  {
    "link_thumb": "https://live.staticflickr.com/65535/50040029092_990fbf5388_n.jpg",
    "id_album": "-1610342324",
    "description": "Nebula_179729",
    "title": "Nebula_179729",
    "link_img": "https://live.staticflickr.com/65535/50040029092_171dd71840_o.jpg",
    "id_image": "Nebula_179729",
    "count_view": 0
  },
  {
    "link_thumb": "https://live.staticflickr.com/65535/50038751178_ebf3327305_n.jpg",
    "id_album": "523598895",
    "description": "Artistic_157865",
    "title": "Artistic_157865",
    "link_img": "https://live.staticflickr.com/65535/50038751178_7e95787cc6_o.jpg",
    "id_image": "Artistic_157865",
    "count_view": 0
  },
  {
    "link_thumb": "https://live.staticflickr.com/65535/50040029187_2c81f6e6b1_n.jpg",
    "id_album": "-1610342324",
    "description": "Nebula_179730",
    "title": "Nebula_179730",
    "link_img": "https://live.staticflickr.com/65535/50040029187_f207fdc38f_o.jpg",
    "id_image": "Nebula_179730",
    "count_view": 0
  },
  {
    "link_thumb": "https://live.staticflickr.com/65535/50039411896_e5e13509a1_n.jpg",
    "id_album": "-1780971522",
    "description": "Biohazard_300091",
    "title": "Biohazard_300091",
    "link_img": "https://live.staticflickr.com/65535/50039411896_c3d62e307d_o.jpg",
    "id_image": "Biohazard_300091",
    "count_view": 0
  },
  {
    "link_thumb": "https://live.staticflickr.com/65535/50039840523_f3dd3a6586_n.jpg",
    "id_album": "779690680",
    "description": "Robot_884819",
    "title": "Robot_884819",
    "link_img": "https://live.staticflickr.com/65535/50039840523_269305a324_o.jpg",
    "id_image": "Robot_884819",
    "count_view": 0
  },
  {
    "link_thumb": "https://live.staticflickr.com/65535/50039988887_942389e290_n.jpg",
    "id_album": "1402713104",
    "description": "Landscape_935869",
    "title": "Landscape_935869",
    "link_img": "https://live.staticflickr.com/65535/50039988887_e2f3ba5910_o.jpg",
    "id_image": "Landscape_935869",
    "count_view": 0
  },
  {
    "link_thumb": "https://live.staticflickr.com/65535/50038901743_0e03d54cc6_n.jpg",
    "id_album": "-1964113117",
    "description": "City_229033",
    "title": "City_229033",
    "link_img": "https://live.staticflickr.com/65535/50038901743_b3d146c39f_o.jpg",
    "id_image": "City_229033",
    "count_view": 0
  },
  {
    "link_thumb": "https://live.staticflickr.com/65535/50039752996_0fbee80138_n.jpg",
    "id_album": "416351698",
    "description": "Moon_113990",
    "title": "Moon_113990",
    "link_img": "https://live.staticflickr.com/65535/50039752996_424e0dfc11_o.jpg",
    "id_image": "Moon_113990",
    "count_view": 0
  },
  {
    "link_thumb": "https://live.staticflickr.com/65535/50041624522_491abaff18_n.jpg",
    "id_album": "-1177476763",
    "description": "Sunrise_357522",
    "title": "Sunrise_357522",
    "link_img": "https://live.staticflickr.com/65535/50041624522_87d3695889_o.jpg",
    "id_image": "Sunrise_357522",
    "count_view": 0
  },
  {
    "link_thumb": "https://live.staticflickr.com/65535/50038836298_04dbd351b3_n.jpg",
    "id_album": "869545341",
    "description": "Astronaut_957394",
    "title": "Astronaut_957394",
    "link_img": "https://live.staticflickr.com/65535/50038836298_dda7a3be0c_o.jpg",
    "id_image": "Astronaut_957394",
    "count_view": 0
  },
  {
    "link_thumb": "https://live.staticflickr.com/65535/50038731393_b04646cea1_n.jpg",
    "id_album": "-419633230",
    "description": "Apocalyptic_158914",
    "title": "Apocalyptic_158914",
    "link_img": "https://live.staticflickr.com/65535/50038731393_67ea498edd_o.jpg",
    "id_image": "Apocalyptic_158914",
    "count_view": 0
  },
  {
    "link_thumb": "https://live.staticflickr.com/65535/50039182418_6784a2a8e4_n.jpg",
    "id_album": "-1388385651",
    "description": "MilkyWay_482715",
    "title": "MilkyWay_482715",
    "link_img": "https://live.staticflickr.com/65535/50039182418_43b6a3103f_o.jpg",
    "id_image": "MilkyWay_482715",
    "count_view": 0
  },
  {
    "link_thumb": "https://live.staticflickr.com/65535/50040190716_aacfc1f5bb_n.jpg",
    "id_album": "-482547208",
    "description": "PostApocalyptic_147450",
    "title": "PostApocalyptic_147450",
    "link_img": "https://live.staticflickr.com/65535/50040190716_c40bed19fd_o.jpg",
    "id_image": "PostApocalyptic_147450",
    "count_view": 0
  },
  {
    "link_thumb": "https://live.staticflickr.com/65535/50039318521_7a127f93c4_n.jpg",
    "id_album": "523598895",
    "description": "Artistic_222544",
    "title": "Artistic_222544",
    "link_img": "https://live.staticflickr.com/65535/50039318521_61cf585c72_o.jpg",
    "id_image": "Artistic_222544",
    "count_view": 0
  },
  {
    "link_thumb": "https://live.staticflickr.com/65535/50039877877_329ed6b07d_n.jpg",
    "id_album": "2104507156",
    "description": "Fantasy_154323",
    "title": "Fantasy_154323",
    "link_img": "https://live.staticflickr.com/65535/50039877877_4063c72267_o.jpg",
    "id_image": "Fantasy_154323",
    "count_view": 0
  },
  {
    "link_thumb": "https://live.staticflickr.com/65535/50039540402_94e11433f0_n.jpg",
    "id_album": "849020728",
    "description": "Alien_988499",
    "title": "Alien_988499",
    "link_img": "https://live.staticflickr.com/65535/50039540402_48ec219847_o.jpg",
    "id_image": "Alien_988499",
    "count_view": 0
  },
  {
    "link_thumb": "https://live.staticflickr.com/65535/50038898438_13d5511b22_n.jpg",
    "id_album": "-1964113117",
    "description": "City_214300",
    "title": "City_214300",
    "link_img": "https://live.staticflickr.com/65535/50038898438_efe9b0f30c_o.jpg",
    "id_image": "City_214300",
    "count_view": 0
  },
  {
    "link_thumb": "https://live.staticflickr.com/65535/50038994348_8b720a29f6_n.jpg",
    "id_album": "894679094",
    "description": "Collision_677704",
    "title": "Collision_677704",
    "link_img": "https://live.staticflickr.com/65535/50038994348_e8ef029a18_o.jpg",
    "id_image": "Collision_677704",
    "count_view": 0
  },
  {
    "link_thumb": "https://live.staticflickr.com/65535/50038879668_e28835008c_n.jpg",
    "id_album": "406431601",
    "description": "Building_958188",
    "title": "Building_958188",
    "link_img": "https://live.staticflickr.com/65535/50038879668_c00dc455fb_o.jpg",
    "id_image": "Building_958188",
    "count_view": 0
  },
  {
    "link_thumb": "https://live.staticflickr.com/65535/50039549617_fe4f6a8960_n.jpg",
    "id_album": "-419633230",
    "description": "Apocalyptic_867435",
    "title": "Apocalyptic_867435",
    "link_img": "https://live.staticflickr.com/65535/50039549617_e67edb0d48_o.jpg",
    "id_image": "Apocalyptic_867435",
    "count_view": 0
  },
  {
    "link_thumb": "https://live.staticflickr.com/65535/50040201902_205a574916_n.jpg",
    "id_album": "395161030",
    "description": "Planet_364701",
    "title": "Planet_364701",
    "link_img": "https://live.staticflickr.com/65535/50040201902_a40f178895_o.jpg",
    "id_image": "Planet_364701",
    "count_view": 0
  },
  {
    "link_thumb": "https://live.staticflickr.com/65535/50040462941_95242c621b_n.jpg",
    "id_album": "1613540653",
    "description": "Space_109273",
    "title": "Space_109273",
    "link_img": "https://live.staticflickr.com/65535/50040462941_fcb1e53440_o.jpg",
    "id_image": "Space_109273",
    "count_view": 0
  },
  {
    "link_thumb": "https://live.staticflickr.com/65535/50039687548_e4ddc203c8_n.jpg",
    "id_album": "-839602625",
    "description": "Predator_323988",
    "title": "Predator_323988",
    "link_img": "https://live.staticflickr.com/65535/50039687548_fb588cb08e_o.jpg",
    "id_image": "Predator_323988",
    "count_view": 0
  },
  {
    "link_thumb": "https://live.staticflickr.com/65535/50040989917_4cf97342fe_n.jpg",
    "id_album": "2130067313",
    "description": "Spaceship_618003",
    "title": "Spaceship_618003",
    "link_img": "https://live.staticflickr.com/65535/50040989917_7225c2f8fe_o.jpg",
    "id_image": "Spaceship_618003",
    "count_view": 0
  },
  {
    "link_thumb": "https://live.staticflickr.com/65535/50040521667_6dd3eb221b_n.jpg",
    "id_album": "779690680",
    "description": "Robot_167503",
    "title": "Robot_167503",
    "link_img": "https://live.staticflickr.com/65535/50040521667_1ddbbdcde6_o.jpg",
    "id_image": "Robot_167503",
    "count_view": 0
  },
  {
    "link_thumb": "https://live.staticflickr.com/65535/50040609072_4335143572_n.jpg",
    "id_album": "779690680",
    "description": "Robot_616406",
    "title": "Robot_616406",
    "link_img": "https://live.staticflickr.com/65535/50040609072_d5aeda4327_o.jpg",
    "id_image": "Robot_616406",
    "count_view": 0
  },
  {
    "link_thumb": "https://live.staticflickr.com/65535/50038699558_3841090b75_n.jpg",
    "id_album": "849020728",
    "description": "Alien_155208",
    "title": "Alien_155208",
    "link_img": "https://live.staticflickr.com/65535/50038699558_ebd22c481f_o.jpg",
    "id_image": "Alien_155208",
    "count_view": 0
  },
  {
    "link_thumb": "https://live.staticflickr.com/65535/50040283381_e96303a9c9_n.jpg",
    "id_album": "779690680",
    "description": "Robot_294201",
    "title": "Robot_294201",
    "link_img": "https://live.staticflickr.com/65535/50040283381_9880d2ed4d_o.jpg",
    "id_image": "Robot_294201",
    "count_view": 0
  },
  {
    "link_thumb": "https://live.staticflickr.com/65535/50041527782_7ca9d608b6_n.jpg",
    "id_album": "-1587696329",
    "description": "Stars_397557",
    "title": "Stars_397557",
    "link_img": "https://live.staticflickr.com/65535/50041527782_62ecd95aa7_o.jpg",
    "id_image": "Stars_397557",
    "count_view": 0
  },
  {
    "link_thumb": "https://live.staticflickr.com/65535/50039220908_2af09bf1de_n.jpg",
    "id_album": "-1610342324",
    "description": "Nebula_212710",
    "title": "Nebula_212710",
    "link_img": "https://live.staticflickr.com/65535/50039220908_392530eda5_o.jpg",
    "id_image": "Nebula_212710",
    "count_view": 0
  },
  {
    "link_thumb": "https://live.staticflickr.com/65535/50040475606_98e166a5a7_n.jpg",
    "id_album": "1613540653",
    "description": "Space_187620",
    "title": "Space_187620",
    "link_img": "https://live.staticflickr.com/65535/50040475606_9bc82b6c76_o.jpg",
    "id_image": "Space_187620",
    "count_view": 0
  },
  {
    "link_thumb": "https://live.staticflickr.com/65535/50039607112_95b5a6d751_n.jpg",
    "id_album": "523598895",
    "description": "Artistic_857266",
    "title": "Artistic_857266",
    "link_img": "https://live.staticflickr.com/65535/50039607112_1b7fba34c7_o.jpg",
    "id_image": "Artistic_857266",
    "count_view": 0
  },
  {
    "link_thumb": "https://live.staticflickr.com/65535/50039614997_66ccd9aa39_n.jpg",
    "id_album": "869545341",
    "description": "Astronaut_280634",
    "title": "Astronaut_280634",
    "link_img": "https://live.staticflickr.com/65535/50039614997_4621cac05c_o.jpg",
    "id_image": "Astronaut_280634",
    "count_view": 0
  },
  {
    "link_thumb": "https://live.staticflickr.com/65535/50038731208_ce6ef590e4_n.jpg",
    "id_album": "-419633230",
    "description": "Apocalyptic_145957",
    "title": "Apocalyptic_145957",
    "link_img": "https://live.staticflickr.com/65535/50038731208_0f259713f9_o.jpg",
    "id_image": "Apocalyptic_145957",
    "count_view": 0
  },
  {
    "link_thumb": "https://live.staticflickr.com/65535/50040115831_3ffc6895e1_n.jpg",
    "id_album": "-1102314093",
    "description": "Planets_439169",
    "title": "Planets_439169",
    "link_img": "https://live.staticflickr.com/65535/50040115831_11b882951d_o.jpg",
    "id_image": "Planets_439169",
    "count_view": 0
  },
  {
    "link_thumb": "https://live.staticflickr.com/65535/50039225278_731871693b_n.jpg",
    "id_album": "-1610342324",
    "description": "Nebula_243345",
    "title": "Nebula_243345",
    "link_img": "https://live.staticflickr.com/65535/50039225278_c350d065a8_o.jpg",
    "id_image": "Nebula_243345",
    "count_view": 0
  },
  {
    "link_thumb": "https://live.staticflickr.com/65535/50039629801_27dcba7fd5_n.jpg",
    "id_album": "1204249541",
    "description": "Galaxy_285826",
    "title": "Galaxy_285826",
    "link_img": "https://live.staticflickr.com/65535/50039629801_91a0b21f7f_o.jpg",
    "id_image": "Galaxy_285826",
    "count_view": 0
  },
  {
    "link_thumb": "https://live.staticflickr.com/65535/50040627751_1606c3d360_n.jpg",
    "id_album": "2130067313",
    "description": "Spaceship_286775",
    "title": "Spaceship_286775",
    "link_img": "https://live.staticflickr.com/65535/50040627751_b08d5770e7_o.jpg",
    "id_image": "Spaceship_286775",
    "count_view": 0
  },
  {
    "link_thumb": "https://live.staticflickr.com/65535/50039932867_225c849820_n.jpg",
    "id_album": "1402713104",
    "description": "Landscape_274642",
    "title": "Landscape_274642",
    "link_img": "https://live.staticflickr.com/65535/50039932867_51bc5495b4_o.jpg",
    "id_image": "Landscape_274642",
    "count_view": 0
  },
  {
    "link_thumb": "https://live.staticflickr.com/65535/50041761577_ca177b60c0_n.jpg",
    "id_album": "-1261420436",
    "description": "Warrior_992224",
    "title": "Warrior_992224",
    "link_img": "https://live.staticflickr.com/65535/50041761577_45f141c5e9_o.jpg",
    "id_image": "Warrior_992224",
    "count_view": 0
  },
  {
    "link_thumb": "https://live.staticflickr.com/65535/50040975572_c3133cb669_n.jpg",
    "id_album": "2130067313",
    "description": "Spaceship_533750",
    "title": "Spaceship_533750",
    "link_img": "https://live.staticflickr.com/65535/50040975572_49432cf740_o.jpg",
    "id_image": "Spaceship_533750",
    "count_view": 0
  },
  {
    "link_thumb": "https://live.staticflickr.com/65535/50038929668_3d7cb27948_n.jpg",
    "id_album": "-1964113117",
    "description": "City_558457",
    "title": "City_558457",
    "link_img": "https://live.staticflickr.com/65535/50038929668_9fce85c600_o.jpg",
    "id_image": "City_558457",
    "count_view": 0
  },
  {
    "link_thumb": "https://live.staticflickr.com/65535/50041759407_d33b919e7d_n.jpg",
    "id_album": "-1261420436",
    "description": "Warrior_957239",
    "title": "Warrior_957239",
    "link_img": "https://live.staticflickr.com/65535/50041759407_340cdeebe0_o.jpg",
    "id_image": "Warrior_957239",
    "count_view": 0
  },
  {
    "link_thumb": "https://live.staticflickr.com/65535/50039082913_d523f81c72_n.jpg",
    "id_album": "1204249541",
    "description": "Galaxy_385782",
    "title": "Galaxy_385782",
    "link_img": "https://live.staticflickr.com/65535/50039082913_560c42ff1e_o.jpg",
    "id_image": "Galaxy_385782",
    "count_view": 0
  },
  {
    "link_thumb": "https://live.staticflickr.com/65535/50038746058_9c6b474123_n.jpg",
    "id_album": "523598895",
    "description": "Artistic_115150",
    "title": "Artistic_115150",
    "link_img": "https://live.staticflickr.com/65535/50038746058_3209216a41_o.jpg",
    "id_image": "Artistic_115150",
    "count_view": 0
  },
  {
    "link_thumb": "https://live.staticflickr.com/65535/50039766366_e91984c447_n.jpg",
    "id_album": "-1610342324",
    "description": "Nebula_182338",
    "title": "Nebula_182338",
    "link_img": "https://live.staticflickr.com/65535/50039766366_b6abb640a1_o.jpg",
    "id_image": "Nebula_182338",
    "count_view": 0
  },
  {
    "link_thumb": "https://live.staticflickr.com/65535/50039262271_12f17ee40f_n.jpg",
    "id_album": "849020728",
    "description": "Alien_393637",
    "title": "Alien_393637",
    "link_img": "https://live.staticflickr.com/65535/50039262271_698be4ef09_o.jpg",
    "id_image": "Alien_393637",
    "count_view": 0
  },
  {
    "link_thumb": "https://live.staticflickr.com/65535/50039301128_8d7fa3a512_n.jpg",
    "id_album": "-1610342324",
    "description": "Nebula_899657",
    "title": "Nebula_899657",
    "link_img": "https://live.staticflickr.com/65535/50039301128_e499c2fb23_o.jpg",
    "id_image": "Nebula_899657",
    "count_view": 0
  },
  {
    "link_thumb": "https://live.staticflickr.com/65535/50039968552_65d9ccd157_n.jpg",
    "id_album": "1402713104",
    "description": "Landscape_776212",
    "title": "Landscape_776212",
    "link_img": "https://live.staticflickr.com/65535/50039968552_2df388bae2_o.jpg",
    "id_image": "Landscape_776212",
    "count_view": 0
  },
  {
    "link_thumb": "https://live.staticflickr.com/65535/50039690756_f035c2ac55_n.jpg",
    "id_album": "1402713104",
    "description": "Landscape_505517",
    "title": "Landscape_505517",
    "link_img": "https://live.staticflickr.com/65535/50039690756_988595c684_o.jpg",
    "id_image": "Landscape_505517",
    "count_view": 0
  },
  {
    "link_thumb": "https://live.staticflickr.com/65535/50040062066_ff378f4c09_n.jpg",
    "id_album": "-1102314093",
    "description": "Planets_221903",
    "title": "Planets_221903",
    "link_img": "https://live.staticflickr.com/65535/50040062066_6edbbf9fb4_o.jpg",
    "id_image": "Planets_221903",
    "count_view": 0
  },
  {
    "link_thumb": "https://live.staticflickr.com/65535/50039541896_4192f5028e_n.jpg",
    "id_album": "894679094",
    "description": "Collision_595263",
    "title": "Collision_595263",
    "link_img": "https://live.staticflickr.com/65535/50039541896_ea2177b451_o.jpg",
    "id_image": "Collision_595263",
    "count_view": 0
  },
  {
    "link_thumb": "https://live.staticflickr.com/65535/50039238673_2bb5ac4f9d_n.jpg",
    "id_album": "-1610342324",
    "description": "Nebula_370230",
    "title": "Nebula_370230",
    "link_img": "https://live.staticflickr.com/65535/50039238673_d59e064618_o.jpg",
    "id_image": "Nebula_370230",
    "count_view": 0
  },
  {
    "link_thumb": "https://live.staticflickr.com/65535/50040997648_77c713864a_n.jpg",
    "id_album": "-1126835654",
    "description": "Women_921318",
    "title": "Women_921318",
    "link_img": "https://live.staticflickr.com/65535/50040997648_c0c5673fa0_o.jpg",
    "id_image": "Women_921318",
    "count_view": 0
  },
  {
    "link_thumb": "https://live.staticflickr.com/65535/50041486361_0f5c32f121_n.jpg",
    "id_album": "-1261420436",
    "description": "Warrior_778589",
    "title": "Warrior_778589",
    "link_img": "https://live.staticflickr.com/65535/50041486361_04c0a9b187_o.jpg",
    "id_image": "Warrior_778589",
    "count_view": 0
  },
  {
    "link_thumb": "https://live.staticflickr.com/65535/50040709158_03ef6e235a_n.jpg",
    "id_album": "-1587696329",
    "description": "Stars_333385",
    "title": "Stars_333385",
    "link_img": "https://live.staticflickr.com/65535/50040709158_eab6e0441c_o.jpg",
    "id_image": "Stars_333385",
    "count_view": 0
  },
  {
    "link_thumb": "https://live.staticflickr.com/65535/50040819776_43789c86fe_n.jpg",
    "id_album": "-1449720967",
    "description": "StarTrek_279989",
    "title": "StarTrek_279989",
    "link_img": "https://live.staticflickr.com/65535/50040819776_a4112354de_o.jpg",
    "id_image": "StarTrek_279989",
    "count_view": 0
  },
  {
    "link_thumb": "https://live.staticflickr.com/65535/50041341631_575724bd7e_n.jpg",
    "id_album": "-221671103",
    "description": "Sun_204328",
    "title": "Sun_204328",
    "link_img": "https://live.staticflickr.com/65535/50041341631_5584fdbddf_o.jpg",
    "id_image": "Sun_204328",
    "count_view": 0
  },
  {
    "link_thumb": "https://live.staticflickr.com/65535/50039663242_eb7d862795_n.jpg",
    "id_album": "1187037014",
    "description": "Battle_304903",
    "title": "Battle_304903",
    "link_img": "https://live.staticflickr.com/65535/50039663242_4285e78999_o.jpg",
    "id_image": "Battle_304903",
    "count_view": 0
  },
  {
    "link_thumb": "https://live.staticflickr.com/65535/50040627478_a20c888f9f_n.jpg",
    "id_album": "-1863373220",
    "description": "StarWars_446469",
    "title": "StarWars_446469",
    "link_img": "https://live.staticflickr.com/65535/50040627478_9fda6f5759_o.jpg",
    "id_image": "StarWars_446469",
    "count_view": 0
  },
  {
    "link_thumb": "https://live.staticflickr.com/65535/50039932193_8864912259_n.jpg",
    "id_album": "1613540653",
    "description": "Space_286946",
    "title": "Space_286946",
    "link_img": "https://live.staticflickr.com/65535/50039932193_e837491b76_o.jpg",
    "id_image": "Space_286946",
    "count_view": 0
  },
  {
    "link_thumb": "https://live.staticflickr.com/65535/50039914722_19d5088bd7_n.jpg",
    "id_album": "1204249541",
    "description": "Galaxy_691001",
    "title": "Galaxy_691001",
    "link_img": "https://live.staticflickr.com/65535/50039914722_a5e4f0cafd_o.jpg",
    "id_image": "Galaxy_691001",
    "count_view": 0
  },
  {
    "link_thumb": "https://live.staticflickr.com/65535/50039550082_479b552b2a_n.jpg",
    "id_album": "-419633230",
    "description": "Apocalyptic_957340",
    "title": "Apocalyptic_957340",
    "link_img": "https://live.staticflickr.com/65535/50039550082_48929cab07_o.jpg",
    "id_image": "Apocalyptic_957340",
    "count_view": 0
  },
  {
    "link_thumb": "https://live.staticflickr.com/65535/50038719678_7005b3c726_n.jpg",
    "id_album": "849020728",
    "description": "Alien_488059",
    "title": "Alien_488059",
    "link_img": "https://live.staticflickr.com/65535/50038719678_4a5a87f722_o.jpg",
    "id_image": "Alien_488059",
    "count_view": 0
  },
  {
    "link_thumb": "https://live.staticflickr.com/65535/50040111467_1e9c7e3b87_n.jpg",
    "id_album": "-1610342324",
    "description": "Nebula_874817",
    "title": "Nebula_874817",
    "link_img": "https://live.staticflickr.com/65535/50040111467_f499bef8db_o.jpg",
    "id_image": "Nebula_874817",
    "count_view": 0
  },
  {
    "link_thumb": "https://live.staticflickr.com/65535/50040452092_49cd281973_n.jpg",
    "id_album": "-482547208",
    "description": "PostApocalyptic_1008081",
    "title": "PostApocalyptic_1008081",
    "link_img": "https://live.staticflickr.com/65535/50040452092_0681413991_o.jpg",
    "id_image": "PostApocalyptic_1008081",
    "count_view": 0
  },
  {
    "link_thumb": "https://live.staticflickr.com/65535/50039926633_b4bee4985e_n.jpg",
    "id_album": "1613540653",
    "description": "Space_224209",
    "title": "Space_224209",
    "link_img": "https://live.staticflickr.com/65535/50039926633_a62b9f3135_o.jpg",
    "id_image": "Space_224209",
    "count_view": 0
  },
  {
    "link_thumb": "https://live.staticflickr.com/65535/50039633968_1cb0fd48e0_n.jpg",
    "id_album": "376235057",
    "description": "Planetscape_957476",
    "title": "Planetscape_957476",
    "link_img": "https://live.staticflickr.com/65535/50039633968_c4563680c7_o.jpg",
    "id_image": "Planetscape_957476",
    "count_view": 0
  },
  {
    "link_thumb": "https://live.staticflickr.com/65535/50038841103_dec797d436_n.jpg",
    "id_album": "869545341",
    "description": "Astronaut_980244",
    "title": "Astronaut_980244",
    "link_img": "https://live.staticflickr.com/65535/50038841103_10acbedbc7_o.jpg",
    "id_image": "Astronaut_980244",
    "count_view": 0
  },
  {
    "link_thumb": "https://live.staticflickr.com/65535/50039498482_e033259357_n.jpg",
    "id_album": "-406145265",
    "description": "Aircraft_269915",
    "title": "Aircraft_269915",
    "link_img": "https://live.staticflickr.com/65535/50039498482_7695ea4691_o.jpg",
    "id_image": "Aircraft_269915",
    "count_view": 0
  },
  {
    "link_thumb": "https://live.staticflickr.com/65535/50039623438_6bb0f8af0b_n.jpg",
    "id_album": "376235057",
    "description": "Planetscape_502982",
    "title": "Planetscape_502982",
    "link_img": "https://live.staticflickr.com/65535/50039623438_54e77dc030_o.jpg",
    "id_image": "Planetscape_502982",
    "count_view": 0
  },
  {
    "link_thumb": "https://live.staticflickr.com/65535/50039140633_0d2b479920_n.jpg",
    "id_album": "1402713104",
    "description": "Landscape_448946",
    "title": "Landscape_448946",
    "link_img": "https://live.staticflickr.com/65535/50039140633_03cf59fd5d_o.jpg",
    "id_image": "Landscape_448946",
    "count_view": 0
  },
  {
    "link_thumb": "https://live.staticflickr.com/65535/50039213263_7d5cfe5903_n.jpg",
    "id_album": "-1610342324",
    "description": "Nebula_124789",
    "title": "Nebula_124789",
    "link_img": "https://live.staticflickr.com/65535/50039213263_ddb536c501_o.jpg",
    "id_image": "Nebula_124789",
    "count_view": 0
  },
  {
    "link_thumb": "https://live.staticflickr.com/65535/50039417503_1ded3a6869_n.jpg",
    "id_album": "395161030",
    "description": "Planet_585117",
    "title": "Planet_585117",
    "link_img": "https://live.staticflickr.com/65535/50039417503_e035886e79_o.jpg",
    "id_image": "Planet_585117",
    "count_view": 0
  },
  {
    "link_thumb": "https://live.staticflickr.com/65535/50040647622_3d183ac359_n.jpg",
    "id_album": "779690680",
    "description": "Robot_872979",
    "title": "Robot_872979",
    "link_img": "https://live.staticflickr.com/65535/50040647622_a3697da5c4_o.jpg",
    "id_image": "Robot_872979",
    "count_view": 0
  },
  {
    "link_thumb": "https://live.staticflickr.com/65535/50038935458_d3373e21cd_n.jpg",
    "id_album": "-1964113117",
    "description": "City_649507",
    "title": "City_649507",
    "link_img": "https://live.staticflickr.com/65535/50038935458_8709d041ea_o.jpg",
    "id_image": "City_649507",
    "count_view": 0
  },
  {
    "link_thumb": "https://live.staticflickr.com/65535/50041221691_b92bb05451_n.jpg",
    "id_album": "-1863373220",
    "description": "StarWars_76383",
    "title": "StarWars_76383",
    "link_img": "https://live.staticflickr.com/65535/50041221691_6d0be3ec2d_o.jpg",
    "id_image": "StarWars_76383",
    "count_view": 0
  },
  {
    "link_thumb": "https://live.staticflickr.com/65535/50039242633_78efda8532_n.jpg",
    "id_album": "-1610342324",
    "description": "Nebula_397402",
    "title": "Nebula_397402",
    "link_img": "https://live.staticflickr.com/65535/50039242633_9a205492f5_o.jpg",
    "id_image": "Nebula_397402",
    "count_view": 0
  },
  {
    "link_thumb": "https://live.staticflickr.com/65535/50040529617_a4216c7698_n.jpg",
    "id_album": "779690680",
    "description": "Robot_209412",
    "title": "Robot_209412",
    "link_img": "https://live.staticflickr.com/65535/50040529617_9b1f0ae27c_o.jpg",
    "id_image": "Robot_209412",
    "count_view": 0
  },
  {
    "link_thumb": "https://live.staticflickr.com/65535/50040258008_93b945e5e8_n.jpg",
    "id_album": "-1449720967",
    "description": "StarTrek_248610",
    "title": "StarTrek_248610",
    "link_img": "https://live.staticflickr.com/65535/50040258008_d11813dcee_o.jpg",
    "id_image": "StarTrek_248610",
    "count_view": 0
  },
  {
    "link_thumb": "https://live.staticflickr.com/65535/50041012657_a6ac3d1f1c_n.jpg",
    "id_album": "2130067313",
    "description": "Spaceship_785328",
    "title": "Spaceship_785328",
    "link_img": "https://live.staticflickr.com/65535/50041012657_85fee80942_o.jpg",
    "id_image": "Spaceship_785328",
    "count_view": 0
  },
  {
    "link_thumb": "https://live.staticflickr.com/65535/50040063481_a79749ee49_n.jpg",
    "id_album": "-1102314093",
    "description": "Planets_234863",
    "title": "Planets_234863",
    "link_img": "https://live.staticflickr.com/65535/50040063481_a384937cef_o.jpg",
    "id_image": "Planets_234863",
    "count_view": 0
  },
  {
    "link_thumb": "https://live.staticflickr.com/65535/50038931213_81fc6acdb1_n.jpg",
    "id_album": "-1964113117",
    "description": "City_573552",
    "title": "City_573552",
    "link_img": "https://live.staticflickr.com/65535/50038931213_75689472a6_o.jpg",
    "id_image": "City_573552",
    "count_view": 0
  },
  {
    "link_thumb": "https://live.staticflickr.com/65535/50039952832_d7701cf05b_n.jpg",
    "id_album": "1402713104",
    "description": "Landscape_446153",
    "title": "Landscape_446153",
    "link_img": "https://live.staticflickr.com/65535/50039952832_131d6cf9ce_o.jpg",
    "id_image": "Landscape_446153",
    "count_view": 0
  },
  {
    "link_thumb": "https://live.staticflickr.com/65535/50040802121_34cc083a44_n.jpg",
    "id_album": "-1449720967",
    "description": "StarTrek_186206",
    "title": "StarTrek_186206",
    "link_img": "https://live.staticflickr.com/65535/50040802121_d05002a5fb_o.jpg",
    "id_image": "StarTrek_186206",
    "count_view": 0
  },
  {
    "link_thumb": "https://live.staticflickr.com/65535/50039710998_827ef0d8ee_n.jpg",
    "id_album": "779690680",
    "description": "Robot_200565",
    "title": "Robot_200565",
    "link_img": "https://live.staticflickr.com/65535/50039710998_f37df81a69_o.jpg",
    "id_image": "Robot_200565",
    "count_view": 0
  },
  {
    "link_thumb": "https://live.staticflickr.com/65535/50039996496_c81784ef63_n.jpg",
    "id_album": "1443611160",
    "description": "PlanetRise_150176",
    "title": "PlanetRise_150176",
    "link_img": "https://live.staticflickr.com/65535/50039996496_85e5d2f2ef_o.jpg",
    "id_image": "PlanetRise_150176",
    "count_view": 0
  },
  {
    "link_thumb": "https://live.staticflickr.com/65535/50040087357_9d3438747f_n.jpg",
    "id_album": "-1610342324",
    "description": "Nebula_702855",
    "title": "Nebula_702855",
    "link_img": "https://live.staticflickr.com/65535/50040087357_087383030c_o.jpg",
    "id_image": "Nebula_702855",
    "count_view": 0
  },
  {
    "link_thumb": "https://live.staticflickr.com/65535/50039812007_bd3695a38c_n.jpg",
    "id_album": "-437872736",
    "description": "Creature_316159",
    "title": "Creature_316159",
    "link_img": "https://live.staticflickr.com/65535/50039812007_8b4987d8db_o.jpg",
    "id_image": "Creature_316159",
    "count_view": 0
  },
  {
    "link_thumb": "https://live.staticflickr.com/65535/50039212978_4775243735_n.jpg",
    "id_album": "-1610342324",
    "description": "Nebula_113347",
    "title": "Nebula_113347",
    "link_img": "https://live.staticflickr.com/65535/50039212978_6439774838_o.jpg",
    "id_image": "Nebula_113347",
    "count_view": 0
  },
  {
    "link_thumb": "https://live.staticflickr.com/65535/50040432711_07aa4f1ae8_n.jpg",
    "id_album": "779690680",
    "description": "Robot_936222",
    "title": "Robot_936222",
    "link_img": "https://live.staticflickr.com/65535/50040432711_b017466011_o.jpg",
    "id_image": "Robot_936222",
    "count_view": 0
  },
  {
    "link_thumb": "https://live.staticflickr.com/65535/50039073328_d162f464ec_n.jpg",
    "id_album": "2104507156",
    "description": "Fantasy_855866",
    "title": "Fantasy_855866",
    "link_img": "https://live.staticflickr.com/65535/50039073328_3376e3563b_o.jpg",
    "id_image": "Fantasy_855866",
    "count_view": 0
  },
  {
    "link_thumb": "https://live.staticflickr.com/65535/50038862343_4a3e93610c_n.jpg",
    "id_album": "1187037014",
    "description": "Battle_992982",
    "title": "Battle_992982",
    "link_img": "https://live.staticflickr.com/65535/50038862343_d9be6cdb0d_o.jpg",
    "id_image": "Battle_992982",
    "count_view": 0
  },
  {
    "link_thumb": "https://live.staticflickr.com/65535/50040664913_9d1cb10454_n.jpg",
    "id_album": "-1863373220",
    "description": "StarWars_714284",
    "title": "StarWars_714284",
    "link_img": "https://live.staticflickr.com/65535/50040664913_cce1f40599_o.jpg",
    "id_image": "StarWars_714284",
    "count_view": 0
  },
  {
    "link_thumb": "https://live.staticflickr.com/65535/50041616952_36a93e0928_n.jpg",
    "id_album": "-221671103",
    "description": "Sun_709935",
    "title": "Sun_709935",
    "link_img": "https://live.staticflickr.com/65535/50041616952_cfa3052446_o.jpg",
    "id_image": "Sun_709935",
    "count_view": 0
  },
  {
    "link_thumb": "https://live.staticflickr.com/65535/50039933246_f3468e2f68_n.jpg",
    "id_album": "395161030",
    "description": "Planet_351708",
    "title": "Planet_351708",
    "link_img": "https://live.staticflickr.com/65535/50039933246_f1c73b0c1e_o.jpg",
    "id_image": "Planet_351708",
    "count_view": 0
  },
  {
    "link_thumb": "https://live.staticflickr.com/65535/50039727468_171810a224_n.jpg",
    "id_album": "779690680",
    "description": "Robot_276731",
    "title": "Robot_276731",
    "link_img": "https://live.staticflickr.com/65535/50039727468_ab48be5f98_o.jpg",
    "id_image": "Robot_276731",
    "count_view": 0
  },
  {
    "link_thumb": "https://live.staticflickr.com/65535/50041639322_82093aeb78_n.jpg",
    "id_album": "2020068132",
    "description": "Vehicle_211341",
    "title": "Vehicle_211341",
    "link_img": "https://live.staticflickr.com/65535/50041639322_c860e2374e_o.jpg",
    "id_image": "Vehicle_211341",
    "count_view": 0
  },
  {
    "link_thumb": "https://live.staticflickr.com/65535/50039310741_576b7f1ea6_n.jpg",
    "id_album": "523598895",
    "description": "Artistic_198978",
    "title": "Artistic_198978",
    "link_img": "https://live.staticflickr.com/65535/50039310741_3969643de0_o.jpg",
    "id_image": "Artistic_198978",
    "count_view": 0
  },
  {
    "link_thumb": "https://live.staticflickr.com/65535/50040545156_7a666c73b0_n.jpg",
    "id_album": "1613540653",
    "description": "Space_83512",
    "title": "Space_83512",
    "link_img": "https://live.staticflickr.com/65535/50040545156_1c8a888b3c_o.jpg",
    "id_image": "Space_83512",
    "count_view": 0
  },
  {
    "link_thumb": "https://live.staticflickr.com/65535/50039707591_988f3f6bde_n.jpg",
    "id_album": "1402713104",
    "description": "Landscape_805183",
    "title": "Landscape_805183",
    "link_img": "https://live.staticflickr.com/65535/50039707591_8d1dc3f3ef_o.jpg",
    "id_image": "Landscape_805183",
    "count_view": 0
  },
  {
    "link_thumb": "https://live.staticflickr.com/65535/50041153906_9006c0eaf3_n.jpg",
    "id_album": "-1863373220",
    "description": "StarWars_246181",
    "title": "StarWars_246181",
    "link_img": "https://live.staticflickr.com/65535/50041153906_ab6b9a5dbb_o.jpg",
    "id_image": "StarWars_246181",
    "count_view": 0
  },
  {
    "link_thumb": "https://live.staticflickr.com/65535/50039634888_f4308a0d6e_n.jpg",
    "id_album": "376235057",
    "description": "Planetscape_957994",
    "title": "Planetscape_957994",
    "link_img": "https://live.staticflickr.com/65535/50039634888_4174b59776_o.jpg",
    "id_image": "Planetscape_957994",
    "count_view": 0
  },
  {
    "link_thumb": "https://live.staticflickr.com/65535/50040454242_71ed43fb5b_n.jpg",
    "id_album": "-482547208",
    "description": "PostApocalyptic_118751",
    "title": "PostApocalyptic_118751",
    "link_img": "https://live.staticflickr.com/65535/50040454242_01c9c5432b_o.jpg",
    "id_image": "PostApocalyptic_118751",
    "count_view": 0
  },
  {
    "link_thumb": "https://live.staticflickr.com/65535/50040105516_1fb5a107ff_n.jpg",
    "id_album": "-1102314093",
    "description": "Planets_393901",
    "title": "Planets_393901",
    "link_img": "https://live.staticflickr.com/65535/50040105516_193a6732ee_o.jpg",
    "id_image": "Planets_393901",
    "count_view": 0
  },
  {
    "link_thumb": "https://live.staticflickr.com/65535/50040203112_157c5421f5_n.jpg",
    "id_album": "395161030",
    "description": "Planet_371297",
    "title": "Planet_371297",
    "link_img": "https://live.staticflickr.com/65535/50040203112_f18033737c_o.jpg",
    "id_image": "Planet_371297",
    "count_view": 0
  },
  {
    "link_thumb": "https://live.staticflickr.com/65535/50039869332_e869156669_n.jpg",
    "id_album": "651930207",
    "description": "Explosion_1007239",
    "title": "Explosion_1007239",
    "link_img": "https://live.staticflickr.com/65535/50039869332_2ae133ecf9_o.jpg",
    "id_image": "Explosion_1007239",
    "count_view": 0
  },
  {
    "link_thumb": "https://live.staticflickr.com/65535/50040400336_b2ee02a45e_n.jpg",
    "id_album": "779690680",
    "description": "Robot_901648",
    "title": "Robot_901648",
    "link_img": "https://live.staticflickr.com/65535/50040400336_fa8c8215d2_o.jpg",
    "id_image": "Robot_901648",
    "count_view": 0
  },
  {
    "link_thumb": "https://live.staticflickr.com/65535/50039892592_8436b2fc71_n.jpg",
    "id_album": "1204249541",
    "description": "Galaxy_287054",
    "title": "Galaxy_287054",
    "link_img": "https://live.staticflickr.com/65535/50039892592_0b8d0f75b6_o.jpg",
    "id_image": "Galaxy_287054",
    "count_view": 0
  },
  {
    "link_thumb": "https://live.staticflickr.com/65535/50039891742_53aa0fa11a_n.jpg",
    "id_album": "1204249541",
    "description": "Galaxy_280753",
    "title": "Galaxy_280753",
    "link_img": "https://live.staticflickr.com/65535/50039891742_e4b2b3727d_o.jpg",
    "id_image": "Galaxy_280753",
    "count_view": 0
  },
  {
    "link_thumb": "https://live.staticflickr.com/65535/50039932482_18d840ddbb_n.jpg",
    "id_album": "1402713104",
    "description": "Landscape_272370",
    "title": "Landscape_272370",
    "link_img": "https://live.staticflickr.com/65535/50039932482_ba8321fd3e_o.jpg",
    "id_image": "Landscape_272370",
    "count_view": 0
  },
  {
    "link_thumb": "https://live.staticflickr.com/65535/50039978913_ff8811870b_n.jpg",
    "id_album": "1613540653",
    "description": "Space_729755",
    "title": "Space_729755",
    "link_img": "https://live.staticflickr.com/65535/50039978913_289c416232_o.jpg",
    "id_image": "Space_729755",
    "count_view": 0
  },
  {
    "link_thumb": "https://live.staticflickr.com/65535/50039256783_c8c6359705_n.jpg",
    "id_album": "-1610342324",
    "description": "Nebula_546024",
    "title": "Nebula_546024",
    "link_img": "https://live.staticflickr.com/65535/50039256783_e8b91ce5e8_o.jpg",
    "id_image": "Nebula_546024",
    "count_view": 0
  },
  {
    "link_thumb": "https://live.staticflickr.com/65535/50039403266_5096c64643_n.jpg",
    "id_album": "1187037014",
    "description": "Battle_564424",
    "title": "Battle_564424",
    "link_img": "https://live.staticflickr.com/65535/50039403266_c1dd95a89e_o.jpg",
    "id_image": "Battle_564424",
    "count_view": 0
  },
  {
    "link_thumb": "https://live.staticflickr.com/65535/50040062922_13859f8575_n.jpg",
    "id_album": "-1610342324",
    "description": "Nebula_45819",
    "title": "Nebula_45819",
    "link_img": "https://live.staticflickr.com/65535/50040062922_351788faca_o.jpg",
    "id_image": "Nebula_45819",
    "count_view": 0
  },
  {
    "link_thumb": "https://live.staticflickr.com/65535/50038810163_4fed36046e_n.jpg",
    "id_album": "869545341",
    "description": "Astronaut_565707",
    "title": "Astronaut_565707",
    "link_img": "https://live.staticflickr.com/65535/50038810163_446a8e2ddd_o.jpg",
    "id_image": "Astronaut_565707",
    "count_view": 0
  },
  {
    "link_thumb": "https://live.staticflickr.com/65535/50039968927_f7b8d6d758_n.jpg",
    "id_album": "1402713104",
    "description": "Landscape_776225",
    "title": "Landscape_776225",
    "link_img": "https://live.staticflickr.com/65535/50039968927_19d399d1f1_o.jpg",
    "id_image": "Landscape_776225",
    "count_view": 0
  },
  {
    "link_thumb": "https://live.staticflickr.com/65535/50040119336_4dfb371931_n.jpg",
    "id_album": "-1102314093",
    "description": "Planets_502963",
    "title": "Planets_502963",
    "link_img": "https://live.staticflickr.com/65535/50040119336_806373b1ea_o.jpg",
    "id_image": "Planets_502963",
    "count_view": 0
  },
  {
    "link_thumb": "https://live.staticflickr.com/65535/50039988003_0f02bf36e9_n.jpg",
    "id_album": "1613540653",
    "description": "Space_822448",
    "title": "Space_822448",
    "link_img": "https://live.staticflickr.com/65535/50039988003_9e4eb5d915_o.jpg",
    "id_image": "Space_822448",
    "count_view": 0
  },
  {
    "link_thumb": "https://live.staticflickr.com/65535/50039663627_806fd64a21_n.jpg",
    "id_album": "1187037014",
    "description": "Battle_312630",
    "title": "Battle_312630",
    "link_img": "https://live.staticflickr.com/65535/50039663627_23d2cffc73_o.jpg",
    "id_image": "Battle_312630",
    "count_view": 0
  },
  {
    "link_thumb": "https://live.staticflickr.com/65535/50041613927_2a0b8a04d3_n.jpg",
    "id_album": "-221671103",
    "description": "Sun_551154",
    "title": "Sun_551154",
    "link_img": "https://live.staticflickr.com/65535/50041613927_075bd4829e_o.jpg",
    "id_image": "Sun_551154",
    "count_view": 0
  },
  {
    "link_thumb": "https://live.staticflickr.com/65535/50039301308_da25d9e76e_n.jpg",
    "id_album": "-1610342324",
    "description": "Nebula_903069",
    "title": "Nebula_903069",
    "link_img": "https://live.staticflickr.com/65535/50039301308_21e8945742_o.jpg",
    "id_image": "Nebula_903069",
    "count_view": 0
  },
  {
    "link_thumb": "https://live.staticflickr.com/65535/50039183448_bd47fd7b79_n.jpg",
    "id_album": "-1388385651",
    "description": "MilkyWay_550926",
    "title": "MilkyWay_550926",
    "link_img": "https://live.staticflickr.com/65535/50039183448_4bc8ed835e_o.jpg",
    "id_image": "MilkyWay_550926",
    "count_view": 0
  },
  {
    "link_thumb": "https://live.staticflickr.com/65535/50039875973_79dafde3ef_n.jpg",
    "id_album": "779690680",
    "description": "Robot_933178",
    "title": "Robot_933178",
    "link_img": "https://live.staticflickr.com/65535/50039875973_fc444683de_o.jpg",
    "id_image": "Robot_933178",
    "count_view": 0
  },
  {
    "link_thumb": "https://live.staticflickr.com/65535/50039827953_a4a481d507_n.jpg",
    "id_album": "779690680",
    "description": "Robot_871701",
    "title": "Robot_871701",
    "link_img": "https://live.staticflickr.com/65535/50039827953_7ee7bce919_o.jpg",
    "id_image": "Robot_871701",
    "count_view": 0
  },
  {
    "link_thumb": "https://live.staticflickr.com/65535/50039798761_95b4197085_n.jpg",
    "id_album": "-1610342324",
    "description": "Nebula_453086",
    "title": "Nebula_453086",
    "link_img": "https://live.staticflickr.com/65535/50039798761_5eec1daee7_o.jpg",
    "id_image": "Nebula_453086",
    "count_view": 0
  },
  {
    "link_thumb": "https://live.staticflickr.com/65535/50039985672_d4cfcf9e48_n.jpg",
    "id_album": "1402713104",
    "description": "Landscape_912943",
    "title": "Landscape_912943",
    "link_img": "https://live.staticflickr.com/65535/50039985672_5ed42d225e_o.jpg",
    "id_image": "Landscape_912943",
    "count_view": 0
  },
  {
    "link_thumb": "https://live.staticflickr.com/65535/50039679113_ef8179783b_n.jpg",
    "id_album": "-482547208",
    "description": "PostApocalyptic_931808",
    "title": "PostApocalyptic_931808",
    "link_img": "https://live.staticflickr.com/65535/50039679113_fa291e2157_o.jpg",
    "id_image": "PostApocalyptic_931808",
    "count_view": 0
  },
  {
    "link_thumb": "https://live.staticflickr.com/65535/50039144003_9877b1cee6_n.jpg",
    "id_album": "1402713104",
    "description": "Landscape_549184",
    "title": "Landscape_549184",
    "link_img": "https://live.staticflickr.com/65535/50039144003_a28302d139_o.jpg",
    "id_image": "Landscape_549184",
    "count_view": 0
  },
  {
    "link_thumb": "https://live.staticflickr.com/65535/50039920417_f3c2fe3f38_n.jpg",
    "id_album": "1204249541",
    "description": "Galaxy_957478",
    "title": "Galaxy_957478",
    "link_img": "https://live.staticflickr.com/65535/50039920417_70639223d4_o.jpg",
    "id_image": "Galaxy_957478",
    "count_view": 0
  },
  {
    "link_thumb": "https://live.staticflickr.com/65535/50040863763_fb7e8a5d25_n.jpg",
    "id_album": "2020068132",
    "description": "Vehicle_879546",
    "title": "Vehicle_879546",
    "link_img": "https://live.staticflickr.com/65535/50040863763_86b7b69a0c_o.jpg",
    "id_image": "Vehicle_879546",
    "count_view": 0
  },
  {
    "link_thumb": "https://live.staticflickr.com/65535/50038984288_08d32ff75c_n.jpg",
    "id_album": "-1964113117",
    "description": "City_988763",
    "title": "City_988763",
    "link_img": "https://live.staticflickr.com/65535/50038984288_0ab8eb6b0e_o.jpg",
    "id_image": "City_988763",
    "count_view": 0
  },
  {
    "link_thumb": "https://live.staticflickr.com/65535/50041458121_f4f91cd2ee_n.jpg",
    "id_album": "-1261420436",
    "description": "Warrior_400379",
    "title": "Warrior_400379",
    "link_img": "https://live.staticflickr.com/65535/50041458121_2bd8349867_o.jpg",
    "id_image": "Warrior_400379",
    "count_view": 0
  },
  {
    "link_thumb": "https://live.staticflickr.com/65535/50040121456_db6367d630_n.jpg",
    "id_album": "-1102314093",
    "description": "Planets_531451",
    "title": "Planets_531451",
    "link_img": "https://live.staticflickr.com/65535/50040121456_58705c94e8_o.jpg",
    "id_image": "Planets_531451",
    "count_view": 0
  },
  {
    "link_thumb": "https://live.staticflickr.com/65535/50039388131_56321f2213_n.jpg",
    "id_album": "869545341",
    "description": "Astronaut_972111",
    "title": "Astronaut_972111",
    "link_img": "https://live.staticflickr.com/65535/50039388131_6cafac2703_o.jpg",
    "id_image": "Astronaut_972111",
    "count_view": 0
  },
  {
    "link_thumb": "https://live.staticflickr.com/65535/50039386061_ec9469247e_n.jpg",
    "id_album": "869545341",
    "description": "Astronaut_957847",
    "title": "Astronaut_957847",
    "link_img": "https://live.staticflickr.com/65535/50039386061_c98dfe3d0f_o.jpg",
    "id_image": "Astronaut_957847",
    "count_view": 0
  },
  {
    "link_thumb": "https://live.staticflickr.com/65535/50039500911_52bbf8816b_n.jpg",
    "id_album": "-1964113117",
    "description": "City_842652",
    "title": "City_842652",
    "link_img": "https://live.staticflickr.com/65535/50039500911_8c4d262cef_o.jpg",
    "id_image": "City_842652",
    "count_view": 0
  },
  {
    "link_thumb": "https://live.staticflickr.com/65535/50040155941_ef93ef93ea_n.jpg",
    "id_album": "376235057",
    "description": "Planetscape_286866",
    "title": "Planetscape_286866",
    "link_img": "https://live.staticflickr.com/65535/50040155941_c704df78ab_o.jpg",
    "id_image": "Planetscape_286866",
    "count_view": 0
  },
  {
    "link_thumb": "https://live.staticflickr.com/65535/50039318701_92fe2ba90d_n.jpg",
    "id_album": "523598895",
    "description": "Artistic_222730",
    "title": "Artistic_222730",
    "link_img": "https://live.staticflickr.com/65535/50039318701_df9f7e0c4a_o.jpg",
    "id_image": "Artistic_222730",
    "count_view": 0
  },
  {
    "link_thumb": "https://live.staticflickr.com/65535/50039659866_0c7057fd38_n.jpg",
    "id_album": "1402713104",
    "description": "Landscape_119739",
    "title": "Landscape_119739",
    "link_img": "https://live.staticflickr.com/65535/50039659866_1048fc0503_o.jpg",
    "id_image": "Landscape_119739",
    "count_view": 0
  },
  {
    "link_thumb": "https://live.staticflickr.com/65535/50039102353_0fb9a9bca0_n.jpg",
    "id_album": "1204249541",
    "description": "Galaxy_72067",
    "title": "Galaxy_72067",
    "link_img": "https://live.staticflickr.com/65535/50039102353_ac835dce6a_o.jpg",
    "id_image": "Galaxy_72067",
    "count_view": 0
  },
  {
    "link_thumb": "https://live.staticflickr.com/65535/50040148836_5fe3c3e59d_n.jpg",
    "id_album": "-1102314093",
    "description": "Planets_957404",
    "title": "Planets_957404",
    "link_img": "https://live.staticflickr.com/65535/50040148836_f55cbc2e49_o.jpg",
    "id_image": "Planets_957404",
    "count_view": 0
  },
  {
    "link_thumb": "https://live.staticflickr.com/65535/50041417716_306a5c73bb_n.jpg",
    "id_album": "2020068132",
    "description": "Vehicle_883354",
    "title": "Vehicle_883354",
    "link_img": "https://live.staticflickr.com/65535/50041417716_5fe9f098d1_o.jpg",
    "id_image": "Vehicle_883354",
    "count_view": 0
  },
  {
    "link_thumb": "https://live.staticflickr.com/65535/50041461577_6bbc1d190a_n.jpg",
    "id_album": "-1863373220",
    "description": "StarWars_590407",
    "title": "StarWars_590407",
    "link_img": "https://live.staticflickr.com/65535/50041461577_2f024fded0_o.jpg",
    "id_image": "StarWars_590407",
    "count_view": 0
  },
  {
    "link_thumb": "https://live.staticflickr.com/65535/50038973278_95feebfe96_n.jpg",
    "id_album": "-1964113117",
    "description": "City_920201",
    "title": "City_920201",
    "link_img": "https://live.staticflickr.com/65535/50038973278_392e8407d4_o.jpg",
    "id_image": "City_920201",
    "count_view": 0
  },
  {
    "link_thumb": "https://live.staticflickr.com/65535/50039861596_b7bbbfb1f1_n.jpg",
    "id_album": "-1862561193",
    "description": "Other_145921",
    "title": "Other_145921",
    "link_img": "https://live.staticflickr.com/65535/50039861596_16990c0fc8_o.jpg",
    "id_image": "Other_145921",
    "count_view": 0
  },
  {
    "link_thumb": "https://live.staticflickr.com/65535/50040214586_39dc75b89b_n.jpg",
    "id_album": "-482547208",
    "description": "PostApocalyptic_568744",
    "title": "PostApocalyptic_568744",
    "link_img": "https://live.staticflickr.com/65535/50040214586_e0507098de_o.jpg",
    "id_image": "PostApocalyptic_568744",
    "count_view": 0
  },
  {
    "link_thumb": "https://live.staticflickr.com/65535/50041604467_3649713fbe_n.jpg",
    "id_album": "-221671103",
    "description": "Sun_215993",
    "title": "Sun_215993",
    "link_img": "https://live.staticflickr.com/65535/50041604467_2aba0a01e6_o.jpg",
    "id_image": "Sun_215993",
    "count_view": 0
  },
  {
    "link_thumb": "https://live.staticflickr.com/65535/50040228612_b498e543b0_n.jpg",
    "id_album": "395161030",
    "description": "Planet_559239",
    "title": "Planet_559239",
    "link_img": "https://live.staticflickr.com/65535/50040228612_ffe392c565_o.jpg",
    "id_image": "Planet_559239",
    "count_view": 0
  },
  {
    "link_thumb": "https://live.staticflickr.com/65535/50038865443_d471118668_n.jpg",
    "id_album": "-1780971522",
    "description": "Biohazard_384718",
    "title": "Biohazard_384718",
    "link_img": "https://live.staticflickr.com/65535/50038865443_e418c449a0_o.jpg",
    "id_image": "Biohazard_384718",
    "count_view": 0
  },
  {
    "link_thumb": "https://live.staticflickr.com/65535/50038757273_841f8e3d6b_n.jpg",
    "id_album": "523598895",
    "description": "Artistic_178312",
    "title": "Artistic_178312",
    "link_img": "https://live.staticflickr.com/65535/50038757273_dbc7586514_o.jpg",
    "id_image": "Artistic_178312",
    "count_view": 0
  },
  {
    "link_thumb": "https://live.staticflickr.com/65535/50039655361_8228c654c8_n.jpg",
    "id_album": "1204249541",
    "description": "Galaxy_901328",
    "title": "Galaxy_901328",
    "link_img": "https://live.staticflickr.com/65535/50039655361_8791b22808_o.jpg",
    "id_image": "Galaxy_901328",
    "count_view": 0
  },
  {
    "link_thumb": "https://live.staticflickr.com/65535/50039699812_a360930b74_n.jpg",
    "id_album": "-1964113117",
    "description": "City_156371",
    "title": "City_156371",
    "link_img": "https://live.staticflickr.com/65535/50039699812_04627277bc_o.jpg",
    "id_image": "City_156371",
    "count_view": 0
  },
  {
    "link_thumb": "https://live.staticflickr.com/65535/50038947833_1094422e5e_n.jpg",
    "id_album": "-1964113117",
    "description": "City_778694",
    "title": "City_778694",
    "link_img": "https://live.staticflickr.com/65535/50038947833_e07af4082c_o.jpg",
    "id_image": "City_778694",
    "count_view": 0
  },
  {
    "link_thumb": "https://live.staticflickr.com/65535/50039378196_444bedd78d_n.jpg",
    "id_album": "869545341",
    "description": "Astronaut_923959",
    "title": "Astronaut_923959",
    "link_img": "https://live.staticflickr.com/65535/50039378196_27247c1baa_o.jpg",
    "id_image": "Astronaut_923959",
    "count_view": 0
  },
  {
    "link_thumb": "https://live.staticflickr.com/65535/50039557841_f5c74496ef_n.jpg",
    "id_album": "-437872736",
    "description": "Creature_540785",
    "title": "Creature_540785",
    "link_img": "https://live.staticflickr.com/65535/50039557841_277aaa92e1_o.jpg",
    "id_image": "Creature_540785",
    "count_view": 0
  },
  {
    "link_thumb": "https://live.staticflickr.com/65535/50039351403_72481bbb3c_n.jpg",
    "id_album": "395161030",
    "description": "Planet_1004885",
    "title": "Planet_1004885",
    "link_img": "https://live.staticflickr.com/65535/50039351403_9f6e816b25_o.jpg",
    "id_image": "Planet_1004885",
    "count_view": 0
  },
  {
    "link_thumb": "https://live.staticflickr.com/65535/50040019892_c2ef3ddbaf_n.jpg",
    "id_album": "416351698",
    "description": "Moon_422190",
    "title": "Moon_422190",
    "link_img": "https://live.staticflickr.com/65535/50040019892_da7cfe3333_o.jpg",
    "id_image": "Moon_422190",
    "count_view": 0
  },
  {
    "link_thumb": "https://live.staticflickr.com/65535/50039984098_20a6ba78fb_n.jpg",
    "id_album": "1613540653",
    "description": "Space_779128",
    "title": "Space_779128",
    "link_img": "https://live.staticflickr.com/65535/50039984098_cc4b593ac8_o.jpg",
    "id_image": "Space_779128",
    "count_view": 0
  },
  {
    "link_thumb": "https://live.staticflickr.com/65535/50040327112_6a7678301a_n.jpg",
    "id_album": "-1102314093",
    "description": "Planets_237553",
    "title": "Planets_237553",
    "link_img": "https://live.staticflickr.com/65535/50040327112_697a3a18a1_o.jpg",
    "id_image": "Planets_237553",
    "count_view": 0
  }
]